build/servant_1.2.1/nexys_a7-vivado/.Xil/Vivado-18404-binhkieudo-hotswap/hw_ila_data_1/zip_work/waveform.vcd
$date
        2023-Aug-07 01:42:14
$end
$version
        Vivado v2022.2 (64-bit)
$end
$timescale
        1ps
$end
$scope module dut $end
$var reg 1 " nolabel_line52/serv_dtm/o_dmi_req_valid_1 $end
$var reg 6 # nolabel_line52/serv_dtm/o_dmi_req_address_1 [5:0] $end
$var reg 32 ) nolabel_line52/serv_dtm/o_dmi_req_data_1 [31:0] $end
$var reg 2 I nolabel_line52/serv_dtm/o_dmi_req_op_1 [1:0] $end
$var reg 1 K nolabel_line52/serv_dtm/o_dmi_rsp_ready_1 $end
$var reg 1 L nolabel_line52/serv_dtm/tap_sync_trst_1 $end
$var reg 1 M nolabel_line52/serv_dtm/tap_sync_tck_rising_1 $end
$var reg 1 N nolabel_line52/serv_dtm/tap_sync_tck_falling_1 $end
$var reg 1 O nolabel_line52/serv_dtm/tap_sync_tdi_1 $end
$var reg 1 P nolabel_line52/serv_dtm/tap_sync_tms_1 $end
$var reg 3 Q nolabel_line52/serv_dtm/dmi_ctrl_state_1 [2:0] $end
$var reg 1 T nolabel_line52/serv_dtm/dmi_hard_reset_1 $end
$var reg 1 U nolabel_line52/serv_dtm/dmi_reset_1 $end
$var reg 2 V nolabel_line52/serv_dtm/dmi_rsp_1 [1:0] $end
$var reg 32 X nolabel_line52/serv_dtm/tap_reg_dmi_nxt_1 [33:2] $end
$var reg 32 x nolabel_line52/serv_dtm/o_dmi_req_data_2 [31:0] $end
$var reg 6 :" nolabel_line52/serv_dtm/o_dmi_req_address_2 [5:0] $end
$var reg 4 @" nolabel_line52/serv_dtm/tap_ctrl_state_1 [3:0] $end
$var reg 5 D" nolabel_line52/serv_dtm/tap_reg_ireg_1 [4:0] $end
$var reg 1 I" nolabel_line52/serv_dtm/tap_reg_bypass_1 $end
$var reg 32 J" nolabel_line52/serv_dtm/tap_reg_idcode_1 [31:0] $end
$var reg 32 j" nolabel_line52/serv_dtm/tap_reg_dtmcs_1 [31:0] $end
$var reg 2 ,# nolabel_line52/serv_dtm/o_dmi_req_op_2 [1:0] $end
$var reg 38 .# nolabel_line52/serv_dtm/tap_reg_dmi_1 [39:2] $end
$var reg 1 T# nolabel_line52/serv_dtm/i_tck $end
$var reg 1 U# nolabel_line52/serv_dtm/i_trst $end
$var reg 1 V# nolabel_line52/serv_dtm/i_tdi $end
$var reg 1 W# nolabel_line52/serv_dtm/i_tms $end
$var reg 1 X# nolabel_line52/serv_dtm/o_tdo $end
$var reg 1 Y# nolabel_line52/serv_dtm/i_dmi_rsp_valid $end
$var reg 1 Z# nolabel_line52/serv_dtm/o_dmi_rsp_ready_2 $end
$var reg 32 [# nolabel_line52/serv_dtm/i_dmi_rsp_data [31:0] $end
$var reg 1 {# nolabel_line52/serv_dtm/n_0_1 $end
$var reg 1 |# nolabel_line52/serv_dtm/n_0_0 $end
$var reg 32 }# nolabel_line52/serv_dtm/dmi_dmcontrol_1 [31:0] $end
$var reg 32 ?$ nolabel_line52/serv_dtm/pc_1 [31:0] $end
$var reg 32 _$ nolabel_line52/serv_dtm/i_sbus_adr_1 [31:0] $end
$var reg 32 !% nolabel_line52/serv_dtm/i_sbus_dat_1 [31:0] $end
$var reg 4 A% nolabel_line52/serv_dtm/i_subs_sel_1 [3:0] $end
$var reg 1 E% nolabel_line52/serv_dtm/i_sbus_we_1 $end
$var reg 1 F% nolabel_line52/serv_dtm/i_sbus_cyc_1 $end
$var reg 32 G% nolabel_line52/serv_dtm/o_sbus_rdt_1 [31:0] $end
$var reg 1 g% nolabel_line52/serv_dtm/o_sbus_ack_1 $end
$var reg 1 h% nolabel_line52/serv_dtm/o_cpu_ndmrst_1 $end
$var reg 1 i% nolabel_line52/serv_dtm/o_cpu_req_halt_1 $end
$var reg 3 j% nolabel_line52/serv_dtm/dm_ctrl_state_1 [2:0] $end
$var reg 32 m% nolabel_line52/serv_dtm/dbg_probuf0_1 [31:0] $end
$var reg 32 /& nolabel_line52/serv_dtm/dbg_probuf1_1 [31:0] $end
$var reg 32 O& nolabel_line52/serv_dtm/dbg_probuf2_1 [31:0] $end
$var reg 32 o& nolabel_line52/serv_dtm/dbg_probuf3_1 [31:0] $end
$var reg 1 1' nolabel_line52/serv_dtm/dbg_rden_1 $end
$var reg 1 2' nolabel_line52/serv_dtm/dbg_wren_1 $end
$var reg 2 3' nolabel_line52/serv_dtm/dbg_maddr_1 [1:0] $end
$var reg 1 5' nolabel_line52/serv_dtm/dbg_resume_req_1 $end
$var reg 1 6' nolabel_line52/serv_dtm/dbg_execute_req_1 $end
$var reg 1 7' nolabel_line52/serv_dtm/dbg_process_1 $end
$var reg 1 8' nolabel_line52/serv_dtm/dbg_dm_ctrl_busy_1 $end
$var reg 3 9' nolabel_line52/serv_dtm/dbg_dm_ctrl_cmderr_1 [2:0] $end
$var reg 1 <' nolabel_line52/serv_dtm/ibus_cycle_1 $end
$var reg 128 =' nolabel_line52/serv_dtm/clk_count_1 [127:0] $end
$var reg 1 _( nolabel_line52/serv_dtm/o_dbg_step_1 $end
$var reg 6 `( nolabel_line52/serv_dtm/o_dbg_rf_waddr_1 [5:0] $end
$var reg 1 f( nolabel_line52/serv_dtm/o_dbg_rf_w1wren_1 $end
$var reg 1 g( nolabel_line52/serv_dtm/o_dbg_rf_we_1 $end
$var reg 8 h( nolabel_line52/serv_dtm/o_dbg_rf_wdata_1 [7:0] $end
$var reg 32 p( nolabel_line52/serv_dtm/i_bus_rdt [31:0] $end
$var reg 1 2) _TRIGGER $end
$var reg 1 3) _WINDOW $end
$var reg 1 4) _GAP $end
$upscope $end
$enddefinitions $end
#0
$dumpvars
0"
b100001 #
b0 )
b0 I
0K
1L
0M
0N
0O
0P
b0 Q
0T
0U
b0 V
b10000110000001110000011 X
b0 x
b100001 :"
b10 @"
b10001 D"
0I"
b11111111111111111111111111111111 J"
b0 j"
b0 ,#
b10000100000000010000110000001110000011 .#
0T#
1U#
0V#
0W#
0X#
0Y#
0Z#
b0 [#
0{#
0|#
b1 }#
b11111111111111111111100000010000 ?$
b11111111111111111111100000010000 _$
b0 !%
b11 A%
0E%
1F%
b10001100000100000100010000000011 G%
1g%
0h%
0i%
b0 j%
b10001000000000000010010000000011 m%
b10011 /&
b10011 O&
b100000000000001110011 o&
11'
02'
b0 3'
05'
06'
17'
08'
b0 9'
1<'
b100 ='
0_(
b10000 `(
0f(
0g(
b0 h(
b10001100000100000100010000000011 p(
02)
13)
04)
$end
#1
b0 _$
b1 A%
0F%
01'
0<'
b10101 `(
#2
0g%
b1010000010100010011 p(
#4
b10000000000000000000000000000000 _$
b10000000000000000000000000000000 !%
b100 A%
#5
b1000000000000000000000000000000 _$
b1000000000000000000000000000000 !%
b10 A%
#6
b100000000000000000000000000000 _$
b100000000000000000000000000000 !%
#7
b10000000000000000000000000000 _$
b10000000000000000000000000000 !%
#8
b1000000000000000000000000000 _$
b1000000000000000000000000000 !%
#9
b100000000000000000000000000 _$
b100000000000000000000000000 !%
#10
b10000010000000000000000000000000 _$
b10000010000000000000000000000000 !%
#11
b11000001000000000000000000000000 _$
b11000001000000000000000000000000 !%
#12
b1100000100000000000000000000000 _$
b1100000100000000000000000000000 !%
#13
b110000010000000000000000000000 _$
b110000010000000000000000000000 !%
#14
b11000001000000000000000000000 _$
b11000001000000000000000000000 !%
#15
b10001100000100000000000000000000 _$
b10001100000100000000000000000000 !%
#16
b11000110000010000000000000000000 _$
b11000110000010000000000000000000 !%
#17
b11100011000001000000000000000000 _$
b11100011000001000000000000000000 !%
#18
b11110001100000100000000000000000 _$
b11110001100000100000000000000000 !%
#19
b11111000110000010000000000000000 _$
b11111000110000010000000000000000 !%
#20
b11111100011000001000000000000000 _$
b11111100011000001000000000000000 !%
#21
b11111110001100000100000000000000 _$
b11111110001100000100000000000000 !%
#22
b11111111000110000010000000000000 _$
b11111111000110000010000000000000 !%
#23
b11111111100011000001000000000000 _$
b11111111100011000001000000000000 !%
#24
b11111111110001100000100000000000 _$
b11111111110001100000100000000000 !%
b0 p(
#25
b11111111111000110000010000000000 _$
b11111111111000110000010000000000 !%
#26
b11111111111100011000001000000000 _$
b11111111111100011000001000000000 !%
#27
b11111111111110001100000100000000 _$
b11111111111110001100000100000000 !%
#28
b11111111111111000110000010000000 _$
b10 3'
#29
b11111111111111100011000001000000 _$
b1 3'
#30
b11111111111111110001100000100000 _$
b0 3'
#31
b11111111111111111000110000010000 _$
#32
b11111111111111111100011000001000 _$
#33
b11111111111111111110001100000100 _$
#34
b11111111111111111111000110000000 _$
b10 3'
#35
b11111111111111111111100011000000 _$
1F%
11'
b11 3'
#36
b0 G%
1g%
#37
b0 !%
0F%
01'
b11000000 h(
#38
b1111111111111111111110000001000 ?$
b10000000000000000000000000000000 !%
0g%
b1100000 h(
#39
b111111111111111111111000000100 ?$
b11000000000000000000000000000000 !%
b110000 h(
#40
b10011111111111111111111100000010 ?$
b11100000000000000000000000000000 !%
b11000 h(
#41
b1001111111111111111111110000001 ?$
b11110000000000000000000000000000 !%
b1100 h(
#42
b10100111111111111111111111000000 ?$
b11111000000000000000000000000000 !%
b110 h(
#43
b1010011111111111111111111100000 ?$
b11111100000000000000000000000000 !%
b11 h(
#44
b101001111111111111111111110000 ?$
b11111110000000000000000000000000 !%
b1 h(
#45
b10100111111111111111111111000 ?$
b11111111000000000000000000000000 !%
1g(
b0 h(
#46
b1010011111111111111111111100 ?$
b11111111100000000000000000000000 !%
0g(
#47
b101001111111111111111111110 ?$
b11111111110000000000000000000000 !%
#48
b10100111111111111111111111 ?$
b11111111111000000000000000000000 !%
#49
b10000001010011111111111111111111 ?$
b11111111111100000000000000000000 !%
#50
b11000000101001111111111111111111 ?$
b11111111111110000000000000000000 !%
#51
b11100000010100111111111111111111 ?$
b11111111111111000000000000000000 !%
#52
b11110000001010011111111111111111 ?$
b11111111111111100000000000000000 !%
#53
b11111000000101001111111111111111 ?$
b11111111111111110000000000000000 !%
1g(
#54
b11111100000010100111111111111111 ?$
b11111111111111111000000000000000 !%
0g(
#55
b11111110000001010011111111111111 ?$
b11111111111111111100000000000000 !%
#56
b11111111000000101001111111111111 ?$
b11111111111111111110000000000000 !%
#57
b11111111100000010100111111111111 ?$
b11111111111111111111000000000000 !%
#58
b11111111110000001010011111111111 ?$
b11111111111111111111100000000000 !%
#59
b11111111111000000101001111111111 ?$
b11111111111111111111110000000000 !%
#60
b11111111111100000010100111111111 ?$
b11111111111111111111111000000000 !%
#61
b11111111111110000001010011111111 ?$
b11111111111111111111111100000000 !%
1g(
#62
b11111111111111000000101001111111 ?$
0g(
#63
b11111111111111100000010100111111 ?$
#64
b11111111111111110000001010011111 ?$
#65
1T#
b11111111111111111000000101001111 ?$
#66
b11111111111111111100000010100111 ?$
#67
1M
b11111111111111111110000001010011 ?$
#68
b10 I
0M
b10 ,#
b1000010000000001000011000000111000001 .#
b11111111111111111111000000101001 ?$
#69
b11111111111111111111100000010100 ?$
b11111111111111111111100000010100 _$
1F%
11'
b0 3'
1<'
1g(
#70
b11111110000001000000100011100011 G%
1g%
0g(
b11111110000001000000100011100011 p(
#71
b11111111111111111111100011000000 _$
1E%
0F%
01'
b11 3'
0<'
b10100 `(
b11000000 h(
#72
0g%
b11100000 h(
b0 p(
#73
b11110000 h(
#74
b1111111111111111111110001100000 _$
b1111111111111111111111110000000 !%
b1 A%
b1 3'
b0 h(
#75
b111111111111111111111000110000 _$
b111111111111111111111111000000 !%
b0 3'
b1111100 h(
#76
b11111111111111111111100011000 _$
b11111111111111111111111100000 !%
b111110 h(
#77
b1111111111111111111110001100 _$
b1111111111111111111111110000 !%
b10 3'
b11111 h(
#78
b10000111111111111111111111000100 _$
b111111111111111111111111000 !%
b11 3'
b1111 h(
#79
b11000011111111111111111111100000 _$
b11111111111111111111111100 !%
b111 h(
#80
b11100001111111111111111111110000 _$
b1111111111111111111111110 !%
b11 h(
#81
b11110000111111111111111111111000 _$
b111111111111111111111111 !%
b1 h(
#82
b11111000011111111111111111111100 _$
b11111111111111111111111 !%
b0 h(
#83
b11111100001111111111111111111100 _$
b1111111111111111111111 !%
#84
b11111110000111111111111111111100 _$
b111111111111111111111 !%
#85
b11111111000011111111111111111100 _$
b11111111111111111111 !%
#86
b11111111100001111111111111111100 _$
b1111111111111111111 !%
#87
b11111111110000111111111111111100 _$
b111111111111111111 !%
#88
b11111111111000011111111111111100 _$
b11111111111111111 !%
#89
b11111111111100001111111111111100 _$
b1111111111111111 !%
#90
b11111111111110000111111111111100 _$
b111111111111111 !%
#91
b11111111111111000011111111111100 _$
b11111111111111 !%
#92
b11111111111111100001111111111100 _$
b1111111111111 !%
#93
b11111111111111110000111111111100 _$
b111111111111 !%
#94
b11111111111111111000011111111100 _$
b11111111111 !%
#95
b11111111111111111100001111111100 _$
b1111111111 !%
#96
b11111111111111111110000111111100 _$
b111111111 !%
#97
b11111111111111111111000011111100 _$
b11111111 !%
#98
b11111111111111111111100001111100 _$
b1111111 !%
b1 3'
#99
b11111111111111111111110000111100 _$
b111111 !%
b0 3'
#100
b11111111111111111111111000011100 _$
b11111 !%
#101
b11111111111111111111111100001100 _$
b1111 !%
#102
b11111111111111111111111110000100 _$
b111 !%
b10 3'
#103
b11111111111111111111111111000000 _$
b11 !%
b11 3'
#104
b11111111111111111111111111100000 _$
b1 !%
#105
b11111111111111111111111111110000 _$
b0 !%
#107
b1111111111111111111110000001010 ?$
b11111111111111111111111111111000 _$
#108
b111111111111111111111000000101 ?$
b11111111111111111111111111111100 _$
#109
b10011111111111111111111100000010 ?$
b100 A%
#110
b1001111111111111111111110000001 ?$
b1000 A%
#111
b100111111111111111111111000000 ?$
#112
b10011111111111111111111100000 ?$
#113
b1001111111111111111111110000 ?$
#114
b100111111111111111111111000 ?$
#115
b10011111111111111111111100 ?$
#116
b1001111111111111111111110 ?$
#117
b100111111111111111111111 ?$
#118
b10000000010011111111111111111111 ?$
#119
b11000000001001111111111111111111 ?$
#120
b11100000000100111111111111111111 ?$
#121
b11110000000010011111111111111111 ?$
#122
b11111000000001001111111111111111 ?$
#123
b11111100000000100111111111111111 ?$
#124
b11111110000000010011111111111111 ?$
#125
b11111111000000001001111111111111 ?$
#126
b11111111100000000100111111111111 ?$
#127
b11111111110000000010011111111111 ?$
#128
b11111111111000000001001111111111 ?$
#129
b11111111111100000000100111111111 ?$
#130
b11111111111110000000010011111111 ?$
#131
b11111111111111000000001001111111 ?$
#132
b11111111111111100000000100111111 ?$
#133
b11111111111111110000000010011111 ?$
#134
b11111111111111111000000001001111 ?$
#135
b11111111111111111100000000100111 ?$
#136
b11111111111111111110000000010011 ?$
#137
b11111111111111111111000000001001 ?$
#138
b11111111111111111111100000000100 ?$
b11111111111111111111100000000100 _$
0E%
1F%
11'
b0 3'
1<'
#139
b10001100000000000000000000100011 G%
1g%
b10001100000000000000000000100011 p(
#140
b11111111111111111111111111111100 _$
1E%
0F%
01'
b11 3'
0<'
#141
0g%
b0 p(
#143
b1111111111111111111111111111100 _$
b10 A%
#144
b111111111111111111111111111100 _$
b1 A%
#145
b11111111111111111111111111100 _$
#146
b1111111111111111111111111100 _$
#147
b111111111111111111111111100 _$
#148
b11111111111111111111111100 _$
#149
b10000001111111111111111111111100 _$
#150
b11000000111111111111111111111100 _$
#151
b1100000011111111111111111111100 _$
#152
b110000001111111111111111111100 _$
#153
b11000000111111111111111111100 _$
#154
b10001100000011111111111111111100 _$
#155
b11000110000001111111111111111100 _$
#156
b11100011000000111111111111111100 _$
#157
b11110001100000011111111111111100 _$
#158
b11111000110000001111111111111100 _$
#159
b11111100011000000111111111111100 _$
#160
b11111110001100000011111111111100 _$
#161
b11111111000110000001111111111100 _$
#162
b11111111100011000000111111111100 _$
#163
b11111111110001100000011111111100 _$
#164
b11111111111000110000001111111100 _$
#165
1V#
b11111111111100011000000111111100 _$
#166
0T#
b11111111111110001100000011111100 _$
#167
b11111111111111000110000001111100 _$
b1 3'
#168
1N
1O
b11111111111111100011000000111100 _$
b0 3'
#169
0N
b11111111111111110001100000011100 _$
#170
b11111111111111111000110000001100 _$
#171
b11111111111111111100011000000100 _$
#172
b11111111111111111110001100000000 _$
#173
b11111111111111111111000110000000 _$
b10 3'
#174
b11111111111111111111100011000000 _$
1F%
12'
b11 3'
#175
1g%
b10001100000000000000000000100011 p(
#176
b10001100000000000000000000100011 !%
0F%
02'
#177
b1111111111111111111110000000010 ?$
b1000110000000000000000000010001 !%
0g%
b10000000 h(
b0 p(
#178
b111111111111111111111000000001 ?$
b100011000000000000000000001000 !%
b11000000 h(
#179
b11111111111111111111100000000 ?$
b10001100000000000000000000100 !%
b1100000 h(
#180
b10001111111111111111111110000000 ?$
b1000110000000000000000000010 !%
b110000 h(
#181
b1000111111111111111111111000000 ?$
b100011000000000000000000001 !%
b11000 h(
#182
b100011111111111111111111100000 ?$
b10001100000000000000000000 !%
b10001100 h(
#183
b10001111111111111111111110000 ?$
b1000110000000000000000000 !%
b1000110 h(
#184
b1000111111111111111111111000 ?$
b100011000000000000000000 !%
b100011 h(
#185
b100011111111111111111111100 ?$
b10001100000000000000000 !%
b0 h(
#186
b10001111111111111111111110 ?$
b1000110000000000000000 !%
b1000 h(
#187
b1000111111111111111111111 ?$
b100011000000000000000 !%
b100 h(
#188
b10000000100011111111111111111111 ?$
b10001100000000000000 !%
b10 h(
#189
b11000000010001111111111111111111 ?$
b1000110000000000000 !%
b1 h(
#190
b11100000001000111111111111111111 ?$
b100011000000000000 !%
b0 h(
#191
b11110000000100011111111111111111 ?$
b10001100000000000 !%
#192
b11111000000010001111111111111111 ?$
b1000110000000000 !%
#193
b11111100000001000111111111111111 ?$
b100011000000000 !%
#194
b11111110000000100011111111111111 ?$
b10001100000000 !%
#195
b11111111000000010001111111111111 ?$
b1000110000000 !%
#196
b11111111100000001000111111111111 ?$
b100011000000 !%
#197
b11111111110000000100011111111111 ?$
b10001100000 !%
#198
b11111111111000000010001111111111 ?$
b1000110000 !%
#199
b11111111111100000001000111111111 ?$
b100011000 !%
#200
b11111111111110000000100011111111 ?$
b10001100 !%
#201
b11111111111111000000010001111111 ?$
b1000110 !%
#202
b11111111111111100000001000111111 ?$
b100011 !%
#203
b11111111111111110000000100011111 ?$
b10001 !%
#204
b11111111111111111000000010001111 ?$
b1000 !%
#205
b11111111111111111100000001000111 ?$
b100 !%
#206
b11111111111111111110000000100011 ?$
b10 !%
#207
b11111111111111111111000000010001 ?$
b1 !%
#208
b11111111111111111111100000001000 ?$
b11111111111111111111100000001000 _$
b0 !%
0E%
1F%
11'
b0 3'
1<'
#209
b10001100001000000100010000000011 G%
1g%
b10001100001000000100010000000011 p(
#210
b11111111111111111111100011000000 _$
0F%
01'
b11 3'
0<'
b10110 `(
#211
0g%
b0 p(
#213
b1111111111111111111110001100000 _$
b1 3'
#214
b10111111111111111111111000110000 _$
b10000000000000000000000000000000 !%
b100 A%
b0 3'
#215
b1011111111111111111111100011000 _$
b1000000000000000000000000000000 !%
#216
b101111111111111111111110001100 _$
b100000000000000000000000000000 !%
b10 3'
#217
b10111111111111111111111000100 _$
b10000000000000000000000000000 !%
b11 3'
#218
b1011111111111111111111100000 _$
b1000000000000000000000000000 !%
#219
b10000101111111111111111111110000 _$
b10000100000000000000000000000000 !%
#220
b11000010111111111111111111111000 _$
b11000010000000000000000000000000 !%
#221
b1100001011111111111111111111100 _$
b1100001000000000000000000000000 !%
b1111 h(
#222
b110000101111111111111111111100 _$
b110000100000000000000000000000 !%
b0 h(
#223
b11000010111111111111111111100 _$
b11000010000000000000000000000 !%
#224
b10001100001011111111111111111100 _$
b10001100001000000000000000000000 !%
#225
b11000110000101111111111111111100 _$
b11000110000100000000000000000000 !%
#226
b11100011000010111111111111111100 _$
b11100011000010000000000000000000 !%
#227
b11110001100001011111111111111100 _$
b11110001100001000000000000000000 !%
#228
b11111000110000101111111111111100 _$
b11111000110000100000000000000000 !%
#229
b11111100011000010111111111111100 _$
#230
b11111110001100001011111111111100 _$
#231
b11111111000110000101111111111100 _$
#232
b11111111100011000010111111111100 _$
#233
b11111111110001100001011111111100 _$
#234
b11111111111000110000101111111100 _$
#235
b11111111111100011000010111111100 _$
#236
b11111111111110001100001011111100 _$
#237
b11111111111111000110000101111100 _$
b1 3'
#238
b11111111111111100011000010111100 _$
b10 3'
#239
b11111111111111110001100001011100 _$
b1 3'
#240
b11111111111111111000110000101100 _$
b0 3'
#241
b11111111111111111100011000010100 _$
#242
b11111111111111111110001100001000 _$
#243
b11111111111111111111000110000100 _$
b10 3'
#244
b11111111111111111111100011000000 _$
1F%
11'
b11 3'
#245
b0 G%
1g%
#246
b0 !%
0F%
01'
#247
b1111111111111111111110000000100 ?$
b10000000000000000000000000000000 !%
0g%
#248
b111111111111111111111000000010 ?$
b11000000000000000000000000000000 !%
#249
b10011111111111111111111100000001 ?$
b11100000000000000000000000000000 !%
#250
b11001111111111111111111110000000 ?$
b11110000000000000000000000000000 !%
#251
b1100111111111111111111111000000 ?$
b11111000000000000000000000000000 !%
#252
b110011111111111111111111100000 ?$
b11111100000000000000000000000000 !%
#253
b11001111111111111111111110000 ?$
b11111110000000000000000000000000 !%
#254
b1100111111111111111111111000 ?$
b11111111000000000000000000000000 !%
1g(
#255
b110011111111111111111111100 ?$
b11111111100000000000000000000000 !%
0g(
b1111 h(
#256
b11001111111111111111111110 ?$
b11111111110000000000000000000000 !%
b0 h(
#257
b1100111111111111111111111 ?$
b11111111111000000000000000000000 !%
#258
b10000000110011111111111111111111 ?$
b11111111111100000000000000000000 !%
#259
b11000000011001111111111111111111 ?$
b11111111111110000000000000000000 !%
#260
b11100000001100111111111111111111 ?$
b11111111111111000000000000000000 !%
#261
b11110000000110011111111111111111 ?$
b11111111111111100000000000000000 !%
#262
b11111000000011001111111111111111 ?$
b11111111111111110000000000000000 !%
1g(
#263
b11111100000001100111111111111111 ?$
0g(
#264
b11111110000000110011111111111111 ?$
#265
1T#
b11111111000000011001111111111111 ?$
#266
b11111111100000001100111111111111 ?$
#267
1M
b11111111110000000110011111111111 ?$
#268
b11 I
0M
b11 ,#
b10100001000000000100001100000011100000 .#
b11111111111000000011001111111111 ?$
#269
b11111111111100000001100111111111 ?$
#270
b11111111111110000000110011111111 ?$
1g(
#271
b11111111111111000000011001111111 ?$
0g(
#272
b11111111111111100000001100111111 ?$
#273
b11111111111111110000000110011111 ?$
#274
b11111111111111111000000011001111 ?$
#275
b11111111111111111100000001100111 ?$
#276
b11111111111111111110000000110011 ?$
#277
b11111111111111111111000000011001 ?$
#278
b11111111111111111111100000001100 ?$
b11111111111111111111100000001100 _$
1F%
11'
b0 3'
1<'
1g(
#279
b1000001110001100011 G%
1g%
0g(
b1000001110001100011 p(
#280
b11111111111111111111100011000000 _$
b1100 A%
1E%
0F%
01'
b11 3'
0<'
b10000 `(
b11000000 h(
#281
0g%
b11100000 h(
b0 p(
#282
b11110000 h(
#283
b1111111111111111111110001100000 _$
b1111111111111111000000000000000 !%
b10 A%
b1 3'
b0 h(
#284
b111111111111111111111000110000 _$
b111111111111111100000000000000 !%
b11 A%
b0 3'
b1111100 h(
#285
b11111111111111111111100011000 _$
b11111111111111110000000000000 !%
b111110 h(
#286
b10001111111111111111111110001100 _$
b1111111111111111000000000000 !%
b10 3'
b11111 h(
#287
b11000111111111111111111111000100 _$
b111111111111111100000000000 !%
b11 3'
b1111 h(
#288
b1100011111111111111111111100000 _$
b11111111111111110000000000 !%
b111 h(
#289
b110001111111111111111111110000 _$
b1111111111111111000000000 !%
b11 h(
#290
b11000111111111111111111111000 _$
b111111111111111100000000 !%
b1 h(
#291
b1100011111111111111111111100 _$
b11111111111111110000000 !%
b0 h(
#292
b110001111111111111111111100 _$
b1111111111111111000000 !%
#293
b11000111111111111111111100 _$
b111111111111111100000 !%
#294
b1100011111111111111111100 _$
b11111111111111110000 !%
#295
b110001111111111111111100 _$
b1111111111111111000 !%
#296
b11000111111111111111100 _$
b111111111111111100 !%
#297
b1100011111111111111100 _$
b11111111111111110 !%
#298
b110001111111111111100 _$
b1111111111111111 !%
#299
b11000111111111111100 _$
b111111111111111 !%
#300
b1100011111111111100 _$
b11111111111111 !%
#301
b110001111111111100 _$
b1111111111111 !%
#302
b11000111111111100 _$
b111111111111 !%
#303
b1100011111111100 _$
b11111111111 !%
#304
b110001111111100 _$
b1111111111 !%
#305
b11000111111100 _$
b111111111 !%
#306
b1100011111100 _$
b11111111 !%
#307
b110001111100 _$
b1111111 !%
b1 3'
#308
b11000111100 _$
b111111 !%
b0 3'
#309
b1100011100 _$
b11111 !%
#310
b110001100 _$
b1111 !%
b10 3'
#311
b11000100 _$
b111 !%
b11 3'
#312
b1100000 _$
b11 !%
b1 3'
#313
b110000 _$
b1 !%
b0 3'
#314
b11000 _$
b0 !%
b11111110011100110001101011100011 p(
#315
b111001110110011 p(
#316
b1111111111111111111110000000110 ?$
b1100 _$
#317
b111111111111111111111000000011 ?$
b100 _$
b1100 A%
b1010010011 p(
#318
b11111111111111111111100000001 ?$
b0 _$
b1000 A%
b1010000010100010011 p(
#319
b1111111111111111111110000000 ?$
b10 A%
#320
b10000111111111111111111111000000 ?$
b11 A%
#321
b1000011111111111111111111100000 ?$
#322
b100001111111111111111111110000 ?$
#323
b10000111111111111111111111000 ?$
#324
b1000011111111111111111111100 ?$
#325
b100001111111111111111111110 ?$
#326
b10000111111111111111111111 ?$
#327
b10000001000011111111111111111111 ?$
#328
b11000000100001111111111111111111 ?$
#329
b11100000010000111111111111111111 ?$
#330
b11110000001000011111111111111111 ?$
#331
b11111000000100001111111111111111 ?$
#332
b11111100000010000111111111111111 ?$
#333
b11111110000001000011111111111111 ?$
#334
b11111111000000100001111111111111 ?$
#335
b11111111100000010000111111111111 ?$
#336
b11111111110000001000011111111111 ?$
#337
b11111111111000000100001111111111 ?$
#338
b11111111111100000010000111111111 ?$
#339
b11111111111110000001000011111111 ?$
#340
b11111111111111000000100001111111 ?$
#341
b11111111111111100000010000111111 ?$
#342
b11111111111111110000001000011111 ?$
#343
b11111111111111111000000100001111 ?$
#344
b11111111111111111100000010000111 ?$
#345
b11111111111111111110000001000011 ?$
#346
b11111111111111111111000000100001 ?$
#347
b11111111111111111111100000010000 ?$
b11111111111111111111100000010000 _$
0E%
1F%
11'
1<'
#348
b10001100000100000100010000000011 G%
1g%
b10001100000100000100010000000011 p(
#349
b0 _$
b1 A%
0F%
01'
0<'
b10101 `(
#350
0g%
b1010000010100010011 p(
#352
b10000000000000000000000000000000 _$
b10000000000000000000000000000000 !%
b100 A%
#353
b1000000000000000000000000000000 _$
b1000000000000000000000000000000 !%
b10 A%
#354
b100000000000000000000000000000 _$
b100000000000000000000000000000 !%
#355
b10000000000000000000000000000 _$
b10000000000000000000000000000 !%
#356
b1000000000000000000000000000 _$
b1000000000000000000000000000 !%
#357
b100000000000000000000000000 _$
b100000000000000000000000000 !%
#358
b10000010000000000000000000000000 _$
b10000010000000000000000000000000 !%
#359
b11000001000000000000000000000000 _$
b11000001000000000000000000000000 !%
#360
b1100000100000000000000000000000 _$
b1100000100000000000000000000000 !%
#361
b110000010000000000000000000000 _$
b110000010000000000000000000000 !%
#362
b11000001000000000000000000000 _$
b11000001000000000000000000000 !%
#363
b10001100000100000000000000000000 _$
b10001100000100000000000000000000 !%
#364
b11000110000010000000000000000000 _$
b11000110000010000000000000000000 !%
#365
b11100011000001000000000000000000 _$
b11100011000001000000000000000000 !%
#366
b11110001100000100000000000000000 _$
b11110001100000100000000000000000 !%
#367
0T#
0V#
b11111000110000010000000000000000 _$
b11111000110000010000000000000000 !%
#368
b11111100011000001000000000000000 _$
b11111100011000001000000000000000 !%
#369
1N
b11111110001100000100000000000000 _$
b11111110001100000100000000000000 !%
#370
0N
0O
1X#
b11111111000110000010000000000000 _$
b11111111000110000010000000000000 !%
#371
b11111111100011000001000000000000 _$
b11111111100011000001000000000000 !%
#372
b11111111110001100000100000000000 _$
b11111111110001100000100000000000 !%
b0 p(
#373
b11111111111000110000010000000000 _$
b11111111111000110000010000000000 !%
#374
b11111111111100011000001000000000 _$
b11111111111100011000001000000000 !%
#375
b11111111111110001100000100000000 _$
b11111111111110001100000100000000 !%
#376
b11111111111111000110000010000000 _$
b10 3'
#377
b11111111111111100011000001000000 _$
b1 3'
#378
b11111111111111110001100000100000 _$
b0 3'
#379
b11111111111111111000110000010000 _$
#380
b11111111111111111100011000001000 _$
#381
b11111111111111111110001100000100 _$
#382
b11111111111111111111000110000000 _$
b10 3'
#383
b11111111111111111111100011000000 _$
1F%
11'
b11 3'
#384
b0 G%
1g%
#385
b0 !%
0F%
01'
b11000000 h(
#386
b1111111111111111111110000001000 ?$
b10000000000000000000000000000000 !%
0g%
b1100000 h(
#387
b111111111111111111111000000100 ?$
b11000000000000000000000000000000 !%
b110000 h(
#388
b10011111111111111111111100000010 ?$
b11100000000000000000000000000000 !%
b11000 h(
#389
b1001111111111111111111110000001 ?$
b11110000000000000000000000000000 !%
b1100 h(
#390
b10100111111111111111111111000000 ?$
b11111000000000000000000000000000 !%
b110 h(
#391
b1010011111111111111111111100000 ?$
b11111100000000000000000000000000 !%
b11 h(
#392
b101001111111111111111111110000 ?$
b11111110000000000000000000000000 !%
b1 h(
#393
b10100111111111111111111111000 ?$
b11111111000000000000000000000000 !%
1g(
b0 h(
#394
b1010011111111111111111111100 ?$
b11111111100000000000000000000000 !%
0g(
#395
b101001111111111111111111110 ?$
b11111111110000000000000000000000 !%
#396
b10100111111111111111111111 ?$
b11111111111000000000000000000000 !%
#397
b10000001010011111111111111111111 ?$
b11111111111100000000000000000000 !%
#398
b11000000101001111111111111111111 ?$
b11111111111110000000000000000000 !%
