build/servant_1.2.1/nexys_a7-vivado/.Xil/Vivado-7047-binhkieudo-hotswap/hw_ila_data_1/zip_work/waveform.vcd
$date
        2023-Aug-11 16:11:15
$end
$version
        Vivado v2022.2 (64-bit)
$end
$timescale
        1ps
$end
$scope module dut $end
$var reg 1 " nolabel_line55/my_debugger/jtag_trst $end
$var reg 1 # nolabel_line55/my_debugger/jtag_tck $end
$var reg 1 $ nolabel_line55/my_debugger/jtag_tdi $end
$var reg 1 % nolabel_line55/my_debugger/jtag_tdo $end
$var reg 1 & nolabel_line55/my_debugger/jtag_tms $end
$var reg 1 ' nolabel_line55/my_debugger/dmi_req_valid $end
$var reg 1 ( nolabel_line55/my_debugger/dmi_req_ready $end
$var reg 6 ) nolabel_line55/my_debugger/dmi_req_address [5:0] $end
$var reg 32 / nolabel_line55/my_debugger/dmi_req_data [31:0] $end
$var reg 2 O nolabel_line55/my_debugger/dmi_req_op [1:0] $end
$var reg 2 Q nolabel_line55/my_debugger/dm_maddr [1:0] $end
$var reg 1 S nolabel_line55/my_debugger/dm_rden $end
$var reg 1 T nolabel_line55/my_debugger/dm_wren $end
$var reg 32 U nolabel_line55/my_debugger/ibus_adr [31:0] $end
$var reg 1 u nolabel_line55/my_debugger/ibus_cyc $end
$var reg 32 v nolabel_line55/my_debugger/ibus_rdt [31:0] $end
$var reg 1 8" nolabel_line55/my_debugger/ibus_ack $end
$var reg 1 9" nolabel_line55/my_debugger/dbg_dcsr_step $end
$var reg 1 :" nolabel_line55/my_debugger/dbg_dcsr_en $end
$var reg 1 ;" nolabel_line55/my_debugger/dbg_cpu_process $end
$var reg 1 <" nolabel_line55/my_debugger/dbg_cpu_reset $end
$var reg 1 =" nolabel_line55/my_debugger/dbg_cpu_halt_req $end
$var reg 1 >" nolabel_line55/my_debugger/dbg_cpu_halt_ack $end
$var reg 1 ?" nolabel_line55/my_debugger/dbg_cpu_resume_req $end
$var reg 1 @" nolabel_line55/my_debugger/dbg_cpu_resume_ack $end
$var reg 1 A" nolabel_line55/my_debugger/dbg_cpu_execute_req $end
$var reg 1 B" nolabel_line55/my_debugger/dbg_cpu_execute_ack $end
$var reg 32 C" nolabel_line55/my_debugger/dm_probuf0 [31:0] $end
$var reg 32 c" nolabel_line55/my_debugger/dm_probuf1 [31:0] $end
$var reg 32 %# nolabel_line55/my_debugger/dm_probuf2 [31:0] $end
$var reg 32 E# nolabel_line55/my_debugger/dm_probuf3 [31:0] $end
$var reg 1 e# nolabel_line55/my_debugger/dmi_rsp_valid $end
$var reg 1 f# nolabel_line55/my_debugger/dmi_rsp_ready $end
$var reg 32 g# nolabel_line55/my_debugger/dmi_rsp_data [31:0] $end
$var reg 2 )$ nolabel_line55/my_debugger/dmi_rsp_op [1:0] $end
$var reg 32 +$ nolabel_line55/my_debugger/execute_req_cnt [31:0] $end
$var reg 32 K$ nolabel_line55/my_debugger/dm_databuf [31:0] $end
$var reg 32 k$ nolabel_line55/my_debugger/sbus_adr [31:0] $end
$var reg 32 -% nolabel_line55/my_debugger/sbus_dat [31:0] $end
$var reg 4 M% nolabel_line55/my_debugger/sbus_sel [3:0] $end
$var reg 1 Q% nolabel_line55/my_debugger/sbus_we $end
$var reg 1 R% nolabel_line55/my_debugger/sbus_cyc $end
$var reg 32 S% nolabel_line55/my_debugger/sbus_rdt [31:0] $end
$var reg 1 s% nolabel_line55/my_debugger/sbus_ack $end
$var reg 1 t% nolabel_line55/my_debugger/dbg_misa_en $end
$var reg 6 u% nolabel_line55/my_debugger/rf_addr [5:0] $end
$var reg 1 {% nolabel_line55/my_debugger/rf_we $end
$var reg 8 |% nolabel_line55/my_debugger/rf_data [7:0] $end
$var reg 1 && nolabel_line55/my_debugger/rf_we1 $end
$var reg 1 '& _TRIGGER $end
$var reg 1 (& _WINDOW $end
$var reg 1 )& _GAP $end
$upscope $end
$enddefinitions $end
#0
$dumpvars
1"
1#
0$
0%
0&
0'
1(
b10001 )
b0 /
b1 O
b11 Q
0S
0T
b11111111111111111111100000011100 U
0u
b0 v
08"
09"
0:"
1;"
0<"
0="
0>"
1?"
0@"
0A"
0B"
b10001000000000000010010000000011 C"
b10011 c"
b10011 %#
b100000000000001110011 E#
0e#
0f#
b10000000000110010000011 g#
b0 )$
b0 +$
b1000000000000000000000000010000 K$
b11111111000110000011111111111100 k$
b11111111000110000010000000000000 -%
b10 M%
0Q%
0R%
b10001100000100000100010000000011 S%
0s%
0t%
b10101 u%
0{%
b0 |%
0&&
0'&
1(&
0)&
$end
#1
b11111111100011000001111111111100 k$
b11111111100011000001000000000000 -%
#2
b11111111110001100000111111111100 k$
b11111111110001100000100000000000 -%
#3
b11111111111000110000011111111100 k$
b11111111111000110000010000000000 -%
#4
b11111111111100011000001111111100 k$
b11111111111100011000001000000000 -%
#5
b11111111111110001100000111111100 k$
b11111111111110001100000100000000 -%
#6
b11111111111111000110000011111100 k$
#7
b1 Q
b11111111111111100011000001111100 k$
#8
b0 Q
b11111111111111110001100000111100 k$
#9
b11111111111111111000110000011100 k$
#10
b11111111111111111100011000001100 k$
#11
b11111111111111111110001100000100 k$
#12
b10 Q
b11111111111111111111000110000000 k$
#13
b11 Q
1S
b11111111111111111111100011000000 k$
1R%
#14
b100000000 v
b100000000 S%
1s%
#15
0S
b100000000 -%
0R%
b11000000 |%
#16
b1111111111111111111110000001110 U
b0 v
b10000000000000000000000010000000 -%
0s%
b11100000 |%
#17
b111111111111111111111000000111 U
b11000000000000000000000001000000 -%
b1110000 |%
#18
b11111111111111111111100000011 U
b11100000000000000000000000100000 -%
b111000 |%
#19
b1111111111111111111110000001 U
b11110000000000000000000000010000 -%
b11100 |%
#20
b111111111111111111111000000 U
b11111000000000000000000000001000 -%
b1110 |%
#21
b10000011111111111111111111100000 U
b11111100000000000000000000000100 -%
b111 |%
#22
b1000001111111111111111111110000 U
b11111110000000000000000000000010 -%
b11 |%
#23
b100000111111111111111111111000 U
b11111111000000000000000000000001 -%
1{%
b1 |%
#24
b10000011111111111111111111100 U
b11111111100000000000000000000000 -%
0{%
b0 |%
#25
b1000001111111111111111111110 U
b11111111110000000000000000000000 -%
#26
b100000111111111111111111111 U
b11111111111000000000000000000000 -%
#27
b10000010000011111111111111111111 U
b11111111111100000000000000000000 -%
#28
b11000001000001111111111111111111 U
b11111111111110000000000000000000 -%
#29
b11100000100000111111111111111111 U
b11111111111111000000000000000000 -%
#30
b11110000010000011111111111111111 U
b11111111111111100000000000000000 -%
#31
1$
b11111000001000001111111111111111 U
b11111111111111110000000000000000 -%
1{%
#32
0#
b11111100000100000111111111111111 U
b11111111111111111000000000000000 -%
0{%
#33
b11111110000010000011111111111111 U
b11111111111111111100000000000000 -%
#34
b11111111000001000001111111111111 U
b11111111111111111110000000000000 -%
#35
1%
b11111111100000100000111111111111 U
b11111111111111111111000000000000 -%
#36
b11111111110000010000011111111111 U
b11111111111111111111100000000000 -%
#37
b11111111111000001000001111111111 U
b11111111111111111111110000000000 -%
#38
b11111111111100000100000111111111 U
b11111111111111111111111000000000 -%
#39
b11111111111110000010000011111111 U
b11111111111111111111111100000000 -%
1{%
#40
b11111111111111000001000001111111 U
0{%
#41
b11111111111111100000100000111111 U
#42
b11111111111111110000010000011111 U
#43
b11111111111111111000001000001111 U
#44
b11111111111111111100000100000111 U
#45
b11111111111111111110000010000011 U
#46
b11111111111111111111000001000001 U
#47
b0 Q
1S
b11111111111111111111100000100000 U
1u
b11111111111111111111100000100000 k$
1R%
1{%
#48
b11111110000001000001110011100011 v
18"
b11111110000001000001110011100011 S%
1s%
0{%
#49
b11 Q
0S
0u
08"
b11111111111111111111100011000000 k$
1Q%
0R%
b10100 u%
b11000000 |%
#50
b0 v
0s%
b11100000 |%
#51
b11110000 |%
#52
b1 Q
b1111111111111111111110001100000 k$
b1111111111111111111111110000000 -%
b11 M%
b0 |%
#53
b0 Q
b111111111111111111111000110000 k$
b111111111111111111111111000000 -%
b1111100 |%
#54
b11111111111111111111100011000 k$
b11111111111111111111111100000 -%
b111110 |%
#55
b10 Q
b10001111111111111111111110001100 k$
b1111111111111111111111110000 -%
b11111 |%
#56
b11 Q
b11000111111111111111111111000100 k$
b111111111111111111111111000 -%
b1111 |%
#57
b11100011111111111111111111100000 k$
b11111111111111111111111100 -%
b111 |%
#58
b11110001111111111111111111110000 k$
b1111111111111111111111110 -%
b11 |%
#59
b11111000111111111111111111111000 k$
b111111111111111111111111 -%
b1 |%
#60
b11111100011111111111111111111100 k$
b11111111111111111111111 -%
#61
b11111110001111111111111111111100 k$
b1111111111111111111111 -%
b11000000 |%
#62
b11111111000111111111111111111100 k$
b111111111111111111111 -%
b11100000 |%
#63
b11111111100011111111111111111100 k$
b11111111111111111111 -%
b11110000 |%
#64
b11111111110001111111111111111100 k$
b1111111111111111111 -%
b11111000 |%
#65
b11111111111000111111111111111100 k$
b111111111111111111 -%
b11111100 |%
#66
b11111111111100011111111111111100 k$
b11111111111111111 -%
b11111110 |%
#67
b11111111111110001111111111111100 k$
b1111111111111111 -%
b11111111 |%
#68
b11111111111111000111111111111100 k$
b111111111111111 -%
b0 |%
#69
b11111111111111100011111111111100 k$
b11111111111111 -%
b11111111 |%
#70
b11111111111111110001111111111100 k$
b1111111111111 -%
#71
b11111111111111111000111111111100 k$
b111111111111 -%
#72
b11111111111111111100011111111100 k$
b11111111111 -%
#73
b11111111111111111110001111111100 k$
b1111111111 -%
#74
b11111111111111111111000111111100 k$
b111111111 -%
#75
b11111111111111111111100011111100 k$
b11111111 -%
#76
b1 Q
b11111111111111111111110001111100 k$
b1111111 -%
b0 |%
#77
b0 Q
b11111111111111111111111000111100 k$
b111111 -%
b11111111 |%
#78
b11111111111111111111111100011100 k$
b11111 -%
#79
b10 Q
b11111111111111111111111110001100 k$
b1111 -%
#80
b11 Q
b11111111111111111111111111000100 k$
b111 -%
#81
b11111111111111111111111111100000 k$
b11 -%
#82
b11111111111111111111111111110000 k$
b1 -%
#83
b11111111111111111111111111111000 k$
b0 -%
#84
b0 |%
#85
b1111111111111111111110000010000 U
b11111111111111111111111111111100 k$
b111111 |%
#86
b111111111111111111111000001000 U
b1100 M%
b11111 |%
#87
b11111111111111111111100000100 U
b1000 M%
b1111 |%
#88
b10001111111111111111111110000010 U
b111 |%
#89
b11000111111111111111111111000001 U
b11 |%
#90
b1100011111111111111111111100000 U
b1 |%
#91
b110001111111111111111111110000 U
b0 |%
#92
b11000111111111111111111111000 U
#93
b1100011111111111111111111100 U
#94
b110001111111111111111111110 U
#95
b11000111111111111111111111 U
#96
b10000001100011111111111111111111 U
#97
b11000000110001111111111111111111 U
#98
b11100000011000111111111111111111 U
#99
b11110000001100011111111111111111 U
#100
b11111000000110001111111111111111 U
#101
b11111100000011000111111111111111 U
#102
b11111110000001100011111111111111 U
#103
b11111111000000110001111111111111 U
#104
b11111111100000011000111111111111 U
#105
b11111111110000001100011111111111 U
#106
b11111111111000000110001111111111 U
#107
b11111111111100000011000111111111 U
#108
b11111111111110000001100011111111 U
#109
b11111111111111000000110001111111 U
#110
b11111111111111100000011000111111 U
#111
b11111111111111110000001100011111 U
#112
b11111111111111111000000110001111 U
#113
b11111111111111111100000011000111 U
#114
b11111111111111111110000001100011 U
#115
b11111111111111111111000000110001 U
#116
b0 Q
1S
b11111111111111111111100000011000 U
1u
b11111111111111111111100000011000 k$
0Q%
1R%
#117
b10001100100000000000000010100011 v
18"
b10001100100000000000000010100011 S%
1s%
#118
b11 Q
0S
0u
08"
b11111111111111111111111111111100 k$
1Q%
0R%
#119
b0 v
0s%
#121
b10000000000000000000000000000000 -%
b10000 |%
#122
b1111111111111111111111111111100 k$
b1000000000000000000000000000000 -%
b10 M%
b0 |%
#123
b111111111111111111111111111100 k$
b100000000000000000000000000000 -%
#124
b11111111111111111111111111100 k$
b10000000000000000000000000000 -%
#125
b1111111111111111111111111100 k$
b1000000000000000000000000000 -%
#126
b111111111111111111111111100 k$
b100000000000000000000000000 -%
#127
b10000011111111111111111111111100 k$
b10000000000000000000000000 -%
#128
b11000001111111111111111111111100 k$
b1000000000000000000000000 -%
#129
b1100000111111111111111111111100 k$
b100000000000000000000000 -%
#130
b110000011111111111111111111100 k$
b10000000000000000000000 -%
#131
1#
b11000001111111111111111111100 k$
b1000000000000000000000 -%
#132
b10001100000111111111111111111100 k$
b100000000000000000000 -%
#133
b11000110000011111111111111111100 k$
b10000000000000000000 -%
#134
b0 O
b11100011000001111111111111111100 k$
b1000000000000000000 -%
#135
b11110001100000111111111111111100 k$
b100000000000000000 -%
#136
b11111000110000011111111111111100 k$
b10000000000000000 -%
#137
b11111100011000001111111111111100 k$
b1000000000000000 -%
#138
b11111110001100000111111111111100 k$
b100000000000000 -%
#139
b11111111000110000011111111111100 k$
b10000000000000 -%
#140
b11111111100011000001111111111100 k$
b1000000000000 -%
#141
b11111111110001100000111111111100 k$
b100000000000 -%
#142
b11111111111000110000011111111100 k$
b10000000000 -%
#143
b11111111111100011000001111111100 k$
b1000000000 -%
#144
b11111111111110001100000111111100 k$
b100000000 -%
#145
b11111111111111000110000011111100 k$
#146
b1 Q
b11111111111111100011000001111100 k$
#147
b0 Q
b11111111111111110001100000111100 k$
#148
b11111111111111111000110000011100 k$
#149
b11111111111111111100011000001100 k$
#150
b11111111111111111110001100000100 k$
#151
b10 Q
b11111111111111111111000110000000 k$
#152
b11 Q
1T
b11111111111111111111100011000000 k$
1R%
#153
b10001100100000000000000010100011 v
1s%
#154
0T
1@"
b10001100100000000000000010100011 -%
0R%
b11000000 |%
#155
b1111111111111111111110000001100 U
b0 v
b10000110000110010000011 g#
b1000110010000000000000001010001 -%
0s%
b1100000 |%
#156
b111111111111111111111000000110 U
0@"
b100011001000000000000000101000 -%
b110000 |%
#157
b10011111111111111111111100000011 U
b10000000000110010000011 g#
b10001100100000000000000010100 -%
b11000 |%
#158
b11001111111111111111111110000001 U
b1000110010000000000000001010 -%
b1100 |%
#159
b11100111111111111111111111000000 U
b100011001000000000000000101 -%
b110 |%
#160
b1110011111111111111111111100000 U
b10001100100000000000000010 -%
b11 |%
#161
b111001111111111111111111110000 U
b1000110010000000000000001 -%
b1 |%
#162
b11100111111111111111111111000 U
b100011001000000000000000 -%
b0 |%
#163
b1110011111111111111111111100 U
b10001100100000000000000 -%
#164
b111001111111111111111111110 U
b1000110010000000000000 -%
#165
b11100111111111111111111111 U
b100011001000000000000 -%
#166
b10000001110011111111111111111111 U
b10001100100000000000 -%
#167
b11000000111001111111111111111111 U
b1000110010000000000 -%
#168
b11100000011100111111111111111111 U
b100011001000000000 -%
#169
b11110000001110011111111111111111 U
b10001100100000000 -%
#170
b11111000000111001111111111111111 U
b1000110010000000 -%
#171
b11111100000011100111111111111111 U
b100011001000000 -%
#172
b11111110000001110011111111111111 U
b10001100100000 -%
#173
b11111111000000111001111111111111 U
b1000110010000 -%
#174
b11111111100000011100111111111111 U
b100011001000 -%
#175
b11111111110000001110011111111111 U
b10001100100 -%
#176
b11111111111000000111001111111111 U
b1000110010 -%
#177
b11111111111100000011100111111111 U
b100011001 -%
#178
b11111111111110000001110011111111 U
b10001100 -%
#179
b11111111111111000000111001111111 U
#180
b11111111111111100000011100111111 U
#181
b11111111111111110000001110011111 U
#182
b11111111111111111000000111001111 U
#183
b11111111111111111100000011100111 U
#184
b11111111111111111110000001110011 U
#185
b11111111111111111111000000111001 U
#186
b0 Q
1S
b11111111111111111111100000011100 U
1u
b11111111111111111111100000011100 k$
0Q%
1R%
#187
b10001100000100000100010000000011 v
18"
b10001100000100000100010000000011 S%
1s%
#188
b11 Q
0S
0u
08"
b11111111111111111111100011000000 k$
0R%
b10101 u%
#189
b0 v
0s%
#191
b1 Q
b11111111111111111111110001100000 k$
b10000000000000000000000001000110 -%
b100 M%
#192
b0 Q
b1111111111111111111111000110000 k$
b1000000000000000000000000100011 -%
b10 M%
#193
b111111111111111111111100011000 k$
b100000000000000000000000010001 -%
#194
b10 Q
b11111111111111111111110001100 k$
b10000000000000000000000001000 -%
#195
b11 Q
b1111111111111111111111000100 k$
b1000000000000000000000000100 -%
#196
b111111111111111111111100000 k$
b100000000000000000000000010 -%
#197
b10000011111111111111111111110000 k$
b10000010000000000000000000000001 -%
#198
b11000001111111111111111111111000 k$
b11000001000000000000000000000000 -%
#199
b1100000111111111111111111111100 k$
b1100000100000000000000000000000 -%
#200
b110000011111111111111111111100 k$
b110000010000000000000000000000 -%
#201
b11000001111111111111111111100 k$
b11000001000000000000000000000 -%
#202
b10001100000111111111111111111100 k$
b10001100000100000000000000000000 -%
#203
b11000110000011111111111111111100 k$
b11000110000010000000000000000000 -%
#204
b11100011000001111111111111111100 k$
b11100011000001000000000000000000 -%
#205
b11110001100000111111111111111100 k$
b11110001100000100000000000000000 -%
#206
b11111000110000011111111111111100 k$
b11111000110000010000000000000000 -%
#207
b11111100011000001111111111111100 k$
b11111100011000001000000000000000 -%
#208
b11111110001100000111111111111100 k$
b11111110001100000100000000000000 -%
#209
b11111111000110000011111111111100 k$
b11111111000110000010000000000000 -%
#210
b11111111100011000001111111111100 k$
b11111111100011000001000000000000 -%
#211
b11111111110001100000111111111100 k$
b11111111110001100000100000000000 -%
#212
b11111111111000110000011111111100 k$
b11111111111000110000010000000000 -%
#213
b11111111111100011000001111111100 k$
b11111111111100011000001000000000 -%
#214
b11111111111110001100000111111100 k$
b11111111111110001100000100000000 -%
#215
b11111111111111000110000011111100 k$
#216
b1 Q
b11111111111111100011000001111100 k$
#217
b0 Q
b11111111111111110001100000111100 k$
#218
b11111111111111111000110000011100 k$
#219
b11111111111111111100011000001100 k$
#220
b11111111111111111110001100000100 k$
#221
b10 Q
b11111111111111111111000110000000 k$
#222
b11 Q
1S
b11111111111111111111100011000000 k$
1R%
#223
b100000000 v
b100000000 S%
1s%
#224
0S
b100000000 -%
0R%
b11000000 |%
#225
b1111111111111111111110000001110 U
b0 v
b10000000000000000000000010000000 -%
0s%
b11100000 |%
#226
b111111111111111111111000000111 U
b11000000000000000000000001000000 -%
b1110000 |%
#227
b11111111111111111111100000011 U
b11100000000000000000000000100000 -%
b111000 |%
#228
b1111111111111111111110000001 U
b11110000000000000000000000010000 -%
b11100 |%
#229
b111111111111111111111000000 U
b11111000000000000000000000001000 -%
b1110 |%
#230
b10000011111111111111111111100000 U
b11111100000000000000000000000100 -%
b111 |%
#231
b1000001111111111111111111110000 U
b11111110000000000000000000000010 -%
b11 |%
#232
b100000111111111111111111111000 U
b11111111000000000000000000000001 -%
1{%
b1 |%
#233
0#
0$
b10000011111111111111111111100 U
b11111111100000000000000000000000 -%
0{%
b0 |%
#234
b1000001111111111111111111110 U
b11111111110000000000000000000000 -%
#235
b100000111111111111111111111 U
b11111111111000000000000000000000 -%
#236
0%
b10000010000011111111111111111111 U
b11111111111100000000000000000000 -%
#237
b11000001000001111111111111111111 U
b11111111111110000000000000000000 -%
#238
b11100000100000111111111111111111 U
b11111111111111000000000000000000 -%
#239
b11110000010000011111111111111111 U
b11111111111111100000000000000000 -%
#240
b11111000001000001111111111111111 U
b11111111111111110000000000000000 -%
1{%
#241
b11111100000100000111111111111111 U
b11111111111111111000000000000000 -%
0{%
#242
b11111110000010000011111111111111 U
b11111111111111111100000000000000 -%
#243
b11111111000001000001111111111111 U
b11111111111111111110000000000000 -%
#244
b11111111100000100000111111111111 U
b11111111111111111111000000000000 -%
#245
b11111111110000010000011111111111 U
b11111111111111111111100000000000 -%
#246
b11111111111000001000001111111111 U
b11111111111111111111110000000000 -%
#247
b11111111111100000100000111111111 U
b11111111111111111111111000000000 -%
#248
b11111111111110000010000011111111 U
b11111111111111111111111100000000 -%
1{%
#249
b11111111111111000001000001111111 U
0{%
#250
b11111111111111100000100000111111 U
#251
b11111111111111110000010000011111 U
#252
b11111111111111111000001000001111 U
#253
b11111111111111111100000100000111 U
#254
b11111111111111111110000010000011 U
#255
b11111111111111111111000001000001 U
#256
b0 Q
1S
b11111111111111111111100000100000 U
1u
b11111111111111111111100000100000 k$
1R%
1{%
#257
b11111110000001000001110011100011 v
18"
b11111110000001000001110011100011 S%
1s%
0{%
#258
b11 Q
0S
0u
08"
b11111111111111111111100011000000 k$
1Q%
0R%
b10100 u%
b11000000 |%
#259
b0 v
0s%
b11100000 |%
#260
b11110000 |%
#261
b1 Q
b1111111111111111111110001100000 k$
b1111111111111111111111110000000 -%
b11 M%
b0 |%
#262
b0 Q
b111111111111111111111000110000 k$
b111111111111111111111111000000 -%
b1111100 |%
#263
b11111111111111111111100011000 k$
b11111111111111111111111100000 -%
b111110 |%
#264
1&
b10 Q
b10001111111111111111111110001100 k$
b1111111111111111111111110000 -%
b11111 |%
#265
b11 Q
b11000111111111111111111111000100 k$
b111111111111111111111111000 -%
b1111 |%
#266
b11100011111111111111111111100000 k$
b11111111111111111111111100 -%
b111 |%
#267
b11110001111111111111111111110000 k$
b1111111111111111111111110 -%
b11 |%
#268
b11111000111111111111111111111000 k$
b111111111111111111111111 -%
b1 |%
#269
b11111100011111111111111111111100 k$
b11111111111111111111111 -%
#270
b11111110001111111111111111111100 k$
b1111111111111111111111 -%
b11000000 |%
#271
b11111111000111111111111111111100 k$
b111111111111111111111 -%
b11100000 |%
#272
b11111111100011111111111111111100 k$
b11111111111111111111 -%
b11110000 |%
#273
b11111111110001111111111111111100 k$
b1111111111111111111 -%
b11111000 |%
#274
b11111111111000111111111111111100 k$
b111111111111111111 -%
b11111100 |%
#275
b11111111111100011111111111111100 k$
b11111111111111111 -%
b11111110 |%
#276
b11111111111110001111111111111100 k$
b1111111111111111 -%
b11111111 |%
#277
b11111111111111000111111111111100 k$
b111111111111111 -%
b0 |%
#278
b11111111111111100011111111111100 k$
b11111111111111 -%
b11111111 |%
#279
b11111111111111110001111111111100 k$
b1111111111111 -%
#280
b11111111111111111000111111111100 k$
b111111111111 -%
#281
b11111111111111111100011111111100 k$
b11111111111 -%
#282
b11111111111111111110001111111100 k$
b1111111111 -%
#283
b11111111111111111111000111111100 k$
b111111111 -%
#284
b11111111111111111111100011111100 k$
b11111111 -%
#285
b1 Q
b11111111111111111111110001111100 k$
b1111111 -%
b0 |%
#286
b0 Q
b11111111111111111111111000111100 k$
b111111 -%
b11111111 |%
#287
b11111111111111111111111100011100 k$
b11111 -%
#288
b10 Q
b11111111111111111111111110001100 k$
b1111 -%
#289
b11 Q
b11111111111111111111111111000100 k$
b111 -%
#290
b11111111111111111111111111100000 k$
b11 -%
#291
b11111111111111111111111111110000 k$
b1 -%
#292
b11111111111111111111111111111000 k$
b0 -%
#293
b0 |%
#294
b1111111111111111111110000010000 U
b11111111111111111111111111111100 k$
b111111 |%
#295
b111111111111111111111000001000 U
b1100 M%
b11111 |%
#296
b11111111111111111111100000100 U
b1000 M%
b1111 |%
#297
b10001111111111111111111110000010 U
b111 |%
#298
b11000111111111111111111111000001 U
b11 |%
#299
b1100011111111111111111111100000 U
b1 |%
#300
b110001111111111111111111110000 U
b0 |%
#301
b11000111111111111111111111000 U
#302
b1100011111111111111111111100 U
#303
b110001111111111111111111110 U
#304
b11000111111111111111111111 U
#305
b10000001100011111111111111111111 U
#306
b11000000110001111111111111111111 U
#307
b11100000011000111111111111111111 U
#308
b11110000001100011111111111111111 U
#309
b11111000000110001111111111111111 U
#310
b11111100000011000111111111111111 U
#311
b11111110000001100011111111111111 U
#312
b11111111000000110001111111111111 U
#313
b11111111100000011000111111111111 U
#314
b11111111110000001100011111111111 U
#315
b11111111111000000110001111111111 U
#316
b11111111111100000011000111111111 U
#317
b11111111111110000001100011111111 U
#318
b11111111111111000000110001111111 U
#319
b11111111111111100000011000111111 U
#320
b11111111111111110000001100011111 U
#321
b11111111111111111000000110001111 U
#322
b11111111111111111100000011000111 U
#323
b11111111111111111110000001100011 U
#324
b11111111111111111111000000110001 U
#325
b0 Q
1S
b11111111111111111111100000011000 U
1u
b11111111111111111111100000011000 k$
0Q%
1R%
#326
b10001100100000000000000010100011 v
18"
b10001100100000000000000010100011 S%
1s%
#327
b11 Q
0S
0u
08"
b11111111111111111111111111111100 k$
1Q%
0R%
#328
b0 v
0s%
#330
b10000000000000000000000000000000 -%
b10000 |%
#331
b1111111111111111111111111111100 k$
b1000000000000000000000000000000 -%
b10 M%
b0 |%
#332
b111111111111111111111111111100 k$
b100000000000000000000000000000 -%
#333
b11111111111111111111111111100 k$
b10000000000000000000000000000 -%
#334
b1111111111111111111111111100 k$
b1000000000000000000000000000 -%
#335
b111111111111111111111111100 k$
b100000000000000000000000000 -%
#336
b10000011111111111111111111111100 k$
b10000000000000000000000000 -%
#337
b11000001111111111111111111111100 k$
b1000000000000000000000000 -%
#338
b1100000111111111111111111111100 k$
b100000000000000000000000 -%
#339
b110000011111111111111111111100 k$
b10000000000000000000000 -%
#340
b11000001111111111111111111100 k$
b1000000000000000000000 -%
#341
b10001100000111111111111111111100 k$
b100000000000000000000 -%
#342
b11000110000011111111111111111100 k$
b10000000000000000000 -%
#343
b11100011000001111111111111111100 k$
b1000000000000000000 -%
#344
b11110001100000111111111111111100 k$
b100000000000000000 -%
#345
b11111000110000011111111111111100 k$
b10000000000000000 -%
#346
b11111100011000001111111111111100 k$
b1000000000000000 -%
#347
b11111110001100000111111111111100 k$
b100000000000000 -%
#348
b11111111000110000011111111111100 k$
b10000000000000 -%
#349
b11111111100011000001111111111100 k$
b1000000000000 -%
#350
b11111111110001100000111111111100 k$
b100000000000 -%
#351
b11111111111000110000011111111100 k$
b10000000000 -%
#352
b11111111111100011000001111111100 k$
b1000000000 -%
#353
b11111111111110001100000111111100 k$
b100000000 -%
#354
b11111111111111000110000011111100 k$
#355
b1 Q
b11111111111111100011000001111100 k$
#356
b0 Q
b11111111111111110001100000111100 k$
#357
b11111111111111111000110000011100 k$
#358
b11111111111111111100011000001100 k$
#359
b11111111111111111110001100000100 k$
#360
b10 Q
b11111111111111111111000110000000 k$
#361
b11 Q
1T
b11111111111111111111100011000000 k$
1R%
#362
b10001100100000000000000010100011 v
1s%
#363
0T
1@"
b10001100100000000000000010100011 -%
0R%
b11000000 |%
#364
1#
b1111111111111111111110000001100 U
b0 v
b10000110000110010000011 g#
b1000110010000000000000001010001 -%
0s%
b1100000 |%
#365
b111111111111111111111000000110 U
0@"
b100011001000000000000000101000 -%
b110000 |%
#366
b10011111111111111111111100000011 U
b10000000000110010000011 g#
b10001100100000000000000010100 -%
b11000 |%
#367
b10 O
b11001111111111111111111110000001 U
b1000110010000000000000001010 -%
b1100 |%
#368
b11100111111111111111111111000000 U
b100011001000000000000000101 -%
b110 |%
#369
b1110011111111111111111111100000 U
b10001100100000000000000010 -%
b11 |%
#370
b111001111111111111111111110000 U
b1000110010000000000000001 -%
b1 |%
#371
b11100111111111111111111111000 U
b100011001000000000000000 -%
b0 |%
#372
b1110011111111111111111111100 U
b10001100100000000000000 -%
#373
b111001111111111111111111110 U
b1000110010000000000000 -%
#374
b11100111111111111111111111 U
b100011001000000000000 -%
#375
b10000001110011111111111111111111 U
b10001100100000000000 -%
#376
b11000000111001111111111111111111 U
b1000110010000000000 -%
#377
b11100000011100111111111111111111 U
b100011001000000000 -%
#378
b11110000001110011111111111111111 U
b10001100100000000 -%
#379
b11111000000111001111111111111111 U
b1000110010000000 -%
#380
b11111100000011100111111111111111 U
b100011001000000 -%
#381
b11111110000001110011111111111111 U
b10001100100000 -%
#382
b11111111000000111001111111111111 U
b1000110010000 -%
#383
b11111111100000011100111111111111 U
b100011001000 -%
#384
b11111111110000001110011111111111 U
b10001100100 -%
#385
b11111111111000000111001111111111 U
b1000110010 -%
#386
b11111111111100000011100111111111 U
b100011001 -%
#387
b11111111111110000001110011111111 U
b10001100 -%
#388
b11111111111111000000111001111111 U
#389
b11111111111111100000011100111111 U
#390
b11111111111111110000001110011111 U
#391
b11111111111111111000000111001111 U
#392
b11111111111111111100000011100111 U
#393
b11111111111111111110000001110011 U
#394
b11111111111111111111000000111001 U
#395
b0 Q
1S
b11111111111111111111100000011100 U
1u
b11111111111111111111100000011100 k$
0Q%
1R%
#396
b10001100000100000100010000000011 v
18"
b10001100000100000100010000000011 S%
1s%
#397
b11 Q
0S
0u
08"
b11111111111111111111100011000000 k$
0R%
b10101 u%
#398
b0 v
0s%
#400
b1 Q
b11111111111111111111110001100000 k$
b10000000000000000000000001000110 -%
b100 M%
#401
b0 Q
b1111111111111111111111000110000 k$
b1000000000000000000000000100011 -%
b10 M%
#402
b111111111111111111111100011000 k$
b100000000000000000000000010001 -%
#403
b10 Q
b11111111111111111111110001100 k$
b10000000000000000000000001000 -%
#404
b11 Q
b1111111111111111111111000100 k$
b1000000000000000000000000100 -%
#405
b111111111111111111111100000 k$
b100000000000000000000000010 -%
#406
b10000011111111111111111111110000 k$
b10000010000000000000000000000001 -%
#407
b11000001111111111111111111111000 k$
b11000001000000000000000000000000 -%
#408
b1100000111111111111111111111100 k$
b1100000100000000000000000000000 -%
#409
b110000011111111111111111111100 k$
b110000010000000000000000000000 -%
#410
b11000001111111111111111111100 k$
b11000001000000000000000000000 -%
#411
b10001100000111111111111111111100 k$
b10001100000100000000000000000000 -%
#412
b11000110000011111111111111111100 k$
b11000110000010000000000000000000 -%
#413
b11100011000001111111111111111100 k$
b11100011000001000000000000000000 -%
#414
b11110001100000111111111111111100 k$
b11110001100000100000000000000000 -%
#415
b11111000110000011111111111111100 k$
b11111000110000010000000000000000 -%
#416
b11111100011000001111111111111100 k$
b11111100011000001000000000000000 -%
#417
b11111110001100000111111111111100 k$
b11111110001100000100000000000000 -%
#418
b11111111000110000011111111111100 k$
b11111111000110000010000000000000 -%
#419
b11111111100011000001111111111100 k$
b11111111100011000001000000000000 -%
#420
b11111111110001100000111111111100 k$
b11111111110001100000100000000000 -%
