build/servant_1.2.1/nexys_a7-vivado/.Xil/Vivado-1181148-binhkieudo/hw_ila_data_1/zip_work/waveform.vcd
$date
        2023-Aug-09 14:50:04
$end
$version
        Vivado v2022.2 (64-bit)
$end
$timescale
        1ps
$end
$scope module dut $end
$var reg 1 " nolabel_line52/serv_dtm/o_dmi_req_valid_1 $end
$var reg 6 # nolabel_line52/serv_dtm/o_dmi_req_address_1 [5:0] $end
$var reg 32 ) nolabel_line52/serv_dtm/o_dmi_req_data_1 [31:0] $end
$var reg 2 I nolabel_line52/serv_dtm/o_dmi_req_op_1 [1:0] $end
$var reg 1 K nolabel_line52/serv_dtm/o_dmi_rsp_ready_1 $end
$var reg 1 L nolabel_line52/serv_dtm/o_dbg_csr_out $end
$var reg 1 M nolabel_line52/serv_dtm/o_dbg_csr_dcsr_en $end
$var reg 1 N nolabel_line52/serv_dtm/o_dbg_csr_cnt8 $end
$var reg 1 O nolabel_line52/serv_dtm/dbg_resume_ack $end
$var reg 1 P nolabel_line52/serv_dtm/tap_sync_tms_1 $end
$var reg 3 Q nolabel_line52/serv_dtm/dmi_ctrl_state_1 [2:0] $end
$var reg 1 T nolabel_line52/serv_dtm/dmi_hard_reset_1 $end
$var reg 1 U nolabel_line52/serv_dtm/dmi_reset_1 $end
$var reg 2 V nolabel_line52/serv_dtm/o_dbg_csr_addr [1:0] $end
$var reg 32 X nolabel_line52/serv_dtm/tap_reg_dmi_nxt_1 [33:2] $end
$var reg 32 x nolabel_line52/serv_dtm/o_dmi_req_data_2 [31:0] $end
$var reg 6 :" nolabel_line52/serv_dtm/o_dmi_req_address_2 [5:0] $end
$var reg 4 @" nolabel_line52/serv_dtm/tap_ctrl_state_1 [3:0] $end
$var reg 5 D" nolabel_line52/serv_dtm/tap_reg_ireg_1 [4:0] $end
$var reg 1 I" nolabel_line52/serv_dtm/tap_reg_bypass_1 $end
$var reg 32 J" nolabel_line52/serv_dtm/tap_reg_idcode_1 [31:0] $end
$var reg 32 j" nolabel_line52/serv_dtm/tap_reg_dtmcs_1 [31:0] $end
$var reg 2 ,# nolabel_line52/serv_dtm/o_dmi_req_op_2 [1:0] $end
$var reg 38 .# nolabel_line52/serv_dtm/tap_reg_dmi_1 [39:2] $end
$var reg 1 T# nolabel_line52/serv_dtm/i_tck $end
$var reg 1 U# nolabel_line52/serv_dtm/i_trst $end
$var reg 1 V# nolabel_line52/serv_dtm/i_tdi $end
$var reg 1 W# nolabel_line52/serv_dtm/i_tms $end
$var reg 1 X# nolabel_line52/serv_dtm/o_tdo $end
$var reg 1 Y# nolabel_line52/serv_dtm/i_dmi_rsp_valid $end
$var reg 1 Z# nolabel_line52/serv_dtm/o_dmi_rsp_ready_2 $end
$var reg 32 [# nolabel_line52/serv_dtm/i_dmi_rsp_data [31:0] $end
$var reg 1 {# nolabel_line52/serv_dtm/n_0_1 $end
$var reg 1 |# nolabel_line52/serv_dtm/n_0_0 $end
$var reg 32 }# nolabel_line52/serv_dtm/dmi_dmcontrol_1 [31:0] $end
$var reg 32 ?$ nolabel_line52/serv_dtm/pc_1 [31:0] $end
$var reg 32 _$ nolabel_line52/serv_dtm/i_sbus_adr_1 [31:0] $end
$var reg 32 !% nolabel_line52/serv_dtm/i_sbus_dat_1 [31:0] $end
$var reg 4 A% nolabel_line52/serv_dtm/i_subs_sel_1 [3:0] $end
$var reg 1 E% nolabel_line52/serv_dtm/i_sbus_we_1 $end
$var reg 1 F% nolabel_line52/serv_dtm/i_sbus_cyc_1 $end
$var reg 32 G% nolabel_line52/serv_dtm/o_sbus_rdt_1 [31:0] $end
$var reg 1 g% nolabel_line52/serv_dtm/o_sbus_ack_1 $end
$var reg 1 h% nolabel_line52/serv_dtm/o_cpu_ndmrst_1 $end
$var reg 1 i% nolabel_line52/serv_dtm/o_cpu_req_halt_1 $end
$var reg 3 j% nolabel_line52/serv_dtm/dm_ctrl_state_1 [2:0] $end
$var reg 32 m% nolabel_line52/serv_dtm/dbg_probuf0_1 [31:0] $end
$var reg 32 /& nolabel_line52/serv_dtm/dbg_probuf1_1 [31:0] $end
$var reg 32 O& nolabel_line52/serv_dtm/dbg_probuf2_1 [31:0] $end
$var reg 32 o& nolabel_line52/serv_dtm/dbg_probuf3_1 [31:0] $end
$var reg 1 1' nolabel_line52/serv_dtm/dbg_rden_1 $end
$var reg 1 2' nolabel_line52/serv_dtm/dbg_wren_1 $end
$var reg 2 3' nolabel_line52/serv_dtm/dbg_maddr_1 [1:0] $end
$var reg 1 5' nolabel_line52/serv_dtm/dbg_resume_req_1 $end
$var reg 1 6' nolabel_line52/serv_dtm/dbg_execute_req_1 $end
$var reg 1 7' nolabel_line52/serv_dtm/dbg_process_1 $end
$var reg 1 8' nolabel_line52/serv_dtm/dbg_dm_ctrl_busy_1 $end
$var reg 3 9' nolabel_line52/serv_dtm/dbg_dm_ctrl_cmderr_1 [2:0] $end
$var reg 1 <' nolabel_line52/serv_dtm/ibus_cycle_1 $end
$var reg 128 =' nolabel_line52/serv_dtm/clk_count_1 [127:0] $end
$var reg 1 _( nolabel_line52/serv_dtm/o_dbg_step_1 $end
$var reg 6 `( nolabel_line52/serv_dtm/o_dbg_rf_waddr_1 [5:0] $end
$var reg 1 f( nolabel_line52/serv_dtm/o_dbg_rf_w1wren_1 $end
$var reg 1 g( nolabel_line52/serv_dtm/o_dbg_rf_we_1 $end
$var reg 8 h( nolabel_line52/serv_dtm/o_dbg_rf_wdata_1 [7:0] $end
$var reg 32 p( nolabel_line52/serv_dtm/i_bus_rdt [31:0] $end
$var reg 1 2) _TRIGGER $end
$var reg 1 3) _WINDOW $end
$var reg 1 4) _GAP $end
$upscope $end
$enddefinitions $end
#0
$dumpvars
0"
b10001 #
b0 )
b0 I
0K
0L
0M
0N
0O
0P
b0 Q
0T
0U
b0 V
b10000000000001110000011 X
b0 x
b10001 :"
b1100 @"
b10001 D"
0I"
b11111111111111111111111111111111 J"
b0 j"
b0 ,#
b1000100000000000000000000000000000000 .#
0T#
1U#
0V#
0W#
0X#
0Y#
0Z#
b10000000000001110000011 [#
0{#
0|#
b1 }#
b11111111111111111111100000010000 ?$
b11111111111100011000001000000000 _$
b11111111111100011000001000000000 !%
b10 A%
0E%
0F%
b10001100000100000100010000000011 G%
0g%
0h%
0i%
b0 j%
b10001000000000000010010000000011 m%
b10011 /&
b10011 O&
b100000000000001110011 o&
01'
02'
b0 3'
05'
06'
17'
08'
b0 9'
0<'
b1 ='
1_(
b10101 `(
0f(
0g(
b0 h(
b0 p(
02)
13)
04)
$end
#1
b11111111111110001100000100000000 _$
b11111111111110001100000100000000 !%
#2
b11111111111111000110000010000000 _$
b10 3'
#3
b11111111111111100011000001000000 _$
b1 3'
#4
b11111111111111110001100000100000 _$
b0 3'
#5
b11111111111111111000110000010000 _$
#6
b11111111111111111100011000001000 _$
#7
b11111111111111111110001100000100 _$
#8
b11111111111111111111000110000000 _$
b10 3'
#9
b11111111111111111111100011000000 _$
1F%
11'
b11 3'
#10
b0 G%
1g%
#11
b0 !%
0F%
01'
b11000000 h(
#12
b1111111111111111111110000001000 ?$
b10000000000000000000000000000000 !%
0g%
b1100000 h(
#13
b111111111111111111111000000100 ?$
b11000000000000000000000000000000 !%
b110000 h(
#14
b10011111111111111111111100000010 ?$
b11100000000000000000000000000000 !%
b11000 h(
#15
b1001111111111111111111110000001 ?$
b11110000000000000000000000000000 !%
b1100 h(
#16
b10100111111111111111111111000000 ?$
b11111000000000000000000000000000 !%
b110 h(
#17
b1010011111111111111111111100000 ?$
b11111100000000000000000000000000 !%
b11 h(
#18
b101001111111111111111111110000 ?$
b11111110000000000000000000000000 !%
b1 h(
#19
1N
b10100111111111111111111111000 ?$
b11111111000000000000000000000000 !%
1g(
b0 h(
#20
0N
b1010011111111111111111111100 ?$
b11111111100000000000000000000000 !%
0g(
#21
b101001111111111111111111110 ?$
b11111111110000000000000000000000 !%
#22
b10100111111111111111111111 ?$
b11111111111000000000000000000000 !%
#23
b10000001010011111111111111111111 ?$
b11111111111100000000000000000000 !%
#24
b11000000101001111111111111111111 ?$
b11111111111110000000000000000000 !%
#25
b11100000010100111111111111111111 ?$
b11111111111111000000000000000000 !%
#26
b11110000001010011111111111111111 ?$
b11111111111111100000000000000000 !%
#27
b11111000000101001111111111111111 ?$
b11111111111111110000000000000000 !%
1g(
#28
b11111100000010100111111111111111 ?$
b11111111111111111000000000000000 !%
0g(
#29
b11111110000001010011111111111111 ?$
b11111111111111111100000000000000 !%
#30
b11111111000000101001111111111111 ?$
b11111111111111111110000000000000 !%
#31
b11111111100000010100111111111111 ?$
b11111111111111111111000000000000 !%
#32
b11111111110000001010011111111111 ?$
b11111111111111111111100000000000 !%
#33
b11111111111000000101001111111111 ?$
b11111111111111111111110000000000 !%
#34
b11111111111100000010100111111111 ?$
b11111111111111111111111000000000 !%
#35
b11111111111110000001010011111111 ?$
b11111111111111111111111100000000 !%
1g(
#36
b11111111111111000000101001111111 ?$
0g(
#37
b11111111111111100000010100111111 ?$
#38
b11111111111111110000001010011111 ?$
#39
b11111111111111111000000101001111 ?$
#40
b11111111111111111100000010100111 ?$
#41
b11111111111111111110000001010011 ?$
#42
b11111111111111111111000000101001 ?$
#43
b11111111111111111111100000010100 ?$
b11111111111111111111100000010100 _$
1F%
11'
b0 3'
1<'
1g(
#44
b11111110000001000000100011100011 G%
1g%
0g(
b11111110000001000000100011100011 p(
#45
b11111111111111111111100011000000 _$
1E%
0F%
01'
b11 3'
0<'
b10100 `(
b11000000 h(
#46
0g%
b11100000 h(
b0 p(
#47
b11110000 h(
#48
b1111111111111111111110001100000 _$
b1111111111111111111111110000000 !%
b1 A%
b1 3'
b0 h(
#49
b111111111111111111111000110000 _$
b111111111111111111111111000000 !%
b0 3'
b1111100 h(
#50
b11111111111111111111100011000 _$
b11111111111111111111111100000 !%
b111110 h(
#51
b1111111111111111111110001100 _$
b1111111111111111111111110000 !%
b10 3'
b11111 h(
#52
b10000111111111111111111111000100 _$
b111111111111111111111111000 !%
b11 3'
b1111 h(
#53
b11000011111111111111111111100000 _$
b11111111111111111111111100 !%
b111 h(
#54
b11100001111111111111111111110000 _$
b1111111111111111111111110 !%
b11 h(
#55
1N
b11110000111111111111111111111000 _$
b111111111111111111111111 !%
b1 h(
#56
0N
b11111000011111111111111111111100 _$
b11111111111111111111111 !%
b0 h(
#57
b11111100001111111111111111111100 _$
b1111111111111111111111 !%
#58
b11111110000111111111111111111100 _$
b111111111111111111111 !%
#59
b11111111000011111111111111111100 _$
b11111111111111111111 !%
#60
b11111111100001111111111111111100 _$
b1111111111111111111 !%
#61
b11111111110000111111111111111100 _$
b111111111111111111 !%
#62
b11111111111000011111111111111100 _$
b11111111111111111 !%
#63
b11111111111100001111111111111100 _$
b1111111111111111 !%
#64
b11111111111110000111111111111100 _$
b111111111111111 !%
#65
b11111111111111000011111111111100 _$
b11111111111111 !%
#66
b11111111111111100001111111111100 _$
b1111111111111 !%
#67
b11111111111111110000111111111100 _$
b111111111111 !%
#68
b11111111111111111000011111111100 _$
b11111111111 !%
#69
b11111111111111111100001111111100 _$
b1111111111 !%
#70
b11111111111111111110000111111100 _$
b111111111 !%
#71
b11111111111111111111000011111100 _$
b11111111 !%
#72
b11111111111111111111100001111100 _$
b1111111 !%
b1 3'
#73
b11111111111111111111110000111100 _$
b111111 !%
b0 3'
#74
b11111111111111111111111000011100 _$
b11111 !%
#75
b11111111111111111111111100001100 _$
b1111 !%
#76
b11111111111111111111111110000100 _$
b111 !%
b10 3'
#77
b11111111111111111111111111000000 _$
b11 !%
b11 3'
#78
b11111111111111111111111111100000 _$
b1 !%
#79
b11111111111111111111111111110000 _$
b0 !%
#81
b1111111111111111111110000001010 ?$
b11111111111111111111111111111000 _$
#82
b111111111111111111111000000101 ?$
b11111111111111111111111111111100 _$
#83
b10011111111111111111111100000010 ?$
b100 A%
#84
b1001111111111111111111110000001 ?$
b1000 A%
#85
b100111111111111111111111000000 ?$
#86
b10011111111111111111111100000 ?$
#87
b1001111111111111111111110000 ?$
#88
1N
b100111111111111111111111000 ?$
#89
0N
b10011111111111111111111100 ?$
#90
b1001111111111111111111110 ?$
#91
b100111111111111111111111 ?$
#92
b10000000010011111111111111111111 ?$
#93
b11000000001001111111111111111111 ?$
#94
b11100000000100111111111111111111 ?$
#95
b11110000000010011111111111111111 ?$
#96
b11111000000001001111111111111111 ?$
#97
b11111100000000100111111111111111 ?$
#98
b11111110000000010011111111111111 ?$
#99
b11111111000000001001111111111111 ?$
#100
b11111111100000000100111111111111 ?$
#101
b11111111110000000010011111111111 ?$
#102
b11111111111000000001001111111111 ?$
#103
b11111111111100000000100111111111 ?$
#104
b11111111111110000000010011111111 ?$
#105
b11111111111111000000001001111111 ?$
#106
b11111111111111100000000100111111 ?$
#107
b11111111111111110000000010011111 ?$
#108
b11111111111111111000000001001111 ?$
#109
b11111111111111111100000000100111 ?$
#110
b11111111111111111110000000010011 ?$
#111
b11111111111111111111000000001001 ?$
#112
b11111111111111111111100000000100 ?$
b11111111111111111111100000000100 _$
0E%
1F%
11'
b0 3'
1<'
#113
b10001100000000000000000000100011 G%
1g%
b10001100000000000000000000100011 p(
#114
b11111111111111111111111111111100 _$
1E%
0F%
01'
b11 3'
0<'
#115
0g%
b0 p(
#117
b1111111111111111111111111111100 _$
b10 A%
#118
b111111111111111111111111111100 _$
b1 A%
#119
b11111111111111111111111111100 _$
#120
b1111111111111111111111111100 _$
#121
b111111111111111111111111100 _$
#122
b11111111111111111111111100 _$
#123
b10000001111111111111111111111100 _$
#124
1N
b11000000111111111111111111111100 _$
#125
0N
b1100000011111111111111111111100 _$
#126
b110000001111111111111111111100 _$
#127
b11000000111111111111111111100 _$
#128
b10001100000011111111111111111100 _$
#129
b11000110000001111111111111111100 _$
#130
b11100011000000111111111111111100 _$
#131
b11110001100000011111111111111100 _$
#132
b11111000110000001111111111111100 _$
#133
b11111100011000000111111111111100 _$
#134
b11111110001100000011111111111100 _$
#135
b11111111000110000001111111111100 _$
#136
b11111111100011000000111111111100 _$
#137
b11111111110001100000011111111100 _$
#138
b11111111111000110000001111111100 _$
#139
b11111111111100011000000111111100 _$
#140
b11111111111110001100000011111100 _$
#141
b11111111111111000110000001111100 _$
b1 3'
#142
b11111111111111100011000000111100 _$
b0 3'
#143
b11111111111111110001100000011100 _$
#144
b11111111111111111000110000001100 _$
#145
b11111111111111111100011000000100 _$
#146
b11111111111111111110001100000000 _$
#147
b11111111111111111111000110000000 _$
b10 3'
#148
b11111111111111111111100011000000 _$
1F%
12'
b11 3'
#149
1g%
b10001100000000000000000000100011 p(
#150
b10001100000000000000000000100011 !%
0F%
02'
#151
b1111111111111111111110000000010 ?$
b1000110000000000000000000010001 !%
0g%
b10000000 h(
b0 p(
#152
b111111111111111111111000000001 ?$
b100011000000000000000000001000 !%
b11000000 h(
#153
b11111111111111111111100000000 ?$
b10001100000000000000000000100 !%
b1100000 h(
#154
b10001111111111111111111110000000 ?$
b1000110000000000000000000010 !%
b110000 h(
#155
b1000111111111111111111111000000 ?$
b100011000000000000000000001 !%
b11000 h(
#156
b100011111111111111111111100000 ?$
b10001100000000000000000000 !%
b10001100 h(
#157
b10001111111111111111111110000 ?$
b1000110000000000000000000 !%
b1000110 h(
#158
1N
b1000111111111111111111111000 ?$
b100011000000000000000000 !%
b100011 h(
#159
0N
b100011111111111111111111100 ?$
b10001100000000000000000 !%
b0 h(
#160
b10001111111111111111111110 ?$
b1000110000000000000000 !%
b1000 h(
#161
b1000111111111111111111111 ?$
b100011000000000000000 !%
b100 h(
#162
b10000000100011111111111111111111 ?$
b10001100000000000000 !%
b10 h(
#163
b11000000010001111111111111111111 ?$
b1000110000000000000 !%
b1 h(
#164
b11100000001000111111111111111111 ?$
b100011000000000000 !%
b0 h(
#165
b11110000000100011111111111111111 ?$
b10001100000000000 !%
#166
b11111000000010001111111111111111 ?$
b1000110000000000 !%
#167
b11111100000001000111111111111111 ?$
b100011000000000 !%
#168
b11111110000000100011111111111111 ?$
b10001100000000 !%
#169
b11111111000000010001111111111111 ?$
b1000110000000 !%
#170
b11111111100000001000111111111111 ?$
b100011000000 !%
#171
b11111111110000000100011111111111 ?$
b10001100000 !%
#172
b11111111111000000010001111111111 ?$
b1000110000 !%
#173
b11111111111100000001000111111111 ?$
b100011000 !%
#174
b11111111111110000000100011111111 ?$
b10001100 !%
#175
b11111111111111000000010001111111 ?$
b1000110 !%
#176
b11111111111111100000001000111111 ?$
b100011 !%
#177
b11111111111111110000000100011111 ?$
b10001 !%
#178
b11111111111111111000000010001111 ?$
b1000 !%
#179
b11111111111111111100000001000111 ?$
b100 !%
#180
b11111111111111111110000000100011 ?$
b10 !%
#181
b11111111111111111111000000010001 ?$
b1 !%
#182
b11111111111111111111100000001000 ?$
b11111111111111111111100000001000 _$
b0 !%
0E%
1F%
11'
b0 3'
1<'
#183
b10001100001000000100010000000011 G%
1g%
b10001100001000000100010000000011 p(
#184
b11111111111111111111100011000000 _$
0F%
01'
b11 3'
0<'
b10110 `(
#185
0g%
b0 p(
#187
b1111111111111111111110001100000 _$
b1 3'
#188
b10111111111111111111111000110000 _$
b10000000000000000000000000000000 !%
b100 A%
b0 3'
#189
b1011111111111111111111100011000 _$
b1000000000000000000000000000000 !%
#190
b101111111111111111111110001100 _$
b100000000000000000000000000000 !%
b10 3'
#191
b10111111111111111111111000100 _$
b10000000000000000000000000000 !%
b11 3'
#192
b1011111111111111111111100000 _$
b1000000000000000000000000000 !%
#193
b10000101111111111111111111110000 _$
b10000100000000000000000000000000 !%
#194
1N
b11000010111111111111111111111000 _$
b11000010000000000000000000000000 !%
#195
0N
b1100001011111111111111111111100 _$
b1100001000000000000000000000000 !%
#196
b110000101111111111111111111100 _$
b110000100000000000000000000000 !%
#197
b11000010111111111111111111100 _$
b11000010000000000000000000000 !%
#198
b10001100001011111111111111111100 _$
b10001100001000000000000000000000 !%
#199
b11000110000101111111111111111100 _$
b11000110000100000000000000000000 !%
#200
b11100011000010111111111111111100 _$
b11100011000010000000000000000000 !%
#201
b11110001100001011111111111111100 _$
b11110001100001000000000000000000 !%
#202
b11111000110000101111111111111100 _$
b11111000110000100000000000000000 !%
#203
b11111100011000010111111111111100 _$
#204
b11111110001100001011111111111100 _$
#205
b11111111000110000101111111111100 _$
#206
b11111111100011000010111111111100 _$
#207
b11111111110001100001011111111100 _$
#208
b11111111111000110000101111111100 _$
#209
b11111111111100011000010111111100 _$
#210
b11111111111110001100001011111100 _$
#211
b11111111111111000110000101111100 _$
b1 3'
#212
b11111111111111100011000010111100 _$
b10 3'
#213
b11111111111111110001100001011100 _$
b1 3'
#214
b11111111111111111000110000101100 _$
b0 3'
#215
b11111111111111111100011000010100 _$
#216
b11111111111111111110001100001000 _$
#217
b11111111111111111111000110000100 _$
b10 3'
#218
b11111111111111111111100011000000 _$
1F%
11'
b11 3'
#219
b0 G%
1g%
#220
b0 !%
0F%
01'
#221
b1111111111111111111110000000100 ?$
b10000000000000000000000000000000 !%
0g%
#222
b111111111111111111111000000010 ?$
b11000000000000000000000000000000 !%
#223
b10011111111111111111111100000001 ?$
b11100000000000000000000000000000 !%
#224
b11001111111111111111111110000000 ?$
b11110000000000000000000000000000 !%
#225
b1100111111111111111111111000000 ?$
b11111000000000000000000000000000 !%
#226
b110011111111111111111111100000 ?$
b11111100000000000000000000000000 !%
#227
b11001111111111111111111110000 ?$
b11111110000000000000000000000000 !%
#228
1N
b1100111111111111111111111000 ?$
b11111111000000000000000000000000 !%
1g(
#229
0N
b110011111111111111111111100 ?$
b11111111100000000000000000000000 !%
0g(
#230
b11001111111111111111111110 ?$
b11111111110000000000000000000000 !%
#231
b1100111111111111111111111 ?$
b11111111111000000000000000000000 !%
#232
b10000000110011111111111111111111 ?$
b11111111111100000000000000000000 !%
#233
b11000000011001111111111111111111 ?$
b11111111111110000000000000000000 !%
#234
b11100000001100111111111111111111 ?$
b11111111111111000000000000000000 !%
#235
b11110000000110011111111111111111 ?$
b11111111111111100000000000000000 !%
#236
b11111000000011001111111111111111 ?$
b11111111111111110000000000000000 !%
1g(
#237
b11111100000001100111111111111111 ?$
0g(
#238
b11111110000000110011111111111111 ?$
#239
b11111111000000011001111111111111 ?$
#240
b11111111100000001100111111111111 ?$
#241
b11111111110000000110011111111111 ?$
#242
b11111111111000000011001111111111 ?$
#243
b11111111111100000001100111111111 ?$
#244
b11111111111110000000110011111111 ?$
1g(
#245
b11111111111111000000011001111111 ?$
0g(
#246
b11111111111111100000001100111111 ?$
#247
b11111111111111110000000110011111 ?$
#248
b11111111111111111000000011001111 ?$
#249
b11111111111111111100000001100111 ?$
#250
b11111111111111111110000000110011 ?$
#251
b11111111111111111111000000011001 ?$
#252
b11111111111111111111100000001100 ?$
b11111111111111111111100000001100 _$
1F%
11'
b0 3'
1<'
1g(
#253
b10000001000001000001100011 G%
1g%
0g(
b10000001000001000001100011 p(
#254
b1 V
b11111111111111111111100011000000 _$
b1100 A%
1E%
0F%
01'
b11 3'
0<'
b10000 `(
b11000000 h(
#255
0g%
b11100000 h(
b0 p(
#256
b11110000 h(
#257
b1111111111111111111110001100000 _$
b1111111111111111000000000000000 !%
b10 A%
b1 3'
b0 h(
#258
b111111111111111111111000110000 _$
b111111111111111100000000000000 !%
b11 A%
b0 3'
b1111100 h(
#259
b11111111111111111111100011000 _$
b11111111111111110000000000000 !%
b111110 h(
#260
b1111111111111111111110001100 _$
b1111111111111111000000000000 !%
b10 3'
b11111 h(
#261
b111111111111111111111000100 _$
b111111111111111100000000000 !%
b11 3'
b1111 h(
#262
b10000011111111111111111111100000 _$
b11111111111111110000000000 !%
b111 h(
#263
b1000001111111111111111111110000 _$
b1111111111111111000000000 !%
b11 h(
#264
1N
b100000111111111111111111111000 _$
b111111111111111100000000 !%
b1 h(
#265
0N
b10000011111111111111111111100 _$
b11111111111111110000000 !%
b0 h(
#266
b1000001111111111111111111100 _$
b1111111111111111000000 !%
#267
b100000111111111111111111100 _$
b111111111111111100000 !%
#268
b10000011111111111111111100 _$
b11111111111111110000 !%
#269
b1000001111111111111111100 _$
b1111111111111111000 !%
#270
b100000111111111111111100 _$
b111111111111111100 !%
#271
b10000011111111111111100 _$
b11111111111111110 !%
#272
b1000001111111111111100 _$
b1111111111111111 !%
#273
b100000111111111111100 _$
b111111111111111 !%
#274
b10000011111111111100 _$
b11111111111111 !%
#275
b1000001111111111100 _$
b1111111111111 !%
#276
b100000111111111100 _$
b111111111111 !%
#277
b10000011111111100 _$
b11111111111 !%
#278
b1000001111111100 _$
b1111111111 !%
#279
b100000111111100 _$
b111111111 !%
#280
b10000011111100 _$
b11111111 !%
#281
b1000001111100 _$
b1111111 !%
b1 3'
#282
b100000111100 _$
b111111 !%
b0 3'
#283
b10000011100 _$
b11111 !%
#284
b1000001100 _$
b1111 !%
#285
b100000100 _$
b111 !%
#286
b10000000 _$
b11 !%
b10 3'
#287
b1000000 _$
b1 !%
b1 3'
#288
b100000 _$
b0 !%
b0 3'
#289
b111011000110011 p(
#290
b1111111111111111111110000000110 ?$
b10000 _$
#291
b111111111111111111111000000011 ?$
b1000 _$
b10101010000000000100011 p(
#292
b11111111111111111111100000001 ?$
b100 _$
b100000000001100110111 p(
#293
b1111111111111111111110000000 ?$
b0 _$
b1100 A%
b1010000010100010011 p(
#294
b10000111111111111111111111000000 ?$
b10 A%
b1000000000000000000010100000000 p(
#295
b1000011111111111111111111100000 ?$
b11 A%
#296
b100001111111111111111111110000 ?$
#297
1N
b10000111111111111111111111000 ?$
#298
0N
b1000011111111111111111111100 ?$
#299
b100001111111111111111111110 ?$
#300
b10000111111111111111111111 ?$
#301
b10000001000011111111111111111111 ?$
#302
b11000000100001111111111111111111 ?$
#303
b11100000010000111111111111111111 ?$
#304
b11110000001000011111111111111111 ?$
#305
b11111000000100001111111111111111 ?$
#306
b11111100000010000111111111111111 ?$
#307
b11111110000001000011111111111111 ?$
#308
b11111111000000100001111111111111 ?$
#309
b11111111100000010000111111111111 ?$
#310
b11111111110000001000011111111111 ?$
#311
b11111111111000000100001111111111 ?$
#312
b11111111111100000010000111111111 ?$
#313
b11111111111110000001000011111111 ?$
#314
b11111111111111000000100001111111 ?$
#315
b11111111111111100000010000111111 ?$
#316
b11111111111111110000001000011111 ?$
#317
b11111111111111111000000100001111 ?$
#318
b11111111111111111100000010000111 ?$
#319
b11111111111111111110000001000011 ?$
#320
b11111111111111111111000000100001 ?$
#321
b11111111111111111111100000010000 ?$
b11111111111111111111100000010000 _$
0E%
1F%
11'
1<'
#322
b10001100000100000100010000000011 G%
1g%
b10001100000100000100010000000011 p(
#323
b0 V
b0 _$
b1 A%
0F%
01'
0<'
b10101 `(
#324
0g%
b1000000000000000000010100000000 p(
#326
b10000000000000000000000000000000 _$
b10000000000000000000000000000000 !%
b100 A%
#327
b1000000000000000000000000000000 _$
b1000000000000000000000000000000 !%
b10 A%
#328
b100000000000000000000000000000 _$
b100000000000000000000000000000 !%
#329
b10000000000000000000000000000 _$
b10000000000000000000000000000 !%
#330
b1000000000000000000000000000 _$
b1000000000000000000000000000 !%
#331
b100000000000000000000000000 _$
b100000000000000000000000000 !%
#332
b10000010000000000000000000000000 _$
b10000010000000000000000000000000 !%
#333
1N
b11000001000000000000000000000000 _$
b11000001000000000000000000000000 !%
#334
0N
b1100000100000000000000000000000 _$
b1100000100000000000000000000000 !%
#335
b110000010000000000000000000000 _$
b110000010000000000000000000000 !%
#336
b11000001000000000000000000000 _$
b11000001000000000000000000000 !%
#337
b10001100000100000000000000000000 _$
b10001100000100000000000000000000 !%
#338
b11000110000010000000000000000000 _$
b11000110000010000000000000000000 !%
#339
b11100011000001000000000000000000 _$
b11100011000001000000000000000000 !%
#340
b11110001100000100000000000000000 _$
b11110001100000100000000000000000 !%
#341
b11111000110000010000000000000000 _$
b11111000110000010000000000000000 !%
#342
b11111100011000001000000000000000 _$
b11111100011000001000000000000000 !%
#343
b11111110001100000100000000000000 _$
b11111110001100000100000000000000 !%
#344
b11111111000110000010000000000000 _$
b11111111000110000010000000000000 !%
#345
b11111111100011000001000000000000 _$
b11111111100011000001000000000000 !%
#346
b11111111110001100000100000000000 _$
b11111111110001100000100000000000 !%
b0 p(
#347
b11111111111000110000010000000000 _$
b11111111111000110000010000000000 !%
#348
b11111111111100011000001000000000 _$
b11111111111100011000001000000000 !%
#349
b11111111111110001100000100000000 _$
b11111111111110001100000100000000 !%
#350
b11111111111111000110000010000000 _$
b10 3'
#351
b11111111111111100011000001000000 _$
b1 3'
#352
b11111111111111110001100000100000 _$
b0 3'
#353
b11111111111111111000110000010000 _$
#354
b11111111111111111100011000001000 _$
#355
b11111111111111111110001100000100 _$
#356
b11111111111111111111000110000000 _$
b10 3'
#357
b11111111111111111111100011000000 _$
1F%
11'
b11 3'
#358
b0 G%
1g%
#359
b0 !%
0F%
01'
b11000000 h(
#360
b1111111111111111111110000001000 ?$
b10000000000000000000000000000000 !%
0g%
b1100000 h(
#361
b111111111111111111111000000100 ?$
b11000000000000000000000000000000 !%
b110000 h(
#362
b10011111111111111111111100000010 ?$
b11100000000000000000000000000000 !%
b11000 h(
#363
b1001111111111111111111110000001 ?$
b11110000000000000000000000000000 !%
b1100 h(
#364
b10100111111111111111111111000000 ?$
b11111000000000000000000000000000 !%
b110 h(
#365
b1010011111111111111111111100000 ?$
b11111100000000000000000000000000 !%
b11 h(
#366
b101001111111111111111111110000 ?$
b11111110000000000000000000000000 !%
b1 h(
#367
1N
b10100111111111111111111111000 ?$
b11111111000000000000000000000000 !%
1g(
b0 h(
#368
0N
b1010011111111111111111111100 ?$
b11111111100000000000000000000000 !%
0g(
#369
b101001111111111111111111110 ?$
b11111111110000000000000000000000 !%
#370
b10100111111111111111111111 ?$
b11111111111000000000000000000000 !%
#371
b10000001010011111111111111111111 ?$
b11111111111100000000000000000000 !%
#372
b11000000101001111111111111111111 ?$
b11111111111110000000000000000000 !%
#373
b11100000010100111111111111111111 ?$
b11111111111111000000000000000000 !%
#374
b11110000001010011111111111111111 ?$
b11111111111111100000000000000000 !%
#375
b11111000000101001111111111111111 ?$
b11111111111111110000000000000000 !%
1g(
#376
b11111100000010100111111111111111 ?$
b11111111111111111000000000000000 !%
0g(
#377
b11111110000001010011111111111111 ?$
b11111111111111111100000000000000 !%
#378
b11111111000000101001111111111111 ?$
b11111111111111111110000000000000 !%
#379
b11111111100000010100111111111111 ?$
b11111111111111111111000000000000 !%
#380
b11111111110000001010011111111111 ?$
b11111111111111111111100000000000 !%
#381
b11111111111000000101001111111111 ?$
b11111111111111111111110000000000 !%
#382
b11111111111100000010100111111111 ?$
b11111111111111111111111000000000 !%
#383
b11111111111110000001010011111111 ?$
b11111111111111111111111100000000 !%
1g(
#384
b11111111111111000000101001111111 ?$
0g(
#385
b11111111111111100000010100111111 ?$
#386
b11111111111111110000001010011111 ?$
#387
b11111111111111111000000101001111 ?$
#388
b11111111111111111100000010100111 ?$
#389
b11111111111111111110000001010011 ?$
#390
b11111111111111111111000000101001 ?$
#391
b11111111111111111111100000010100 ?$
b11111111111111111111100000010100 _$
1F%
11'
b0 3'
1<'
1g(
#392
b11111110000001000000100011100011 G%
1g%
0g(
b11111110000001000000100011100011 p(
#393
b11111111111111111111100011000000 _$
1E%
0F%
01'
b11 3'
0<'
b10100 `(
b11000000 h(
#394
0g%
b11100000 h(
b0 p(
#395
b11110000 h(
#396
b1111111111111111111110001100000 _$
b1111111111111111111111110000000 !%
b1 A%
b1 3'
b0 h(
#397
b111111111111111111111000110000 _$
b111111111111111111111111000000 !%
b0 3'
b1111100 h(
#398
b11111111111111111111100011000 _$
b11111111111111111111111100000 !%
b111110 h(
