build/servant_1.2.1/nexys_a7-vivado/.Xil/Vivado-18722-binhkieudo-hotswap/hw_ila_data_1/zip_work/waveform.vcd
$date
        2023-Aug-13 04:00:15
$end
$version
        Vivado v2022.2 (64-bit)
$end
$timescale
        1ps
$end
$scope module dut $end
$var reg 1 " nolabel_line55/my_debugger/jtag_trst $end
$var reg 1 # nolabel_line55/my_debugger/jtag_tck $end
$var reg 1 $ nolabel_line55/my_debugger/jtag_tdi $end
$var reg 1 % nolabel_line55/my_debugger/jtag_tdo $end
$var reg 1 & nolabel_line55/my_debugger/jtag_tms $end
$var reg 1 ' nolabel_line55/my_debugger/dmi_req_valid $end
$var reg 1 ( nolabel_line55/my_debugger/dmi_req_ready $end
$var reg 6 ) nolabel_line55/my_debugger/dmi_req_address [5:0] $end
$var reg 32 / nolabel_line55/my_debugger/dmi_req_data [31:0] $end
$var reg 2 O nolabel_line55/my_debugger/dmi_req_op [1:0] $end
$var reg 2 Q nolabel_line55/my_debugger/dm_maddr [1:0] $end
$var reg 1 S nolabel_line55/my_debugger/dm_rden $end
$var reg 1 T nolabel_line55/my_debugger/dm_wren $end
$var reg 32 U nolabel_line55/my_debugger/ibus_adr [31:0] $end
$var reg 1 u nolabel_line55/my_debugger/ibus_cyc $end
$var reg 32 v nolabel_line55/my_debugger/ibus_rdt [31:0] $end
$var reg 1 8" nolabel_line55/my_debugger/ibus_ack $end
$var reg 1 9" nolabel_line55/my_debugger/dbg_dcsr_step $end
$var reg 1 :" nolabel_line55/my_debugger/dbg_dcsr_en $end
$var reg 1 ;" nolabel_line55/my_debugger/dbg_cpu_process $end
$var reg 1 <" nolabel_line55/my_debugger/dbg_cpu_reset $end
$var reg 1 =" nolabel_line55/my_debugger/dbg_cpu_halt_req $end
$var reg 1 >" nolabel_line55/my_debugger/dbg_cpu_halt_ack $end
$var reg 1 ?" nolabel_line55/my_debugger/dbg_cpu_resume_req $end
$var reg 1 @" nolabel_line55/my_debugger/dbg_cpu_resume_ack $end
$var reg 1 A" nolabel_line55/my_debugger/dbg_cpu_execute_req $end
$var reg 1 B" nolabel_line55/my_debugger/dbg_cpu_execute_ack $end
$var reg 32 C" nolabel_line55/my_debugger/dm_probuf0 [31:0] $end
$var reg 32 c" nolabel_line55/my_debugger/dm_probuf1 [31:0] $end
$var reg 32 %# nolabel_line55/my_debugger/dm_probuf2 [31:0] $end
$var reg 32 E# nolabel_line55/my_debugger/dm_probuf3 [31:0] $end
$var reg 1 e# nolabel_line55/my_debugger/dmi_rsp_valid $end
$var reg 1 f# nolabel_line55/my_debugger/dmi_rsp_ready $end
$var reg 32 g# nolabel_line55/my_debugger/dmi_rsp_data [31:0] $end
$var reg 2 )$ nolabel_line55/my_debugger/dmi_rsp_op [1:0] $end
$var reg 32 +$ nolabel_line55/my_debugger/execute_req_cnt [31:0] $end
$var reg 32 K$ nolabel_line55/my_debugger/dm_databuf [31:0] $end
$var reg 32 k$ nolabel_line55/my_debugger/sbus_adr [31:0] $end
$var reg 32 -% nolabel_line55/my_debugger/sbus_dat [31:0] $end
$var reg 4 M% nolabel_line55/my_debugger/sbus_sel [3:0] $end
$var reg 1 Q% nolabel_line55/my_debugger/sbus_we $end
$var reg 1 R% nolabel_line55/my_debugger/sbus_cyc $end
$var reg 32 S% nolabel_line55/my_debugger/sbus_rdt [31:0] $end
$var reg 1 s% nolabel_line55/my_debugger/sbus_ack $end
$var reg 1 t% nolabel_line55/my_debugger/dbg_misa_en $end
$var reg 6 u% nolabel_line55/my_debugger/rf_addr [5:0] $end
$var reg 1 {% nolabel_line55/my_debugger/rf_we $end
$var reg 8 |% nolabel_line55/my_debugger/rf_data [7:0] $end
$var reg 1 && nolabel_line55/my_debugger/rf_we1 $end
$var reg 1 '& _TRIGGER $end
$var reg 1 (& _WINDOW $end
$var reg 1 )& _GAP $end
$upscope $end
$enddefinitions $end
#0
$dumpvars
1"
1#
0$
0%
0&
0'
1(
b11000 )
b0 /
b10 O
b11 Q
0S
0T
b11111111111111111110000000100011 U
0u
b0 v
08"
09"
0:"
1;"
0<"
0="
0>"
0?"
0@"
0A"
0B"
b10001000000000000010010010000011 C"
b100101000010000000100011 c"
b10001000000010000010011 %#
b100000000000001110011 E#
0e#
0f#
b1 g#
b0 )$
b0 +$
b1000000000000000000010100110111 K$
b11111111111111111111100011000000 k$
b10 -%
b1 M%
1Q%
0R%
b10001100000000000000000000100011 S%
0s%
0t%
b10100 u%
0{%
b0 |%
0&&
0'&
1(&
0)&
$end
#1
b11111111111111111111000000010001 U
b1 -%
#2
b0 Q
1S
b11111111111111111111100000001000 U
1u
b11111111111111111111100000001000 k$
b0 -%
0Q%
1R%
#3
b10001100001000000100010000000011 v
18"
b10001100001000000100010000000011 S%
1s%
#4
b11 Q
0S
0u
08"
b11111111111111111111100011000000 k$
0R%
b10110 u%
#5
b0 v
0s%
#7
b1 Q
b1111111111111111111110001100000 k$
#8
b0 Q
b10111111111111111111111000110000 k$
b10000000000000000000000000000000 -%
b100 M%
#9
b1011111111111111111111100011000 k$
b1000000000000000000000000000000 -%
#10
b10 Q
b101111111111111111111110001100 k$
b100000000000000000000000000000 -%
#11
b11 Q
b10111111111111111111111000100 k$
b10000000000000000000000000000 -%
#12
b1011111111111111111111100000 k$
b1000000000000000000000000000 -%
#13
b10000101111111111111111111110000 k$
b10000100000000000000000000000000 -%
#14
b11000010111111111111111111111000 k$
b11000010000000000000000000000000 -%
#15
b1100001011111111111111111111100 k$
b1100001000000000000000000000000 -%
#16
b110000101111111111111111111100 k$
b110000100000000000000000000000 -%
#17
b11000010111111111111111111100 k$
b11000010000000000000000000000 -%
#18
b10001100001011111111111111111100 k$
b10001100001000000000000000000000 -%
#19
b11000110000101111111111111111100 k$
b11000110000100000000000000000000 -%
#20
b11100011000010111111111111111100 k$
b11100011000010000000000000000000 -%
#21
b11110001100001011111111111111100 k$
b11110001100001000000000000000000 -%
#22
b11111000110000101111111111111100 k$
b11111000110000100000000000000000 -%
#23
b11111100011000010111111111111100 k$
#24
b11111110001100001011111111111100 k$
#25
b11111111000110000101111111111100 k$
#26
b11111111100011000010111111111100 k$
#27
b11111111110001100001011111111100 k$
#28
b11111111111000110000101111111100 k$
#29
b11111111111100011000010111111100 k$
#30
b11111111111110001100001011111100 k$
#31
b1 Q
b11111111111111000110000101111100 k$
#32
b10 Q
b11111111111111100011000010111100 k$
#33
b1 Q
b11111111111111110001100001011100 k$
#34
b0 Q
b11111111111111111000110000101100 k$
#35
b11111111111111111100011000010100 k$
#36
b11111111111111111110001100001000 k$
#37
b10 Q
b11111111111111111111000110000100 k$
#38
b11 Q
1S
b11111111111111111111100011000000 k$
1R%
#39
b0 S%
1s%
#40
0S
b0 -%
0R%
#41
b1111111111111111111110000000100 U
b10000000000000000000000000000000 -%
0s%
#42
b111111111111111111111000000010 U
b11000000000000000000000000000000 -%
#43
b10011111111111111111111100000001 U
b11100000000000000000000000000000 -%
#44
b11001111111111111111111110000000 U
b11110000000000000000000000000000 -%
#45
b1100111111111111111111111000000 U
b11111000000000000000000000000000 -%
#46
b110011111111111111111111100000 U
b11111100000000000000000000000000 -%
#47
b11001111111111111111111110000 U
b11111110000000000000000000000000 -%
#48
b1100111111111111111111111000 U
b11111111000000000000000000000000 -%
1{%
#49
b110011111111111111111111100 U
b11111111100000000000000000000000 -%
0{%
#50
b11001111111111111111111110 U
b11111111110000000000000000000000 -%
#51
b1100111111111111111111111 U
b11111111111000000000000000000000 -%
#52
0#
1$
b10000000110011111111111111111111 U
b11111111111100000000000000000000 -%
#53
b11000000011001111111111111111111 U
b11111111111110000000000000000000 -%
#54
b11100000001100111111111111111111 U
b11111111111111000000000000000000 -%
#55
b11110000000110011111111111111111 U
b11111111111111100000000000000000 -%
#56
b11111000000011001111111111111111 U
b11111111111111110000000000000000 -%
1{%
#57
b11111100000001100111111111111111 U
0{%
#58
b11111110000000110011111111111111 U
#59
b11111111000000011001111111111111 U
#60
b11111111100000001100111111111111 U
#61
b11111111110000000110011111111111 U
#62
b11111111111000000011001111111111 U
#63
b11111111111100000001100111111111 U
#64
b11111111111110000000110011111111 U
1{%
#65
b11111111111111000000011001111111 U
0{%
#66
b11111111111111100000001100111111 U
#67
b11111111111111110000000110011111 U
#68
b11111111111111111000000011001111 U
#69
b11111111111111111100000001100111 U
#70
b11111111111111111110000000110011 U
#71
b11111111111111111111000000011001 U
#72
b0 Q
1S
b11111111111111111111100000001100 U
1u
b11111111111111111111100000001100 k$
1R%
1{%
#73
b10000001000001000001100011 v
18"
b10000001000001000001100011 S%
1s%
0{%
#74
b11 Q
0S
0u
08"
b11111111111111111111100011000000 k$
b1100 M%
1Q%
0R%
b10000 u%
b11000000 |%
#75
b0 v
0s%
b11100000 |%
#76
b11110000 |%
#77
b1 Q
b1111111111111111111110001100000 k$
b1111111111111111000000000000000 -%
b10 M%
b0 |%
#78
b0 Q
b111111111111111111111000110000 k$
b111111111111111100000000000000 -%
b11 M%
b1111100 |%
#79
b11111111111111111111100011000 k$
b11111111111111110000000000000 -%
b111110 |%
#80
b10 Q
b1111111111111111111110001100 k$
b1111111111111111000000000000 -%
b11111 |%
#81
b11 Q
b111111111111111111111000100 k$
b111111111111111100000000000 -%
b1111 |%
#82
b10000011111111111111111111100000 k$
b11111111111111110000000000 -%
b111 |%
#83
b1000001111111111111111111110000 k$
b1111111111111111000000000 -%
b11 |%
#84
b100000111111111111111111111000 k$
b111111111111111100000000 -%
b1 |%
#85
b10000011111111111111111111100 k$
b11111111111111110000000 -%
b0 |%
#86
b1000001111111111111111111100 k$
b1111111111111111000000 -%
#87
b100000111111111111111111100 k$
b111111111111111100000 -%
#88
b10000011111111111111111100 k$
b11111111111111110000 -%
#89
b1000001111111111111111100 k$
b1111111111111111000 -%
#90
b100000111111111111111100 k$
b111111111111111100 -%
#91
b10000011111111111111100 k$
b11111111111111110 -%
#92
b1000001111111111111100 k$
b1111111111111111 -%
#93
b100000111111111111100 k$
b111111111111111 -%
#94
b10000011111111111100 k$
b11111111111111 -%
#95
b1000001111111111100 k$
b1111111111111 -%
#96
b100000111111111100 k$
b111111111111 -%
#97
b10000011111111100 k$
b11111111111 -%
#98
b1000001111111100 k$
b1111111111 -%
#99
b100000111111100 k$
b111111111 -%
#100
b10000011111100 k$
b11111111 -%
#101
b1 Q
b1000001111100 k$
b1111111 -%
#102
b0 Q
b100000111100 k$
b111111 -%
#103
b10000011100 k$
b11111 -%
#104
b1000001100 k$
b1111 -%
#105
b100000100 k$
b111 -%
#106
b10 Q
b10000000 k$
b11 -%
#107
b1 Q
b1000000 k$
b1 -%
#108
b0 Q
b100000 k$
b0 -%
#109
b111011000110011 v
#110
b1111111111111111111110000000110 U
b10000 k$
#111
b111111111111111111111000000011 U
b10101010000000000100011 v
b1000 k$
#112
b11111111111111111111100000001 U
b100000000001100110111 v
b100 k$
#113
b1111111111111111111110000000 U
b110000000100000010010001110011 v
b0 k$
b1100 M%
#114
b10000111111111111111111111000000 U
b1000000000000000000010100110111 v
b10 M%
#115
b1000011111111111111111111100000 U
b11 M%
#116
b100001111111111111111111110000 U
#117
b10000111111111111111111111000 U
#118
b1000011111111111111111111100 U
#119
b100001111111111111111111110 U
#120
b10000111111111111111111111 U
#121
b10000001000011111111111111111111 U
#122
b11000000100001111111111111111111 U
#123
b11100000010000111111111111111111 U
#124
b11110000001000011111111111111111 U
#125
b11111000000100001111111111111111 U
#126
b11111100000010000111111111111111 U
#127
b11111110000001000011111111111111 U
#128
b11111111000000100001111111111111 U
#129
b11111111100000010000111111111111 U
#130
b11111111110000001000011111111111 U
#131
b11111111111000000100001111111111 U
#132
b11111111111100000010000111111111 U
#133
b11111111111110000001000011111111 U
#134
b11111111111111000000100001111111 U
#135
b11111111111111100000010000111111 U
#136
b11111111111111110000001000011111 U
#137
b11111111111111111000000100001111 U
#138
b11111111111111111100000010000111 U
#139
b11111111111111111110000001000011 U
#140
b11111111111111111111000000100001 U
#141
1S
b11111111111111111111100000010000 U
1u
b11111111111111111111100000010000 k$
0Q%
1R%
#142
b10001100000100000100010000000011 v
18"
b10001100000100000100010000000011 S%
1s%
#143
0S
0u
08"
b0 k$
b1 M%
0R%
b10101 u%
#144
b1000000000000000000010100110111 v
0s%
#146
b10000000000000000000000000000000 k$
b10000000000000000000000000000000 -%
b100 M%
#147
b1000000000000000000000000000000 k$
b1000000000000000000000000000000 -%
b10 M%
#148
b100000000000000000000000000000 k$
b100000000000000000000000000000 -%
#149
b10000000000000000000000000000 k$
b10000000000000000000000000000 -%
#150
b1000000000000000000000000000 k$
b1000000000000000000000000000 -%
#151
b100000000000000000000000000 k$
b100000000000000000000000000 -%
#152
1#
b10000010000000000000000000000000 k$
b10000010000000000000000000000000 -%
#153
b11000001000000000000000000000000 k$
b11000001000000000000000000000000 -%
#154
b1100000100000000000000000000000 k$
b1100000100000000000000000000000 -%
#155
b11 O
b110000010000000000000000000000 k$
b110000010000000000000000000000 -%
#156
b11000001000000000000000000000 k$
b11000001000000000000000000000 -%
#157
b10001100000100000000000000000000 k$
b10001100000100000000000000000000 -%
#158
b11000110000010000000000000000000 k$
b11000110000010000000000000000000 -%
#159
b11100011000001000000000000000000 k$
b11100011000001000000000000000000 -%
#160
b11110001100000100000000000000000 k$
b11110001100000100000000000000000 -%
#161
b11111000110000010000000000000000 k$
b11111000110000010000000000000000 -%
#162
b11111100011000001000000000000000 k$
b11111100011000001000000000000000 -%
#163
b11111110001100000100000000000000 k$
b11111110001100000100000000000000 -%
#164
b11111111000110000010000000000000 k$
b11111111000110000010000000000000 -%
#165
b11111111100011000001000000000000 k$
b11111111100011000001000000000000 -%
#166
b0 v
b11111111110001100000100000000000 k$
b11111111110001100000100000000000 -%
#167
b11111111111000110000010000000000 k$
b11111111111000110000010000000000 -%
#168
b11111111111100011000001000000000 k$
b11111111111100011000001000000000 -%
#169
b11111111111110001100000100000000 k$
b11111111111110001100000100000000 -%
#170
b10 Q
b11111111111111000110000010000000 k$
#171
b1 Q
b11111111111111100011000001000000 k$
#172
b0 Q
b11111111111111110001100000100000 k$
#173
b11111111111111111000110000010000 k$
#174
b11111111111111111100011000001000 k$
#175
b11111111111111111110001100000100 k$
#176
b10 Q
b11111111111111111111000110000000 k$
#177
b11 Q
1S
b11111111111111111111100011000000 k$
1R%
#178
b0 S%
1s%
#179
0S
b0 -%
0R%
b11000000 |%
#180
b1111111111111111111110000001000 U
b10000000000000000000000000000000 -%
0s%
b1100000 |%
#181
b111111111111111111111000000100 U
b11000000000000000000000000000000 -%
b110000 |%
#182
b10011111111111111111111100000010 U
b11100000000000000000000000000000 -%
b11000 |%
#183
b1001111111111111111111110000001 U
b11110000000000000000000000000000 -%
b1100 |%
#184
b10100111111111111111111111000000 U
b11111000000000000000000000000000 -%
b110 |%
#185
b1010011111111111111111111100000 U
b11111100000000000000000000000000 -%
b11 |%
#186
b101001111111111111111111110000 U
b11111110000000000000000000000000 -%
b1 |%
#187
b10100111111111111111111111000 U
b11111111000000000000000000000000 -%
1{%
b0 |%
#188
b1010011111111111111111111100 U
b11111111100000000000000000000000 -%
0{%
#189
b101001111111111111111111110 U
b11111111110000000000000000000000 -%
#190
b10100111111111111111111111 U
b11111111111000000000000000000000 -%
#191
b10000001010011111111111111111111 U
b11111111111100000000000000000000 -%
#192
b11000000101001111111111111111111 U
b11111111111110000000000000000000 -%
#193
b11100000010100111111111111111111 U
b11111111111111000000000000000000 -%
#194
b11110000001010011111111111111111 U
b11111111111111100000000000000000 -%
#195
b11111000000101001111111111111111 U
b11111111111111110000000000000000 -%
1{%
#196
b11111100000010100111111111111111 U
b11111111111111111000000000000000 -%
0{%
#197
b11111110000001010011111111111111 U
b11111111111111111100000000000000 -%
#198
b11111111000000101001111111111111 U
b11111111111111111110000000000000 -%
#199
b11111111100000010100111111111111 U
b11111111111111111111000000000000 -%
#200
b11111111110000001010011111111111 U
b11111111111111111111100000000000 -%
#201
b11111111111000000101001111111111 U
b11111111111111111111110000000000 -%
#202
b11111111111100000010100111111111 U
b11111111111111111111111000000000 -%
#203
b11111111111110000001010011111111 U
b11111111111111111111111100000000 -%
1{%
#204
b11111111111111000000101001111111 U
0{%
#205
b11111111111111100000010100111111 U
#206
b11111111111111110000001010011111 U
#207
b11111111111111111000000101001111 U
#208
b11111111111111111100000010100111 U
#209
b11111111111111111110000001010011 U
#210
b11111111111111111111000000101001 U
#211
b0 Q
1S
b11111111111111111111100000010100 U
1u
b11111111111111111111100000010100 k$
1R%
1{%
#212
b11111110000001000000100011100011 v
18"
b11111110000001000000100011100011 S%
1s%
0{%
#213
b11 Q
0S
0u
08"
b11111111111111111111100011000000 k$
1Q%
0R%
b10100 u%
b11000000 |%
#214
b0 v
0s%
b11100000 |%
#215
b11110000 |%
#216
b1 Q
b1111111111111111111110001100000 k$
b1111111111111111111111110000000 -%
b1 M%
b0 |%
#217
b0 Q
b111111111111111111111000110000 k$
b111111111111111111111111000000 -%
b1111100 |%
#218
b11111111111111111111100011000 k$
b11111111111111111111111100000 -%
b111110 |%
#219
b10 Q
b1111111111111111111110001100 k$
b1111111111111111111111110000 -%
b11111 |%
#220
b11 Q
b10000111111111111111111111000100 k$
b111111111111111111111111000 -%
b1111 |%
#221
b11000011111111111111111111100000 k$
b11111111111111111111111100 -%
b111 |%
#222
b11100001111111111111111111110000 k$
b1111111111111111111111110 -%
b11 |%
#223
b11110000111111111111111111111000 k$
b111111111111111111111111 -%
b1 |%
#224
b11111000011111111111111111111100 k$
b11111111111111111111111 -%
b0 |%
#225
b11111100001111111111111111111100 k$
b1111111111111111111111 -%
#226
b11111110000111111111111111111100 k$
b111111111111111111111 -%
#227
b11111111000011111111111111111100 k$
b11111111111111111111 -%
#228
b11111111100001111111111111111100 k$
b1111111111111111111 -%
#229
b11111111110000111111111111111100 k$
b111111111111111111 -%
#230
b11111111111000011111111111111100 k$
b11111111111111111 -%
#231
b11111111111100001111111111111100 k$
b1111111111111111 -%
#232
b11111111111110000111111111111100 k$
b111111111111111 -%
#233
b11111111111111000011111111111100 k$
b11111111111111 -%
#234
b11111111111111100001111111111100 k$
b1111111111111 -%
#235
b11111111111111110000111111111100 k$
b111111111111 -%
#236
b11111111111111111000011111111100 k$
b11111111111 -%
#237
b11111111111111111100001111111100 k$
b1111111111 -%
#238
b11111111111111111110000111111100 k$
b111111111 -%
#239
b11111111111111111111000011111100 k$
b11111111 -%
#240
b1 Q
b11111111111111111111100001111100 k$
b1111111 -%
#241
b0 Q
b11111111111111111111110000111100 k$
b111111 -%
#242
b11111111111111111111111000011100 k$
b11111 -%
#243
b11111111111111111111111100001100 k$
b1111 -%
#244
b10 Q
b11111111111111111111111110000100 k$
b111 -%
#245
b11 Q
b11111111111111111111111111000000 k$
b11 -%
#246
b11111111111111111111111111100000 k$
b1 -%
#247
b11111111111111111111111111110000 k$
b0 -%
#249
b1111111111111111111110000001010 U
b11111111111111111111111111111000 k$
#250
b111111111111111111111000000101 U
b11111111111111111111111111111100 k$
#251
b10011111111111111111111100000010 U
b100 M%
#252
b1001111111111111111111110000001 U
b1000 M%
#253
0#
0$
b100111111111111111111111000000 U
#254
b10011111111111111111111100000 U
#255
b1001111111111111111111110000 U
#256
1%
b100111111111111111111111000 U
#257
b10011111111111111111111100 U
#258
b1001111111111111111111110 U
#259
b100111111111111111111111 U
#260
b10000000010011111111111111111111 U
#261
b11000000001001111111111111111111 U
#262
b11100000000100111111111111111111 U
#263
b11110000000010011111111111111111 U
#264
b11111000000001001111111111111111 U
#265
b11111100000000100111111111111111 U
#266
b11111110000000010011111111111111 U
#267
b11111111000000001001111111111111 U
#268
b11111111100000000100111111111111 U
#269
b11111111110000000010011111111111 U
#270
b11111111111000000001001111111111 U
#271
b11111111111100000000100111111111 U
#272
b11111111111110000000010011111111 U
#273
b11111111111111000000001001111111 U
#274
b11111111111111100000000100111111 U
#275
b11111111111111110000000010011111 U
#276
b11111111111111111000000001001111 U
#277
b11111111111111111100000000100111 U
#278
b11111111111111111110000000010011 U
#279
b11111111111111111111000000001001 U
#280
b0 Q
1S
b11111111111111111111100000000100 U
1u
b11111111111111111111100000000100 k$
0Q%
1R%
#281
b10001100000000000000000000100011 v
18"
b10001100000000000000000000100011 S%
1s%
#282
b11 Q
0S
0u
08"
b11111111111111111111111111111100 k$
1Q%
0R%
#283
b0 v
0s%
#285
b1111111111111111111111111111100 k$
b10 M%
#286
b111111111111111111111111111100 k$
b1 M%
#287
b11111111111111111111111111100 k$
#288
b1111111111111111111111111100 k$
#289
b111111111111111111111111100 k$
#290
b11111111111111111111111100 k$
#291
b10000001111111111111111111111100 k$
#292
b11000000111111111111111111111100 k$
#293
b1100000011111111111111111111100 k$
#294
b110000001111111111111111111100 k$
#295
b11000000111111111111111111100 k$
#296
b10001100000011111111111111111100 k$
#297
b11000110000001111111111111111100 k$
#298
b11100011000000111111111111111100 k$
#299
b11110001100000011111111111111100 k$
#300
b11111000110000001111111111111100 k$
#301
b11111100011000000111111111111100 k$
#302
b11111110001100000011111111111100 k$
#303
b11111111000110000001111111111100 k$
#304
b11111111100011000000111111111100 k$
#305
b11111111110001100000011111111100 k$
#306
b11111111111000110000001111111100 k$
#307
b11111111111100011000000111111100 k$
#308
b11111111111110001100000011111100 k$
#309
b1 Q
b11111111111111000110000001111100 k$
#310
b0 Q
b11111111111111100011000000111100 k$
#311
b11111111111111110001100000011100 k$
#312
b11111111111111111000110000001100 k$
#313
b11111111111111111100011000000100 k$
#314
b11111111111111111110001100000000 k$
#315
b10 Q
b11111111111111111111000110000000 k$
#316
b11 Q
1T
b11111111111111111111100011000000 k$
1R%
#317
b10001100000000000000000000100011 v
1>"
1s%
#318
0T
b10001100000000000000000000100011 -%
0R%
#319
b1111111111111111111110000000010 U
b0 v
0>"
b1000110000000000000000000010001 -%
0s%
b10000000 |%
#320
b111111111111111111111000000001 U
b100011000000000000000000001000 -%
b11000000 |%
#321
b11111111111111111111100000000 U
b10001100000000000000000000100 -%
b1100000 |%
#322
b10001111111111111111111110000000 U
b1000110000000000000000000010 -%
b110000 |%
#323
b1000111111111111111111111000000 U
b100011000000000000000000001 -%
b11000 |%
#324
b100011111111111111111111100000 U
b10001100000000000000000000 -%
b10001100 |%
#325
b10001111111111111111111110000 U
b1000110000000000000000000 -%
b1000110 |%
#326
b1000111111111111111111111000 U
b100011000000000000000000 -%
b100011 |%
#327
b100011111111111111111111100 U
b10001100000000000000000 -%
b0 |%
#328
b10001111111111111111111110 U
b1000110000000000000000 -%
b1000 |%
#329
b1000111111111111111111111 U
b100011000000000000000 -%
b100 |%
#330
b10000000100011111111111111111111 U
b10001100000000000000 -%
b10 |%
#331
b11000000010001111111111111111111 U
b1000110000000000000 -%
b1 |%
#332
b11100000001000111111111111111111 U
b100011000000000000 -%
b0 |%
#333
b11110000000100011111111111111111 U
b10001100000000000 -%
#334
b11111000000010001111111111111111 U
b1000110000000000 -%
#335
b11111100000001000111111111111111 U
b100011000000000 -%
#336
b11111110000000100011111111111111 U
b10001100000000 -%
#337
b11111111000000010001111111111111 U
b1000110000000 -%
#338
b11111111100000001000111111111111 U
b100011000000 -%
#339
b11111111110000000100011111111111 U
b10001100000 -%
#340
b11111111111000000010001111111111 U
b1000110000 -%
#341
b11111111111100000001000111111111 U
b100011000 -%
#342
b11111111111110000000100011111111 U
b10001100 -%
#343
b11111111111111000000010001111111 U
b1000110 -%
#344
b11111111111111100000001000111111 U
b100011 -%
#345
b11111111111111110000000100011111 U
b10001 -%
#346
b11111111111111111000000010001111 U
b1000 -%
#347
b11111111111111111100000001000111 U
b100 -%
#348
b11111111111111111110000000100011 U
b10 -%
#349
b11111111111111111111000000010001 U
b1 -%
#350
b0 Q
1S
b11111111111111111111100000001000 U
1u
b11111111111111111111100000001000 k$
b0 -%
0Q%
1R%
#351
b10001100001000000100010000000011 v
18"
b10001100001000000100010000000011 S%
1s%
#352
1#
b11 Q
0S
0u
08"
b11111111111111111111100011000000 k$
0R%
b10110 u%
#353
b0 v
0s%
#355
b1 O
b1 Q
b1111111111111111111110001100000 k$
#356
b0 Q
b10111111111111111111111000110000 k$
b10000000000000000000000000000000 -%
b100 M%
#357
b1011111111111111111111100011000 k$
b1000000000000000000000000000000 -%
#358
b10 Q
b101111111111111111111110001100 k$
b100000000000000000000000000000 -%
#359
b11 Q
b10111111111111111111111000100 k$
b10000000000000000000000000000 -%
#360
b1011111111111111111111100000 k$
b1000000000000000000000000000 -%
#361
b10000101111111111111111111110000 k$
b10000100000000000000000000000000 -%
#362
b11000010111111111111111111111000 k$
b11000010000000000000000000000000 -%
#363
b1100001011111111111111111111100 k$
b1100001000000000000000000000000 -%
#364
b110000101111111111111111111100 k$
b110000100000000000000000000000 -%
#365
b11000010111111111111111111100 k$
b11000010000000000000000000000 -%
#366
b10001100001011111111111111111100 k$
b10001100001000000000000000000000 -%
#367
b11000110000101111111111111111100 k$
b11000110000100000000000000000000 -%
#368
b11100011000010111111111111111100 k$
b11100011000010000000000000000000 -%
#369
b11110001100001011111111111111100 k$
b11110001100001000000000000000000 -%
#370
b11111000110000101111111111111100 k$
b11111000110000100000000000000000 -%
#371
b11111100011000010111111111111100 k$
#372
b11111110001100001011111111111100 k$
#373
b11111111000110000101111111111100 k$
#374
b11111111100011000010111111111100 k$
#375
b11111111110001100001011111111100 k$
#376
b11111111111000110000101111111100 k$
#377
b11111111111100011000010111111100 k$
#378
b11111111111110001100001011111100 k$
#379
b1 Q
b11111111111111000110000101111100 k$
#380
b10 Q
b11111111111111100011000010111100 k$
#381
b1 Q
b11111111111111110001100001011100 k$
#382
b0 Q
b11111111111111111000110000101100 k$
#383
b11111111111111111100011000010100 k$
#384
b11111111111111111110001100001000 k$
#385
b10 Q
b11111111111111111111000110000100 k$
#386
b11 Q
1S
b11111111111111111111100011000000 k$
1R%
#387
b0 S%
1s%
#388
0S
b0 -%
0R%
#389
b1111111111111111111110000000100 U
b10000000000000000000000000000000 -%
0s%
#390
b111111111111111111111000000010 U
b11000000000000000000000000000000 -%
#391
b10011111111111111111111100000001 U
b11100000000000000000000000000000 -%
#392
b11001111111111111111111110000000 U
b11110000000000000000000000000000 -%
#393
b1100111111111111111111111000000 U
b11111000000000000000000000000000 -%
#394
b110011111111111111111111100000 U
b11111100000000000000000000000000 -%
#395
b11001111111111111111111110000 U
b11111110000000000000000000000000 -%
#396
b1100111111111111111111111000 U
b11111111000000000000000000000000 -%
1{%
#397
b110011111111111111111111100 U
b11111111100000000000000000000000 -%
0{%
#398
b11001111111111111111111110 U
b11111111110000000000000000000000 -%
#399
b1100111111111111111111111 U
b11111111111000000000000000000000 -%
#400
b10000000110011111111111111111111 U
b11111111111100000000000000000000 -%
#401
b11000000011001111111111111111111 U
b11111111111110000000000000000000 -%
#402
b11100000001100111111111111111111 U
b11111111111111000000000000000000 -%
#403
b11110000000110011111111111111111 U
b11111111111111100000000000000000 -%
#404
b11111000000011001111111111111111 U
b11111111111111110000000000000000 -%
1{%
#405
b11111100000001100111111111111111 U
0{%
#406
b11111110000000110011111111111111 U
#407
b11111111000000011001111111111111 U
#408
b11111111100000001100111111111111 U
#409
b11111111110000000110011111111111 U
#410
b11111111111000000011001111111111 U
#411
b11111111111100000001100111111111 U
#412
b11111111111110000000110011111111 U
1{%
#413
b11111111111111000000011001111111 U
0{%
#414
b11111111111111100000001100111111 U
#415
b11111111111111110000000110011111 U
#416
b11111111111111111000000011001111 U
#417
b11111111111111111100000001100111 U
#418
b11111111111111111110000000110011 U
#419
b11111111111111111111000000011001 U
#420
b0 Q
1S
b11111111111111111111100000001100 U
1u
b11111111111111111111100000001100 k$
1R%
1{%
#421
b10000001000001000001100011 v
18"
b10000001000001000001100011 S%
1s%
0{%
#422
b11 Q
0S
0u
08"
b11111111111111111111100011000000 k$
b1100 M%
1Q%
0R%
b10000 u%
b11000000 |%
#423
b0 v
0s%
b11100000 |%
#424
b11110000 |%
#425
b1 Q
b1111111111111111111110001100000 k$
b1111111111111111000000000000000 -%
b10 M%
b0 |%
#426
b0 Q
b111111111111111111111000110000 k$
b111111111111111100000000000000 -%
b11 M%
b1111100 |%
#427
b11111111111111111111100011000 k$
b11111111111111110000000000000 -%
b111110 |%
#428
b10 Q
b1111111111111111111110001100 k$
b1111111111111111000000000000 -%
b11111 |%
#429
b11 Q
b111111111111111111111000100 k$
b111111111111111100000000000 -%
b1111 |%
#430
b10000011111111111111111111100000 k$
b11111111111111110000000000 -%
b111 |%
#431
b1000001111111111111111111110000 k$
b1111111111111111000000000 -%
b11 |%
#432
b100000111111111111111111111000 k$
b111111111111111100000000 -%
b1 |%
#433
b10000011111111111111111111100 k$
b11111111111111110000000 -%
b0 |%
#434
b1000001111111111111111111100 k$
b1111111111111111000000 -%
#435
b100000111111111111111111100 k$
b111111111111111100000 -%
#436
b10000011111111111111111100 k$
b11111111111111110000 -%
#437
b1000001111111111111111100 k$
b1111111111111111000 -%
#438
b100000111111111111111100 k$
b111111111111111100 -%
#439
b10000011111111111111100 k$
b11111111111111110 -%
#440
b1000001111111111111100 k$
b1111111111111111 -%
#441
b100000111111111111100 k$
b111111111111111 -%
#442
b10000011111111111100 k$
b11111111111111 -%
#443
b1000001111111111100 k$
b1111111111111 -%
#444
b100000111111111100 k$
b111111111111 -%
#445
b10000011111111100 k$
b11111111111 -%
#446
b1000001111111100 k$
b1111111111 -%
#447
b100000111111100 k$
b111111111 -%
#448
b10000011111100 k$
b11111111 -%
#449
b1 Q
b1000001111100 k$
b1111111 -%
#450
b0 Q
b100000111100 k$
b111111 -%
#451
b10000011100 k$
b11111 -%
#452
b1000001100 k$
b1111 -%
#453
0#
b100000100 k$
b111 -%
#454
b10 Q
b10000000 k$
b11 -%
