build/servant_1.2.1/nexys_a7-vivado/.Xil/Vivado-20513-binhkieudo-hotswap/hw_ila_data_1/zip_work/waveform.vcd
$date
        2023-Aug-08 04:15:58
$end
$version
        Vivado v2022.2 (64-bit)
$end
$timescale
        1ps
$end
$scope module dut $end
$var reg 1 " nolabel_line52/serv_dtm/o_dmi_req_valid_1 $end
$var reg 6 # nolabel_line52/serv_dtm/o_dmi_req_address_1 [5:0] $end
$var reg 32 ) nolabel_line52/serv_dtm/o_dmi_req_data_1 [31:0] $end
$var reg 2 I nolabel_line52/serv_dtm/o_dmi_req_op_1 [1:0] $end
$var reg 1 K nolabel_line52/serv_dtm/o_dmi_rsp_ready_1 $end
$var reg 1 L nolabel_line52/serv_dtm/o_dbg_csr_out $end
$var reg 1 M nolabel_line52/serv_dtm/o_dbg_csr_dcsr_en $end
$var reg 1 N nolabel_line52/serv_dtm/o_dbg_csr_cnt8 $end
$var reg 1 O nolabel_line52/serv_dtm/tap_sync_tdi_1 $end
$var reg 1 P nolabel_line52/serv_dtm/tap_sync_tms_1 $end
$var reg 3 Q nolabel_line52/serv_dtm/dmi_ctrl_state_1 [2:0] $end
$var reg 1 T nolabel_line52/serv_dtm/dmi_hard_reset_1 $end
$var reg 1 U nolabel_line52/serv_dtm/dmi_reset_1 $end
$var reg 2 V nolabel_line52/serv_dtm/o_dbg_csr_addr [1:0] $end
$var reg 32 X nolabel_line52/serv_dtm/tap_reg_dmi_nxt_1 [33:2] $end
$var reg 32 x nolabel_line52/serv_dtm/o_dmi_req_data_2 [31:0] $end
$var reg 6 :" nolabel_line52/serv_dtm/o_dmi_req_address_2 [5:0] $end
$var reg 4 @" nolabel_line52/serv_dtm/tap_ctrl_state_1 [3:0] $end
$var reg 5 D" nolabel_line52/serv_dtm/tap_reg_ireg_1 [4:0] $end
$var reg 1 I" nolabel_line52/serv_dtm/tap_reg_bypass_1 $end
$var reg 32 J" nolabel_line52/serv_dtm/tap_reg_idcode_1 [31:0] $end
$var reg 32 j" nolabel_line52/serv_dtm/tap_reg_dtmcs_1 [31:0] $end
$var reg 2 ,# nolabel_line52/serv_dtm/o_dmi_req_op_2 [1:0] $end
$var reg 38 .# nolabel_line52/serv_dtm/tap_reg_dmi_1 [39:2] $end
$var reg 1 T# nolabel_line52/serv_dtm/i_tck $end
$var reg 1 U# nolabel_line52/serv_dtm/i_trst $end
$var reg 1 V# nolabel_line52/serv_dtm/i_tdi $end
$var reg 1 W# nolabel_line52/serv_dtm/i_tms $end
$var reg 1 X# nolabel_line52/serv_dtm/o_tdo $end
$var reg 1 Y# nolabel_line52/serv_dtm/i_dmi_rsp_valid $end
$var reg 1 Z# nolabel_line52/serv_dtm/o_dmi_rsp_ready_2 $end
$var reg 32 [# nolabel_line52/serv_dtm/i_dmi_rsp_data [31:0] $end
$var reg 1 {# nolabel_line52/serv_dtm/n_0_1 $end
$var reg 1 |# nolabel_line52/serv_dtm/n_0_0 $end
$var reg 32 }# nolabel_line52/serv_dtm/dmi_dmcontrol_1 [31:0] $end
$var reg 32 ?$ nolabel_line52/serv_dtm/pc_1 [31:0] $end
$var reg 32 _$ nolabel_line52/serv_dtm/i_sbus_adr_1 [31:0] $end
$var reg 32 !% nolabel_line52/serv_dtm/i_sbus_dat_1 [31:0] $end
$var reg 4 A% nolabel_line52/serv_dtm/i_subs_sel_1 [3:0] $end
$var reg 1 E% nolabel_line52/serv_dtm/i_sbus_we_1 $end
$var reg 1 F% nolabel_line52/serv_dtm/i_sbus_cyc_1 $end
$var reg 32 G% nolabel_line52/serv_dtm/o_sbus_rdt_1 [31:0] $end
$var reg 1 g% nolabel_line52/serv_dtm/o_sbus_ack_1 $end
$var reg 1 h% nolabel_line52/serv_dtm/o_cpu_ndmrst_1 $end
$var reg 1 i% nolabel_line52/serv_dtm/o_cpu_req_halt_1 $end
$var reg 3 j% nolabel_line52/serv_dtm/dm_ctrl_state_1 [2:0] $end
$var reg 32 m% nolabel_line52/serv_dtm/dbg_probuf0_1 [31:0] $end
$var reg 32 /& nolabel_line52/serv_dtm/dbg_probuf1_1 [31:0] $end
$var reg 32 O& nolabel_line52/serv_dtm/dbg_probuf2_1 [31:0] $end
$var reg 32 o& nolabel_line52/serv_dtm/dbg_probuf3_1 [31:0] $end
$var reg 1 1' nolabel_line52/serv_dtm/dbg_rden_1 $end
$var reg 1 2' nolabel_line52/serv_dtm/dbg_wren_1 $end
$var reg 2 3' nolabel_line52/serv_dtm/dbg_maddr_1 [1:0] $end
$var reg 1 5' nolabel_line52/serv_dtm/dbg_resume_req_1 $end
$var reg 1 6' nolabel_line52/serv_dtm/dbg_execute_req_1 $end
$var reg 1 7' nolabel_line52/serv_dtm/dbg_process_1 $end
$var reg 1 8' nolabel_line52/serv_dtm/dbg_dm_ctrl_busy_1 $end
$var reg 3 9' nolabel_line52/serv_dtm/dbg_dm_ctrl_cmderr_1 [2:0] $end
$var reg 1 <' nolabel_line52/serv_dtm/ibus_cycle_1 $end
$var reg 128 =' nolabel_line52/serv_dtm/clk_count_1 [127:0] $end
$var reg 1 _( nolabel_line52/serv_dtm/o_dbg_step_1 $end
$var reg 6 `( nolabel_line52/serv_dtm/o_dbg_rf_waddr_1 [5:0] $end
$var reg 1 f( nolabel_line52/serv_dtm/o_dbg_rf_w1wren_1 $end
$var reg 1 g( nolabel_line52/serv_dtm/o_dbg_rf_we_1 $end
$var reg 8 h( nolabel_line52/serv_dtm/o_dbg_rf_wdata_1 [7:0] $end
$var reg 32 p( nolabel_line52/serv_dtm/i_bus_rdt [31:0] $end
$var reg 1 2) _TRIGGER $end
$var reg 1 3) _WINDOW $end
$var reg 1 4) _GAP $end
$upscope $end
$enddefinitions $end
#0
$dumpvars
0"
b10110 #
b0 )
b0 I
0K
0L
0M
0N
0O
0P
b0 Q
0T
0U
b0 V
b10000000000000100000000001 X
b0 x
b10110 :"
b10 @"
b10001 D"
0I"
b11111111111111111111111111111111 J"
b0 j"
b0 ,#
b1011000000010000000000000100000000001 .#
0T#
1U#
0V#
0W#
0X#
0Y#
0Z#
b10000000000000100000000001 [#
0{#
0|#
b1 }#
b11111111111111111111100000001000 ?$
b1011111111111111111111100000 _$
b1000000000000000000000000000 !%
b100 A%
0E%
0F%
b10001100001000000100010000000011 G%
0g%
0h%
0i%
b0 j%
b10001000000000000010010000000011 m%
b10011 /&
b10011 O&
b100000000000001110011 o&
01'
02'
b11 3'
05'
06'
17'
08'
b0 9'
0<'
b0 ='
0_(
b10110 `(
0f(
0g(
b0 h(
b0 p(
02)
13)
04)
$end
#1
b10000101111111111111111111110000 _$
b10000100000000000000000000000000 !%
#2
1N
b11000010111111111111111111111000 _$
b11000010000000000000000000000000 !%
#3
0N
b1100001011111111111111111111100 _$
b1100001000000000000000000000000 !%
b1111 h(
#4
b110000101111111111111111111100 _$
b110000100000000000000000000000 !%
b0 h(
#5
b11000010111111111111111111100 _$
b11000010000000000000000000000 !%
#6
b10001100001011111111111111111100 _$
b10001100001000000000000000000000 !%
#7
b11000110000101111111111111111100 _$
b11000110000100000000000000000000 !%
#8
b11100011000010111111111111111100 _$
b11100011000010000000000000000000 !%
#9
b11110001100001011111111111111100 _$
b11110001100001000000000000000000 !%
#10
b11111000110000101111111111111100 _$
b11111000110000100000000000000000 !%
#11
b11111100011000010111111111111100 _$
#12
b11111110001100001011111111111100 _$
#13
b11111111000110000101111111111100 _$
#14
b11111111100011000010111111111100 _$
#15
b11111111110001100001011111111100 _$
#16
b11111111111000110000101111111100 _$
#17
b11111111111100011000010111111100 _$
#18
b11111111111110001100001011111100 _$
#19
b11111111111111000110000101111100 _$
b1 3'
#20
b11111111111111100011000010111100 _$
b10 3'
#21
b11111111111111110001100001011100 _$
b1 3'
#22
b11111111111111111000110000101100 _$
b0 3'
#23
b11111111111111111100011000010100 _$
#24
b11111111111111111110001100001000 _$
#25
b11111111111111111111000110000100 _$
b10 3'
#26
b11111111111111111111100011000000 _$
1F%
11'
b11 3'
#27
b0 G%
1g%
#28
1L
b0 !%
0F%
01'
#29
b1111111111111111111110000000100 ?$
b10000000000000000000000000000000 !%
0g%
#30
b111111111111111111111000000010 ?$
b11000000000000000000000000000000 !%
#31
b10011111111111111111111100000001 ?$
b11100000000000000000000000000000 !%
#32
0L
b11001111111111111111111110000000 ?$
b11110000000000000000000000000000 !%
#33
b1100111111111111111111111000000 ?$
b11111000000000000000000000000000 !%
#34
b110011111111111111111111100000 ?$
b11111100000000000000000000000000 !%
#35
b11001111111111111111111110000 ?$
b11111110000000000000000000000000 !%
#36
1N
b1100111111111111111111111000 ?$
b11111111000000000000000000000000 !%
1g(
#37
0N
b110011111111111111111111100 ?$
b11111111100000000000000000000000 !%
0g(
b1111 h(
#38
b11001111111111111111111110 ?$
b11111111110000000000000000000000 !%
b0 h(
#39
b1100111111111111111111111 ?$
b11111111111000000000000000000000 !%
#40
b10000000110011111111111111111111 ?$
b11111111111100000000000000000000 !%
#41
b11000000011001111111111111111111 ?$
b11111111111110000000000000000000 !%
#42
b11100000001100111111111111111111 ?$
b11111111111111000000000000000000 !%
#43
b11110000000110011111111111111111 ?$
b11111111111111100000000000000000 !%
#44
b11111000000011001111111111111111 ?$
b11111111111111110000000000000000 !%
1g(
#45
b11111100000001100111111111111111 ?$
0g(
#46
b11111110000000110011111111111111 ?$
#47
b11111111000000011001111111111111 ?$
#48
b11111111100000001100111111111111 ?$
#49
b11111111110000000110011111111111 ?$
#50
b11111111111000000011001111111111 ?$
#51
b11111111111100000001100111111111 ?$
#52
b11111111111110000000110011111111 ?$
1g(
#53
b11111111111111000000011001111111 ?$
0g(
#54
b11111111111111100000001100111111 ?$
#55
b11111111111111110000000110011111 ?$
#56
b11111111111111111000000011001111 ?$
#57
b11111111111111111100000001100111 ?$
#58
b11111111111111111110000000110011 ?$
#59
b11111111111111111111000000011001 ?$
#60
b11111111111111111111100000001100 ?$
b11111111111111111111100000001100 _$
1F%
11'
b0 3'
1<'
1g(
#61
b1000001110001100011 G%
1g%
0g(
b1000001110001100011 p(
#62
b1 V
b11111111111111111111100011000000 _$
b1100 A%
1E%
0F%
01'
b11 3'
0<'
b10000 `(
b11000000 h(
#63
0g%
b11100000 h(
b0 p(
#64
b11110000 h(
#65
1T#
b1111111111111111111110001100000 _$
b1111111111111111000000000000000 !%
b10 A%
b1 3'
b0 h(
#66
b111111111111111111111000110000 _$
b111111111111111100000000000000 !%
b11 A%
b0 3'
b1111100 h(
#67
b11111111111111111111100011000 _$
b11111111111111110000000000000 !%
b111110 h(
#68
b10 I
b10 ,#
b101100000001000000000000010000000000 .#
b10001111111111111111111110001100 _$
b1111111111111111000000000000 !%
b10 3'
b11111 h(
#69
b11000111111111111111111111000100 _$
b111111111111111100000000000 !%
b11 3'
b1111 h(
#70
b1100011111111111111111111100000 _$
b11111111111111110000000000 !%
b111 h(
#71
b110001111111111111111111110000 _$
b1111111111111111000000000 !%
b11 h(
#72
1N
b11000111111111111111111111000 _$
b111111111111111100000000 !%
b1 h(
#73
0N
b1100011111111111111111111100 _$
b11111111111111110000000 !%
b0 h(
#74
b110001111111111111111111100 _$
b1111111111111111000000 !%
#75
b11000111111111111111111100 _$
b111111111111111100000 !%
#76
b1100011111111111111111100 _$
b11111111111111110000 !%
#77
b110001111111111111111100 _$
b1111111111111111000 !%
#78
b11000111111111111111100 _$
b111111111111111100 !%
#79
b1100011111111111111100 _$
b11111111111111110 !%
#80
b110001111111111111100 _$
b1111111111111111 !%
#81
b11000111111111111100 _$
b111111111111111 !%
#82
b1100011111111111100 _$
b11111111111111 !%
#83
b110001111111111100 _$
b1111111111111 !%
#84
b11000111111111100 _$
b111111111111 !%
#85
b1100011111111100 _$
b11111111111 !%
#86
b110001111111100 _$
b1111111111 !%
#87
b11000111111100 _$
b111111111 !%
#88
b1100011111100 _$
b11111111 !%
#89
b110001111100 _$
b1111111 !%
b1 3'
#90
b11000111100 _$
b111111 !%
b0 3'
#91
b1100011100 _$
b11111 !%
#92
b110001100 _$
b1111 !%
b10 3'
#93
b11000100 _$
b111 !%
b11 3'
#94
b1100000 _$
b11 !%
b1 3'
#95
b110000 _$
b1 !%
b0 3'
#96
b11000 _$
b0 !%
b11111110011100110001101011100011 p(
#97
b111001110110011 p(
#98
b1111111111111111111110000000110 ?$
b1100 _$
#99
b111111111111111111111000000011 ?$
b100 _$
b1100 A%
b1010010011 p(
#100
b11111111111111111111100000001 ?$
b0 _$
b1000 A%
b1010000010100010011 p(
#101
b1111111111111111111110000000 ?$
b10 A%
b1000000000000000000010100000000 p(
#102
b10000111111111111111111111000000 ?$
b11 A%
#103
b1000011111111111111111111100000 ?$
#104
b100001111111111111111111110000 ?$
#105
1N
b10000111111111111111111111000 ?$
#106
0N
b1000011111111111111111111100 ?$
#107
b100001111111111111111111110 ?$
#108
b10000111111111111111111111 ?$
#109
b10000001000011111111111111111111 ?$
#110
b11000000100001111111111111111111 ?$
#111
b11100000010000111111111111111111 ?$
#112
b11110000001000011111111111111111 ?$
#113
b11111000000100001111111111111111 ?$
#114
b11111100000010000111111111111111 ?$
#115
b11111110000001000011111111111111 ?$
#116
b11111111000000100001111111111111 ?$
#117
b11111111100000010000111111111111 ?$
#118
b11111111110000001000011111111111 ?$
#119
b11111111111000000100001111111111 ?$
#120
b11111111111100000010000111111111 ?$
#121
b11111111111110000001000011111111 ?$
#122
b11111111111111000000100001111111 ?$
#123
b11111111111111100000010000111111 ?$
#124
b11111111111111110000001000011111 ?$
#125
b11111111111111111000000100001111 ?$
#126
b11111111111111111100000010000111 ?$
#127
b11111111111111111110000001000011 ?$
#128
b11111111111111111111000000100001 ?$
#129
b11111111111111111111100000010000 ?$
b11111111111111111111100000010000 _$
0E%
1F%
11'
1<'
#130
b10001100000100000100010000000011 G%
1g%
b10001100000100000100010000000011 p(
#131
b0 V
b0 _$
b1 A%
0F%
01'
0<'
b10101 `(
#132
0g%
b1000000000000000000010100000000 p(
#134
b10000000000000000000000000000000 _$
b10000000000000000000000000000000 !%
b100 A%
#135
b1000000000000000000000000000000 _$
b1000000000000000000000000000000 !%
b10 A%
#136
b100000000000000000000000000000 _$
b100000000000000000000000000000 !%
#137
b10000000000000000000000000000 _$
b10000000000000000000000000000 !%
#138
b1000000000000000000000000000 _$
b1000000000000000000000000000 !%
#139
b100000000000000000000000000 _$
b100000000000000000000000000 !%
#140
b10000010000000000000000000000000 _$
b10000010000000000000000000000000 !%
#141
1N
b11000001000000000000000000000000 _$
b11000001000000000000000000000000 !%
#142
0N
b1100000100000000000000000000000 _$
b1100000100000000000000000000000 !%
#143
b110000010000000000000000000000 _$
b110000010000000000000000000000 !%
#144
b11000001000000000000000000000 _$
b11000001000000000000000000000 !%
#145
b10001100000100000000000000000000 _$
b10001100000100000000000000000000 !%
#146
b11000110000010000000000000000000 _$
b11000110000010000000000000000000 !%
#147
b11100011000001000000000000000000 _$
b11100011000001000000000000000000 !%
#148
b11110001100000100000000000000000 _$
b11110001100000100000000000000000 !%
#149
b11111000110000010000000000000000 _$
b11111000110000010000000000000000 !%
#150
b11111100011000001000000000000000 _$
b11111100011000001000000000000000 !%
#151
b11111110001100000100000000000000 _$
b11111110001100000100000000000000 !%
#152
b11111111000110000010000000000000 _$
b11111111000110000010000000000000 !%
#153
b11111111100011000001000000000000 _$
b11111111100011000001000000000000 !%
#154
b11111111110001100000100000000000 _$
b11111111110001100000100000000000 !%
b0 p(
#155
b11111111111000110000010000000000 _$
b11111111111000110000010000000000 !%
#156
b11111111111100011000001000000000 _$
b11111111111100011000001000000000 !%
#157
b11111111111110001100000100000000 _$
b11111111111110001100000100000000 !%
#158
b11111111111111000110000010000000 _$
b10 3'
#159
b11111111111111100011000001000000 _$
b1 3'
#160
b11111111111111110001100000100000 _$
b0 3'
#161
b11111111111111111000110000010000 _$
#162
b11111111111111111100011000001000 _$
#163
b11111111111111111110001100000100 _$
#164
b11111111111111111111000110000000 _$
b10 3'
#165
1V#
b11111111111111111111100011000000 _$
1F%
11'
b11 3'
#166
0T#
b0 G%
1g%
#167
b0 !%
0F%
01'
b11000000 h(
#168
1O
b1111111111111111111110000001000 ?$
b10000000000000000000000000000000 !%
0g%
b1100000 h(
#169
b111111111111111111111000000100 ?$
b11000000000000000000000000000000 !%
b110000 h(
#170
b10011111111111111111111100000010 ?$
b11100000000000000000000000000000 !%
b11000 h(
#171
b1001111111111111111111110000001 ?$
b11110000000000000000000000000000 !%
b1100 h(
#172
b10100111111111111111111111000000 ?$
b11111000000000000000000000000000 !%
b110 h(
#173
b1010011111111111111111111100000 ?$
b11111100000000000000000000000000 !%
b11 h(
#174
b101001111111111111111111110000 ?$
b11111110000000000000000000000000 !%
b1 h(
#175
1N
b10100111111111111111111111000 ?$
b11111111000000000000000000000000 !%
1g(
b0 h(
#176
0N
b1010011111111111111111111100 ?$
b11111111100000000000000000000000 !%
0g(
#177
b101001111111111111111111110 ?$
b11111111110000000000000000000000 !%
#178
b10100111111111111111111111 ?$
b11111111111000000000000000000000 !%
#179
b10000001010011111111111111111111 ?$
b11111111111100000000000000000000 !%
#180
b11000000101001111111111111111111 ?$
b11111111111110000000000000000000 !%
#181
b11100000010100111111111111111111 ?$
b11111111111111000000000000000000 !%
#182
b11110000001010011111111111111111 ?$
b11111111111111100000000000000000 !%
#183
b11111000000101001111111111111111 ?$
b11111111111111110000000000000000 !%
1g(
#184
b11111100000010100111111111111111 ?$
b11111111111111111000000000000000 !%
0g(
#185
b11111110000001010011111111111111 ?$
b11111111111111111100000000000000 !%
#186
b11111111000000101001111111111111 ?$
b11111111111111111110000000000000 !%
#187
b11111111100000010100111111111111 ?$
b11111111111111111111000000000000 !%
#188
b11111111110000001010011111111111 ?$
b11111111111111111111100000000000 !%
#189
b11111111111000000101001111111111 ?$
b11111111111111111111110000000000 !%
#190
b11111111111100000010100111111111 ?$
b11111111111111111111111000000000 !%
#191
b11111111111110000001010011111111 ?$
b11111111111111111111111100000000 !%
1g(
#192
b11111111111111000000101001111111 ?$
0g(
#193
b11111111111111100000010100111111 ?$
#194
b11111111111111110000001010011111 ?$
#195
b11111111111111111000000101001111 ?$
#196
b11111111111111111100000010100111 ?$
#197
b11111111111111111110000001010011 ?$
#198
b11111111111111111111000000101001 ?$
#199
b11111111111111111111100000010100 ?$
b11111111111111111111100000010100 _$
1F%
11'
b0 3'
1<'
1g(
#200
b11111110000001000000100011100011 G%
1g%
0g(
b11111110000001000000100011100011 p(
#201
b11111111111111111111100011000000 _$
1E%
0F%
01'
b11 3'
0<'
b10100 `(
b11000000 h(
#202
0g%
b11100000 h(
b0 p(
#203
b11110000 h(
#204
b1111111111111111111110001100000 _$
b1111111111111111111111110000000 !%
b1 A%
b1 3'
b0 h(
#205
b111111111111111111111000110000 _$
b111111111111111111111111000000 !%
b0 3'
b1111100 h(
#206
b11111111111111111111100011000 _$
b11111111111111111111111100000 !%
b111110 h(
#207
b1111111111111111111110001100 _$
b1111111111111111111111110000 !%
b10 3'
b11111 h(
#208
b10000111111111111111111111000100 _$
b111111111111111111111111000 !%
b11 3'
b1111 h(
#209
b11000011111111111111111111100000 _$
b11111111111111111111111100 !%
b111 h(
#210
b11100001111111111111111111110000 _$
b1111111111111111111111110 !%
b11 h(
#211
1N
b11110000111111111111111111111000 _$
b111111111111111111111111 !%
b1 h(
#212
0N
b11111000011111111111111111111100 _$
b11111111111111111111111 !%
b0 h(
#213
b11111100001111111111111111111100 _$
b1111111111111111111111 !%
#214
b11111110000111111111111111111100 _$
b111111111111111111111 !%
#215
b11111111000011111111111111111100 _$
b11111111111111111111 !%
#216
b11111111100001111111111111111100 _$
b1111111111111111111 !%
#217
b11111111110000111111111111111100 _$
b111111111111111111 !%
#218
b11111111111000011111111111111100 _$
b11111111111111111 !%
#219
b11111111111100001111111111111100 _$
b1111111111111111 !%
#220
b11111111111110000111111111111100 _$
b111111111111111 !%
#221
b11111111111111000011111111111100 _$
b11111111111111 !%
#222
b11111111111111100001111111111100 _$
b1111111111111 !%
#223
b11111111111111110000111111111100 _$
b111111111111 !%
#224
b11111111111111111000011111111100 _$
b11111111111 !%
#225
b11111111111111111100001111111100 _$
b1111111111 !%
#226
b11111111111111111110000111111100 _$
b111111111 !%
#227
b11111111111111111111000011111100 _$
b11111111 !%
#228
b11111111111111111111100001111100 _$
b1111111 !%
b1 3'
#229
b11111111111111111111110000111100 _$
b111111 !%
b0 3'
#230
b11111111111111111111111000011100 _$
b11111 !%
#231
b11111111111111111111111100001100 _$
b1111 !%
#232
b11111111111111111111111110000100 _$
b111 !%
b10 3'
#233
b11111111111111111111111111000000 _$
b11 !%
b11 3'
#234
b11111111111111111111111111100000 _$
b1 !%
#235
b11111111111111111111111111110000 _$
b0 !%
#237
b1111111111111111111110000001010 ?$
b11111111111111111111111111111000 _$
#238
b111111111111111111111000000101 ?$
b11111111111111111111111111111100 _$
#239
b10011111111111111111111100000010 ?$
b100 A%
#240
b1001111111111111111111110000001 ?$
b1000 A%
#241
b100111111111111111111111000000 ?$
#242
b10011111111111111111111100000 ?$
#243
b1001111111111111111111110000 ?$
#244
1N
b100111111111111111111111000 ?$
#245
0N
b10011111111111111111111100 ?$
#246
b1001111111111111111111110 ?$
#247
b100111111111111111111111 ?$
#248
b10000000010011111111111111111111 ?$
#249
b11000000001001111111111111111111 ?$
#250
b11100000000100111111111111111111 ?$
#251
b11110000000010011111111111111111 ?$
#252
b11111000000001001111111111111111 ?$
#253
b11111100000000100111111111111111 ?$
#254
b11111110000000010011111111111111 ?$
#255
b11111111000000001001111111111111 ?$
#256
b11111111100000000100111111111111 ?$
#257
b11111111110000000010011111111111 ?$
#258
b11111111111000000001001111111111 ?$
#259
b11111111111100000000100111111111 ?$
#260
b11111111111110000000010011111111 ?$
#261
b11111111111111000000001001111111 ?$
#262
b11111111111111100000000100111111 ?$
#263
b11111111111111110000000010011111 ?$
#264
b11111111111111111000000001001111 ?$
#265
1T#
b11111111111111111100000000100111 ?$
#266
b11111111111111111110000000010011 ?$
#267
b11111111111111111111000000001001 ?$
#268
b1 I
b1 ,#
b10010110000000100000000000001000000000 .#
b11111111111111111111100000000100 ?$
b11111111111111111111100000000100 _$
0E%
1F%
11'
b0 3'
1<'
#269
b10001100000000000000000000100011 G%
1g%
b10001100000000000000000000100011 p(
#270
b11111111111111111111111111111100 _$
1E%
0F%
01'
b11 3'
0<'
#271
0g%
b0 p(
#273
b1111111111111111111111111111100 _$
b10 A%
#274
b111111111111111111111111111100 _$
b1 A%
#275
b11111111111111111111111111100 _$
#276
b1111111111111111111111111100 _$
#277
b111111111111111111111111100 _$
#278
b11111111111111111111111100 _$
#279
b10000001111111111111111111111100 _$
#280
1N
b11000000111111111111111111111100 _$
#281
0N
b1100000011111111111111111111100 _$
#282
b110000001111111111111111111100 _$
#283
b11000000111111111111111111100 _$
#284
b10001100000011111111111111111100 _$
#285
b11000110000001111111111111111100 _$
#286
b11100011000000111111111111111100 _$
#287
b11110001100000011111111111111100 _$
#288
b11111000110000001111111111111100 _$
#289
b11111100011000000111111111111100 _$
#290
b11111110001100000011111111111100 _$
#291
b11111111000110000001111111111100 _$
#292
b11111111100011000000111111111100 _$
#293
b11111111110001100000011111111100 _$
#294
b11111111111000110000001111111100 _$
#295
b11111111111100011000000111111100 _$
#296
b11111111111110001100000011111100 _$
#297
b11111111111111000110000001111100 _$
b1 3'
#298
b11111111111111100011000000111100 _$
b0 3'
#299
b11111111111111110001100000011100 _$
#300
b11111111111111111000110000001100 _$
#301
b11111111111111111100011000000100 _$
#302
b11111111111111111110001100000000 _$
#303
b11111111111111111111000110000000 _$
b10 3'
#304
b11111111111111111111100011000000 _$
1F%
12'
b11 3'
#305
1g%
b10001100000000000000000000100011 p(
#306
b10001100000000000000000000100011 !%
0F%
02'
#307
b1111111111111111111110000000010 ?$
b1000110000000000000000000010001 !%
0g%
b10000000 h(
b0 p(
#308
b111111111111111111111000000001 ?$
b100011000000000000000000001000 !%
b11000000 h(
#309
b11111111111111111111100000000 ?$
b10001100000000000000000000100 !%
b1100000 h(
#310
b10001111111111111111111110000000 ?$
b1000110000000000000000000010 !%
b110000 h(
#311
b1000111111111111111111111000000 ?$
b100011000000000000000000001 !%
b11000 h(
#312
b100011111111111111111111100000 ?$
b10001100000000000000000000 !%
b10001100 h(
#313
b10001111111111111111111110000 ?$
b1000110000000000000000000 !%
b1000110 h(
#314
1N
b1000111111111111111111111000 ?$
b100011000000000000000000 !%
b100011 h(
#315
0N
b100011111111111111111111100 ?$
b10001100000000000000000 !%
b0 h(
#316
b10001111111111111111111110 ?$
b1000110000000000000000 !%
b1000 h(
#317
b1000111111111111111111111 ?$
b100011000000000000000 !%
b100 h(
#318
b10000000100011111111111111111111 ?$
b10001100000000000000 !%
b10 h(
#319
b11000000010001111111111111111111 ?$
b1000110000000000000 !%
b1 h(
#320
b11100000001000111111111111111111 ?$
b100011000000000000 !%
b0 h(
#321
b11110000000100011111111111111111 ?$
b10001100000000000 !%
#322
b11111000000010001111111111111111 ?$
b1000110000000000 !%
#323
b11111100000001000111111111111111 ?$
b100011000000000 !%
#324
b11111110000000100011111111111111 ?$
b10001100000000 !%
#325
b11111111000000010001111111111111 ?$
b1000110000000 !%
#326
b11111111100000001000111111111111 ?$
b100011000000 !%
#327
b11111111110000000100011111111111 ?$
b10001100000 !%
#328
b11111111111000000010001111111111 ?$
b1000110000 !%
#329
b11111111111100000001000111111111 ?$
b100011000 !%
#330
b11111111111110000000100011111111 ?$
b10001100 !%
#331
b11111111111111000000010001111111 ?$
b1000110 !%
#332
b11111111111111100000001000111111 ?$
b100011 !%
#333
b11111111111111110000000100011111 ?$
b10001 !%
#334
b11111111111111111000000010001111 ?$
b1000 !%
#335
b11111111111111111100000001000111 ?$
b100 !%
#336
b11111111111111111110000000100011 ?$
b10 !%
#337
b11111111111111111111000000010001 ?$
b1 !%
#338
b11111111111111111111100000001000 ?$
b11111111111111111111100000001000 _$
b0 !%
0E%
1F%
11'
b0 3'
1<'
#339
b10001100001000000100010000000011 G%
1g%
b10001100001000000100010000000011 p(
#340
b11111111111111111111100011000000 _$
0F%
01'
b11 3'
0<'
b10110 `(
#341
0g%
b0 p(
#342
1L
#343
b1111111111111111111110001100000 _$
b1 3'
#344
b10111111111111111111111000110000 _$
b10000000000000000000000000000000 !%
b100 A%
b0 3'
#345
b1011111111111111111111100011000 _$
b1000000000000000000000000000000 !%
#346
0L
b101111111111111111111110001100 _$
b100000000000000000000000000000 !%
b10 3'
#347
b10111111111111111111111000100 _$
b10000000000000000000000000000 !%
b11 3'
#348
b1011111111111111111111100000 _$
b1000000000000000000000000000 !%
#349
b10000101111111111111111111110000 _$
b10000100000000000000000000000000 !%
#350
1N
b11000010111111111111111111111000 _$
b11000010000000000000000000000000 !%
#351
0N
b1100001011111111111111111111100 _$
b1100001000000000000000000000000 !%
b1111 h(
#352
b110000101111111111111111111100 _$
b110000100000000000000000000000 !%
b0 h(
#353
b11000010111111111111111111100 _$
b11000010000000000000000000000 !%
#354
b10001100001011111111111111111100 _$
b10001100001000000000000000000000 !%
#355
b11000110000101111111111111111100 _$
b11000110000100000000000000000000 !%
#356
b11100011000010111111111111111100 _$
b11100011000010000000000000000000 !%
#357
b11110001100001011111111111111100 _$
b11110001100001000000000000000000 !%
#358
b11111000110000101111111111111100 _$
b11111000110000100000000000000000 !%
#359
b11111100011000010111111111111100 _$
#360
b11111110001100001011111111111100 _$
#361
b11111111000110000101111111111100 _$
#362
b11111111100011000010111111111100 _$
#363
b11111111110001100001011111111100 _$
#364
b11111111111000110000101111111100 _$
#365
b11111111111100011000010111111100 _$
#366
0T#
b11111111111110001100001011111100 _$
#367
b11111111111111000110000101111100 _$
b1 3'
#368
b11111111111111100011000010111100 _$
b10 3'
#369
1X#
b11111111111111110001100001011100 _$
b1 3'
#370
b11111111111111111000110000101100 _$
b0 3'
#371
b11111111111111111100011000010100 _$
#372
b11111111111111111110001100001000 _$
#373
b11111111111111111111000110000100 _$
b10 3'
#374
b11111111111111111111100011000000 _$
1F%
11'
b11 3'
#375
b0 G%
1g%
#376
1L
b0 !%
0F%
01'
#377
b1111111111111111111110000000100 ?$
b10000000000000000000000000000000 !%
0g%
#378
b111111111111111111111000000010 ?$
b11000000000000000000000000000000 !%
#379
b10011111111111111111111100000001 ?$
b11100000000000000000000000000000 !%
#380
0L
b11001111111111111111111110000000 ?$
b11110000000000000000000000000000 !%
#381
b1100111111111111111111111000000 ?$
b11111000000000000000000000000000 !%
#382
b110011111111111111111111100000 ?$
b11111100000000000000000000000000 !%
#383
b11001111111111111111111110000 ?$
b11111110000000000000000000000000 !%
#384
1N
b1100111111111111111111111000 ?$
b11111111000000000000000000000000 !%
1g(
#385
0N
b110011111111111111111111100 ?$
b11111111100000000000000000000000 !%
0g(
b1111 h(
#386
b11001111111111111111111110 ?$
b11111111110000000000000000000000 !%
b0 h(
#387
b1100111111111111111111111 ?$
b11111111111000000000000000000000 !%
#388
b10000000110011111111111111111111 ?$
b11111111111100000000000000000000 !%
#389
b11000000011001111111111111111111 ?$
b11111111111110000000000000000000 !%
#390
b11100000001100111111111111111111 ?$
b11111111111111000000000000000000 !%
#391
b11110000000110011111111111111111 ?$
b11111111111111100000000000000000 !%
#392
b11111000000011001111111111111111 ?$
b11111111111111110000000000000000 !%
1g(
#393
b11111100000001100111111111111111 ?$
0g(
#394
b11111110000000110011111111111111 ?$
#395
b11111111000000011001111111111111 ?$
#396
b11111111100000001100111111111111 ?$
#397
b11111111110000000110011111111111 ?$
#398
b11111111111000000011001111111111 ?$
#399
b11111111111100000001100111111111 ?$
#400
b11111111111110000000110011111111 ?$
1g(
#401
b11111111111111000000011001111111 ?$
0g(
#402
b11111111111111100000001100111111 ?$
