build/servant_1.2.1/nexys_a7-vivado/.Xil/Vivado-5083-binhkieudo-hotswap/hw_ila_data_1/zip_work/waveform.vcd
$date
        2023-Aug-15 04:04:47
$end
$version
        Vivado v2022.2 (64-bit)
$end
$timescale
        1ps
$end
$scope module dut $end
$var reg 3 " nolabel_line55/my_debugger/dm_ctrl_err [2:0] $end
$var reg 1 % nolabel_line55/my_debugger/dm_ctrl_busy $end
$var reg 1 & nolabel_line55/my_debugger/jtag_tdi $end
$var reg 1 ' nolabel_line55/my_debugger/jtag_tdo $end
$var reg 1 ( nolabel_line55/my_debugger/jtag_tms $end
$var reg 1 ) nolabel_line55/my_debugger/dmi_req_valid $end
$var reg 1 * nolabel_line55/my_debugger/dmi_req_ready $end
$var reg 6 + nolabel_line55/my_debugger/dmi_req_address [5:0] $end
$var reg 32 1 nolabel_line55/my_debugger/dmi_req_data [31:0] $end
$var reg 2 Q nolabel_line55/my_debugger/dmi_req_op [1:0] $end
$var reg 2 S nolabel_line55/my_debugger/dm_maddr [1:0] $end
$var reg 1 U nolabel_line55/my_debugger/dm_rden $end
$var reg 1 V nolabel_line55/my_debugger/dm_wren $end
$var reg 32 W nolabel_line55/my_debugger/ibus_adr [31:0] $end
$var reg 1 w nolabel_line55/my_debugger/ibus_cyc $end
$var reg 32 x nolabel_line55/my_debugger/ibus_rdt [31:0] $end
$var reg 1 :" nolabel_line55/my_debugger/ibus_ack $end
$var reg 1 ;" nolabel_line55/my_debugger/dbg_dcsr_step $end
$var reg 1 <" nolabel_line55/my_debugger/dbg_dcsr_en $end
$var reg 1 =" nolabel_line55/my_debugger/dbg_cpu_process $end
$var reg 1 >" nolabel_line55/my_debugger/dbg_cpu_reset $end
$var reg 1 ?" nolabel_line55/my_debugger/dbg_cpu_halt_req $end
$var reg 1 @" nolabel_line55/my_debugger/dbg_cpu_halt_ack $end
$var reg 1 A" nolabel_line55/my_debugger/dbg_cpu_resume_req $end
$var reg 1 B" nolabel_line55/my_debugger/dbg_cpu_resume_ack $end
$var reg 1 C" nolabel_line55/my_debugger/dbg_cpu_execute_req $end
$var reg 1 D" nolabel_line55/my_debugger/dbg_cpu_execute_ack $end
$var reg 32 E" nolabel_line55/my_debugger/dm_probuf0 [31:0] $end
$var reg 32 e" nolabel_line55/my_debugger/dm_probuf1 [31:0] $end
$var reg 32 '# nolabel_line55/my_debugger/dm_probuf2 [31:0] $end
$var reg 32 G# nolabel_line55/my_debugger/dm_probuf3 [31:0] $end
$var reg 1 g# nolabel_line55/my_debugger/dmi_rsp_valid $end
$var reg 1 h# nolabel_line55/my_debugger/dmi_rsp_ready $end
$var reg 32 i# nolabel_line55/my_debugger/dmi_rsp_data [31:0] $end
$var reg 2 +$ nolabel_line55/my_debugger/dmi_rsp_op [1:0] $end
$var reg 32 -$ nolabel_line55/my_debugger/execute_req_cnt [31:0] $end
$var reg 32 M$ nolabel_line55/my_debugger/dm_databuf [31:0] $end
$var reg 32 m$ nolabel_line55/my_debugger/sbus_adr [31:0] $end
$var reg 32 /% nolabel_line55/my_debugger/sbus_dat [31:0] $end
$var reg 4 O% nolabel_line55/my_debugger/sbus_sel [3:0] $end
$var reg 1 S% nolabel_line55/my_debugger/sbus_we $end
$var reg 1 T% nolabel_line55/my_debugger/sbus_cyc $end
$var reg 32 U% nolabel_line55/my_debugger/sbus_rdt [31:0] $end
$var reg 1 u% nolabel_line55/my_debugger/sbus_ack $end
$var reg 1 v% nolabel_line55/my_debugger/dbg_misa_en $end
$var reg 7 w% nolabel_line55/my_debugger/rf_waddr [6:0] $end
$var reg 1 ~% nolabel_line55/my_debugger/rf_we $end
$var reg 8 !& nolabel_line55/my_debugger/rf_wdata [7:0] $end
$var reg 1 )& nolabel_line55/my_debugger/rf_w1wren $end
$var reg 1 *& nolabel_line55/my_debugger/dbg_autoexec_rd $end
$var reg 1 +& nolabel_line55/my_debugger/dbg_autoexec_wr $end
$var reg 3 ,& nolabel_line55/my_debugger/dm_ctrl_state [2:0] $end
$var reg 6 /& nolabel_line55/my_debugger/rf_w1addr [5:0] $end
$var reg 7 5& nolabel_line55/my_debugger/rf_raddr [6:0] $end
$var reg 8 <& nolabel_line55/my_debugger/rf_rdata [7:0] $end
$var reg 1 D& nolabel_line55/my_debugger/rf_re $end
$var reg 6 E& nolabel_line55/my_debugger/rf_w0addr [5:0] $end
$var reg 1 K& nolabel_line55/my_debugger/rf_w0wren $end
$var reg 6 L& nolabel_line55/my_debugger/rf_r0addr [5:0] $end
$var reg 6 R& nolabel_line55/my_debugger/rf_r1addr [5:0] $end
$var reg 32 X& nolabel_line55/my_debugger/mem_adr [31:0] $end
$var reg 32 x& nolabel_line55/my_debugger/mem_dat [31:0] $end
$var reg 1 :' nolabel_line55/my_debugger/mem_cyc $end
$var reg 1 ;' nolabel_line55/my_debugger/mem_we $end
$var reg 1 <' _TRIGGER $end
$var reg 1 =' _WINDOW $end
$var reg 1 >' _GAP $end
$upscope $end
$enddefinitions $end
#0
$dumpvars
b0 "
0%
0&
0'
0(
0)
1*
b10110 +
b0 1
b0 Q
b11 S
0U
0V
b11111111111111111000000011001111 W
0w
b0 x
0:"
1;"
0<"
1="
0>"
0?"
0@"
0A"
1B"
0C"
0D"
b10001000000000000010010000000011 E"
b10011 e"
b10011 '#
b100000000000001110011 G#
0g#
0h#
b10000000000000100000000001 i#
b0 +$
b0 -$
b0 M$
b11111111111111111111100011000000 m$
b11111111111111110000000000000000 /%
b100 O%
0S%
0T%
b0 U%
0u%
0v%
b100011 w%
0~%
b0 !&
0)&
0*&
0+&
b0 ,&
b10110 /&
b11 5&
b0 <&
0D&
b1000 E&
1K&
b0 L&
b1111 R&
b11111111111111111111100011000000 X&
b11111111111111110000000000000000 x&
0:'
0;'
0<'
1='
0>'
$end
#1
b11111111111111111100000001100111 W
#2
b11111111111111111110000000110011 W
b0 5&
#3
b11111111111111111111000000011001 W
b111100 5&
#4
b0 S
1U
b11111111111111111111100000001100 W
1w
b11111111111111111111100000001100 m$
1T%
1~%
b0 5&
0K&
b11111111111111111111100000001100 X&
#5
b1000001110001100011 x
1:"
b1000001110001100011 U%
1u%
b1011011 w%
0~%
#6
b11 S
0U
0w
0:"
b11111111111111111111100011000000 m$
b1100 O%
1S%
0T%
b1100011 w%
b11000000 !&
b10000 /&
b100000 5&
1D&
b11000 E&
b1000 L&
b0 R&
b11111111111111111111100011000000 X&
1;'
#7
b0 x
0u%
b11100000 !&
b0 5&
#8
b11110000 !&
b100000 5&
0D&
#9
b1 S
b1111111111111111111110001100000 m$
b1111111111111111000000000000000 /%
b10 O%
b1000011 w%
b0 !&
b1100 E&
b1111111111111111111110001100000 X&
b1111111111111111000000000000000 x&
#10
b0 S
b111111111111111111111000110000 m$
b111111111111111100000000000000 /%
b11 O%
b11000 w%
b1111100 !&
b110 E&
b111111111111111111111000110000 X&
b111111111111111100000000000000 x&
#11
b11111111111111111111100011000 m$
b11111111111111110000000000000 /%
b1100 w%
b111110 !&
b11 E&
b11111111111111111111100011000 X&
b11111111111111110000000000000 x&
#12
b10 S
b10001111111111111111111110001100 m$
b1111111111111111000000000000 /%
b100 w%
b11111 !&
b1 E&
b10001111111111111111111110001100 X&
b1111111111111111000000000000 x&
#13
b11 S
b11000111111111111111111111000100 m$
b111111111111111100000000000 /%
b0 w%
b1111 !&
b0 E&
b11000111111111111111111111000100 X&
b111111111111111100000000000 x&
#14
b1100011111111111111111111100000 m$
b11111111111111110000000000 /%
b111 !&
b100001 5&
1D&
b1100011111111111111111111100000 X&
b11111111111111110000000000 x&
#15
b110001111111111111111111110000 m$
b1111111111111111000000000 /%
b11 !&
b1 5&
b110001111111111111111111110000 X&
b1111111111111111000000000 x&
#16
b11000111111111111111111111000 m$
b111111111111111100000000 /%
b1 !&
b100001 5&
0D&
b11000111111111111111111111000 X&
b111111111111111100000000 x&
#17
b1100011111111111111111111100 m$
b11111111111111110000000 /%
b1000000 w%
b0 !&
b1100011111111111111111111100 X&
b11111111111111110000000 x&
#18
b110001111111111111111111100 m$
b1111111111111111000000 /%
b1 w%
b110001111111111111111111100 X&
b1111111111111111000000 x&
#19
b11000111111111111111111100 m$
b111111111111111100000 /%
b11000111111111111111111100 X&
b111111111111111100000 x&
#20
b1100011111111111111111100 m$
b11111111111111110000 /%
b1100011111111111111111100 X&
b11111111111111110000 x&
#21
b110001111111111111111100 m$
b1111111111111111000 /%
b110001111111111111111100 X&
b1111111111111111000 x&
#22
b11000111111111111111100 m$
b111111111111111100 /%
b100010 5&
1D&
b11000111111111111111100 X&
b111111111111111100 x&
#23
b1100011111111111111100 m$
b11111111111111110 /%
b10 5&
b1100011111111111111100 X&
b11111111111111110 x&
#24
b110001111111111111100 m$
b1111111111111111 /%
b100010 5&
0D&
b110001111111111111100 X&
b1111111111111111 x&
#25
b11000111111111111100 m$
b111111111111111 /%
b1000001 w%
b11000111111111111100 X&
b111111111111111 x&
#26
b1100011111111111100 m$
b11111111111111 /%
b10 w%
b1100011111111111100 X&
b11111111111111 x&
#27
b110001111111111100 m$
b1111111111111 /%
b110001111111111100 X&
b1111111111111 x&
#28
b11000111111111100 m$
b111111111111 /%
b11000111111111100 X&
b111111111111 x&
#29
b1100011111111100 m$
b11111111111 /%
b1100011111111100 X&
b11111111111 x&
#30
b110001111111100 m$
b1111111111 /%
b100011 5&
1D&
b110001111111100 X&
b1111111111 x&
#31
b11000111111100 m$
b111111111 /%
b11 5&
b11000111111100 X&
b111111111 x&
#32
b1100011111100 m$
b11111111 /%
b100011 5&
0D&
b1100011111100 X&
b11111111 x&
#33
b1 S
b110001111100 m$
b1111111 /%
b1000010 w%
b110001111100 X&
b1111111 x&
#34
b0 S
b11000111100 m$
b111111 /%
b11 w%
b11000111100 X&
b111111 x&
#35
b1100011100 m$
b11111 /%
b1100011100 X&
b11111 x&
#36
b10 S
b110001100 m$
b1111 /%
b110001100 X&
b1111 x&
#37
b11 S
b11000100 m$
b111 /%
b11000100 X&
b111 x&
#38
b1 S
b1100000 m$
b11 /%
b100000 5&
b1100000 X&
b11 x&
#39
b0 S
b110000 m$
b1 /%
b0 5&
b110000 X&
b1 x&
#40
b11111110011100110001101011100011 x
b11000 m$
b0 /%
b100000 5&
b11000 X&
b0 x&
#41
b111001110110011 x
b1000011 w%
#42
b1111111111111111111110000000110 W
b1100 m$
b11 w%
b1100 X&
#43
b111111111111111111111000000011 W
b1010010011 x
b100 m$
b1100 O%
b0 w%
b100 X&
#44
b11111111111111111111100000001 W
b1010000010100010011 x
b0 m$
b1000 O%
b0 X&
#45
b1111111111111111111110000000 W
b1000000000000000000010100110111 x
b10 O%
#46
b10000111111111111111111111000000 W
b11 O%
#47
b1000011111111111111111111100000 W
b100001 5&
#48
b100001111111111111111111110000 W
b1 5&
#49
b10000111111111111111111111000 W
b100001 5&
#50
b1000011111111111111111111100 W
b1000000 w%
#51
b100001111111111111111111110 W
b1 w%
#52
b10000111111111111111111111 W
#53
b10000001000011111111111111111111 W
#54
b11000000100001111111111111111111 W
#55
b11100000010000111111111111111111 W
b100010 5&
#56
b11110000001000011111111111111111 W
b10 5&
#57
b11111000000100001111111111111111 W
b100010 5&
#58
b11111100000010000111111111111111 W
b1000001 w%
#59
b11111110000001000011111111111111 W
b10 w%
#60
b11111111000000100001111111111111 W
#61
b11111111100000010000111111111111 W
#62
b11111111110000001000011111111111 W
#63
b11111111111000000100001111111111 W
b100011 5&
#64
b11111111111100000010000111111111 W
b11 5&
#65
b11111111111110000001000011111111 W
b100011 5&
#66
b11111111111111000000100001111111 W
b1000010 w%
#67
b11111111111111100000010000111111 W
b11 w%
#68
b11111111111111110000001000011111 W
#69
b11111111111111111000000100001111 W
#70
b11111111111111111100000010000111 W
#71
b11111111111111111110000001000011 W
b100000 5&
#72
b11111111111111111111000000100001 W
b0 5&
#73
1U
b11111111111111111111100000010000 W
1w
b11111111111111111111100000010000 m$
0S%
1T%
b100000 5&
b11111111111111111111100000010000 X&
0;'
#74
b10001100000100000100010000000011 x
1:"
b10001100000100000100010000000011 U%
1u%
b1000011 w%
#75
0U
0w
0:"
b0 m$
b1 O%
0T%
b100011 w%
b10101 /&
b0 5&
1D&
b1000 E&
b0 L&
b1 R&
b0 X&
#76
b1000000000000000000010100110111 x
0u%
b100 5&
#77
b0 5&
0D&
#78
b10000000000000000000000000000000 m$
b10000000000000000000000000000000 /%
b100 O%
b1010111 w%
b0 R&
b10000000000000000000000000000000 X&
b10000000000000000000000000000000 x&
#79
b1000000000000000000000000000000 m$
b1000000000000000000000000000000 /%
b10 O%
b100000 w%
b1000000000000000000000000000000 X&
b1000000000000000000000000000000 x&
#80
b100000000000000000000000000000 m$
b100000000000000000000000000000 /%
b1000 R&
b100000000000000000000000000000 X&
b100000000000000000000000000000 x&
#81
b10000000000000000000000000000 m$
b10000000000000000000000000000 /%
b1100 R&
b10000000000000000000000000000 X&
b10000000000000000000000000000 x&
#82
b1000000000000000000000000000 m$
b1000000000000000000000000000 /%
b110 R&
b1000000000000000000000000000 X&
b1000000000000000000000000000 x&
#83
b100000000000000000000000000 m$
b100000000000000000000000000 /%
b1 5&
1D&
b11 R&
b100000000000000000000000000 X&
b100000000000000000000000000 x&
#84
b10000010000000000000000000000000 m$
b10000010000000000000000000000000 /%
b101 5&
b1 R&
b10000010000000000000000000000000 X&
b10000010000000000000000000000000 x&
#85
b11000001000000000000000000000000 m$
b11000001000000000000000000000000 /%
b1 5&
0D&
b1000 R&
b11000001000000000000000000000000 X&
b11000001000000000000000000000000 x&
#86
b1100000100000000000000000000000 m$
b1100000100000000000000000000000 /%
b1010100 w%
b1100 R&
b1100000100000000000000000000000 X&
b1100000100000000000000000000000 x&
#87
b110000010000000000000000000000 m$
b110000010000000000000000000000 /%
b100001 w%
b1110 R&
b110000010000000000000000000000 X&
b110000010000000000000000000000 x&
#88
b11000001000000000000000000000 m$
b11000001000000000000000000000 /%
b1111 R&
b11000001000000000000000000000 X&
b11000001000000000000000000000 x&
#89
b10001100000100000000000000000000 m$
b10001100000100000000000000000000 /%
b10001100000100000000000000000000 X&
b10001100000100000000000000000000 x&
#90
b11000110000010000000000000000000 m$
b11000110000010000000000000000000 /%
b11000110000010000000000000000000 X&
b11000110000010000000000000000000 x&
#91
b11100011000001000000000000000000 m$
b11100011000001000000000000000000 /%
b10 5&
1D&
b11100011000001000000000000000000 X&
b11100011000001000000000000000000 x&
#92
b11110001100000100000000000000000 m$
b11110001100000100000000000000000 /%
b111110 5&
b11110001100000100000000000000000 X&
b11110001100000100000000000000000 x&
#93
b11111000110000010000000000000000 m$
b11111000110000010000000000000000 /%
b10 5&
0D&
b11111000110000010000000000000000 X&
b11111000110000010000000000000000 x&
#94
b11111100011000001000000000000000 m$
b11111100011000001000000000000000 /%
b1010101 w%
b11111100011000001000000000000000 X&
b11111100011000001000000000000000 x&
#95
b11111110001100000100000000000000 m$
b11111110001100000100000000000000 /%
b100010 w%
b11111110001100000100000000000000 X&
b11111110001100000100000000000000 x&
#96
b11111111000110000010000000000000 m$
b11111111000110000010000000000000 /%
b11111111000110000010000000000000 X&
b11111111000110000010000000000000 x&
#97
b11111111100011000001000000000000 m$
b11111111100011000001000000000000 /%
b11111111100011000001000000000000 X&
b11111111100011000001000000000000 x&
#98
b0 x
b11111111110001100000100000000000 m$
b11111111110001100000100000000000 /%
b11111111110001100000100000000000 X&
b11111111110001100000100000000000 x&
#99
b11111111111000110000010000000000 m$
b11111111111000110000010000000000 /%
b11 5&
1D&
b11111111111000110000010000000000 X&
b11111111111000110000010000000000 x&
#100
b11111111111100011000001000000000 m$
b11111111111100011000001000000000 /%
b111111 5&
b11111111111100011000001000000000 X&
b11111111111100011000001000000000 x&
#101
b11111111111110001100000100000000 m$
b11111111111110001100000100000000 /%
b11 5&
0D&
b11111111111110001100000100000000 X&
b11111111111110001100000100000000 x&
#102
b10 S
b11111111111111000110000010000000 m$
b1010110 w%
b11111111111111000110000010000000 X&
#103
b1 S
b11111111111111100011000001000000 m$
b100011 w%
b11111111111111100011000001000000 X&
#104
b0 S
b11111111111111110001100000100000 m$
b11111111111111110001100000100000 X&
#105
b11111111111111111000110000010000 m$
b11111111111111111000110000010000 X&
#106
b11111111111111111100011000001000 m$
b11111111111111111100011000001000 X&
#107
b11111111111111111110001100000100 m$
b0 5&
b11111111111111111110001100000100 X&
#108
b10 S
b11111111111111111111000110000000 m$
b111100 5&
b11111111111111111111000110000000 X&
#109
b11 S
1U
b11111111111111111111100011000000 m$
1T%
b0 5&
b11111111111111111111100011000000 X&
#110
b0 U%
1u%
b1010111 w%
#111
0U
b0 /%
0T%
b100011 w%
b11000000 !&
1K&
b0 x&
#112
b1111111111111111111110000001000 W
b10000000000000000000000000000000 /%
0u%
b1100000 !&
b10000000000000000000000000000000 x&
#113
b111111111111111111111000000100 W
b11000000000000000000000000000000 /%
b100000 w%
b110000 !&
b11000000000000000000000000000000 x&
#114
b10011111111111111111111100000010 W
b11100000000000000000000000000000 /%
b11000 !&
b11100000000000000000000000000000 x&
#115
b1001111111111111111111110000001 W
b11110000000000000000000000000000 /%
b1100 !&
b11110000000000000000000000000000 x&
#116
b10100111111111111111111111000000 W
b11111000000000000000000000000000 /%
b110 !&
b11111000000000000000000000000000 x&
#117
b1010011111111111111111111100000 W
b11111100000000000000000000000000 /%
b11 !&
b1 5&
b11111100000000000000000000000000 x&
#118
b101001111111111111111111110000 W
b11111110000000000000000000000000 /%
b1 !&
b111101 5&
b11111110000000000000000000000000 x&
#119
b10100111111111111111111111000 W
b11111111000000000000000000000000 /%
1~%
b0 !&
b1 5&
b11111111000000000000000000000000 x&
#120
b1010011111111111111111111100 W
b11111111100000000000000000000000 /%
b1010100 w%
0~%
b11111111100000000000000000000000 x&
#121
b101001111111111111111111110 W
b11111111110000000000000000000000 /%
b100001 w%
b11111111110000000000000000000000 x&
#122
b10100111111111111111111111 W
b11111111111000000000000000000000 /%
b11111111111000000000000000000000 x&
#123
b10000001010011111111111111111111 W
b11111111111100000000000000000000 /%
b11111111111100000000000000000000 x&
#124
b11000000101001111111111111111111 W
b11111111111110000000000000000000 /%
b11111111111110000000000000000000 x&
#125
b11100000010100111111111111111111 W
b11111111111111000000000000000000 /%
b10 5&
b11111111111111000000000000000000 x&
#126
b11110000001010011111111111111111 W
b11111111111111100000000000000000 /%
b111110 5&
b11111111111111100000000000000000 x&
#127
b11111000000101001111111111111111 W
b11111111111111110000000000000000 /%
1~%
b10 5&
b11111111111111110000000000000000 x&
#128
b11111100000010100111111111111111 W
b11111111111111111000000000000000 /%
b1010101 w%
0~%
b11111111111111111000000000000000 x&
#129
b11111110000001010011111111111111 W
b11111111111111111100000000000000 /%
b100010 w%
b11111111111111111100000000000000 x&
#130
b11111111000000101001111111111111 W
b11111111111111111110000000000000 /%
b11111111111111111110000000000000 x&
#131
b11111111100000010100111111111111 W
b11111111111111111111000000000000 /%
b11111111111111111111000000000000 x&
#132
b11111111110000001010011111111111 W
b11111111111111111111100000000000 /%
b11111111111111111111100000000000 x&
#133
b11111111111000000101001111111111 W
b11111111111111111111110000000000 /%
b11 5&
b11111111111111111111110000000000 x&
#134
b11111111111100000010100111111111 W
b11111111111111111111111000000000 /%
b111111 5&
b11111111111111111111111000000000 x&
#135
b11111111111110000001010011111111 W
b11111111111111111111111100000000 /%
1~%
b11 5&
b11111111111111111111111100000000 x&
#136
b11111111111111000000101001111111 W
b1010110 w%
0~%
#137
b11111111111111100000010100111111 W
b100011 w%
#138
b11111111111111110000001010011111 W
#139
b11111111111111111000000101001111 W
#140
b11111111111111111100000010100111 W
#141
b11111111111111111110000001010011 W
b0 5&
#142
b11111111111111111111000000101001 W
b111100 5&
#143
b0 S
1U
b11111111111111111111100000010100 W
1w
b11111111111111111111100000010100 m$
1T%
1~%
b0 5&
0K&
b11111111111111111111100000010100 X&
#144
b11111110000001000000100011100011 x
1:"
b11111110000001000000100011100011 U%
1u%
b1010111 w%
0~%
#145
b11 S
0U
0w
0:"
b11111111111111111111100011000000 m$
1S%
0T%
b1000111 w%
b11000000 !&
b10100 /&
b100000 5&
1D&
b10001 E&
b1000 L&
b0 R&
b11111111111111111111100011000000 X&
1;'
#146
b0 x
0u%
b11100000 !&
b0 5&
#147
b11110000 !&
b100000 5&
0D&
#148
b1 S
b1111111111111111111110001100000 m$
b1111111111111111111111110000000 /%
b1 O%
b1010011 w%
b0 !&
b11000 E&
b1111111111111111111110001100000 X&
b1111111111111111111111110000000 x&
#149
b0 S
b111111111111111111111000110000 m$
b111111111111111111111111000000 /%
b1110000 w%
b1111100 !&
b11100 E&
b111111111111111111111000110000 X&
b111111111111111111111111000000 x&
#150
b11111111111111111111100011000 m$
b11111111111111111111111100000 /%
b1111000 w%
b111110 !&
b11110 E&
b11111111111111111111100011000 X&
b11111111111111111111111100000 x&
#151
b10 S
b1111111111111111111110001100 m$
b1111111111111111111111110000 /%
b1111100 w%
b11111 !&
b11111 E&
b1111111111111111111110001100 X&
b1111111111111111111111110000 x&
#152
b11 S
b10000111111111111111111111000100 m$
b111111111111111111111111000 /%
b1111 !&
b10000111111111111111111111000100 X&
b111111111111111111111111000 x&
#153
b11000011111111111111111111100000 m$
b11111111111111111111111100 /%
b111 !&
b100001 5&
1D&
b11000011111111111111111111100000 X&
b11111111111111111111111100 x&
#154
b11100001111111111111111111110000 m$
b1111111111111111111111110 /%
b11 !&
b1 5&
b11100001111111111111111111110000 X&
b1111111111111111111111110 x&
#155
b11110000111111111111111111111000 m$
b111111111111111111111111 /%
b1 !&
b100001 5&
0D&
b11110000111111111111111111111000 X&
b111111111111111111111111 x&
#156
b11111000011111111111111111111100 m$
b11111111111111111111111 /%
b1010000 w%
b0 !&
b11111000011111111111111111111100 X&
b11111111111111111111111 x&
#157
b11111100001111111111111111111100 m$
b1111111111111111111111 /%
b1111101 w%
b11111100001111111111111111111100 X&
b1111111111111111111111 x&
#158
b11111110000111111111111111111100 m$
b111111111111111111111 /%
b11111110000111111111111111111100 X&
b111111111111111111111 x&
#159
b11111111000011111111111111111100 m$
b11111111111111111111 /%
b11111111000011111111111111111100 X&
b11111111111111111111 x&
#160
b11111111100001111111111111111100 m$
b1111111111111111111 /%
b11111111100001111111111111111100 X&
b1111111111111111111 x&
#161
b11111111110000111111111111111100 m$
b111111111111111111 /%
b100010 5&
1D&
b11111111110000111111111111111100 X&
b111111111111111111 x&
#162
b11111111111000011111111111111100 m$
b11111111111111111 /%
b10 5&
b11111111111000011111111111111100 X&
b11111111111111111 x&
#163
b11111111111100001111111111111100 m$
b1111111111111111 /%
b100010 5&
0D&
b11111111111100001111111111111100 X&
b1111111111111111 x&
#164
b11111111111110000111111111111100 m$
b111111111111111 /%
b1010001 w%
b11111111111110000111111111111100 X&
b111111111111111 x&
#165
b11111111111111000011111111111100 m$
b11111111111111 /%
b1111110 w%
b11111111111111000011111111111100 X&
b11111111111111 x&
#166
b11111111111111100001111111111100 m$
b1111111111111 /%
b11111111111111100001111111111100 X&
b1111111111111 x&
#167
b11111111111111110000111111111100 m$
b111111111111 /%
b11111111111111110000111111111100 X&
b111111111111 x&
#168
b11111111111111111000011111111100 m$
b11111111111 /%
b11111111111111111000011111111100 X&
b11111111111 x&
#169
b11111111111111111100001111111100 m$
b1111111111 /%
b100011 5&
1D&
b11111111111111111100001111111100 X&
b1111111111 x&
#170
b11111111111111111110000111111100 m$
b111111111 /%
b11 5&
b11111111111111111110000111111100 X&
b111111111 x&
#171
b11111111111111111111000011111100 m$
b11111111 /%
b100011 5&
0D&
b11111111111111111111000011111100 X&
b11111111 x&
#172
b1 S
b11111111111111111111100001111100 m$
b1111111 /%
b1010010 w%
b11111111111111111111100001111100 X&
b1111111 x&
#173
b0 S
b11111111111111111111110000111100 m$
b111111 /%
b1111111 w%
b11111111111111111111110000111100 X&
b111111 x&
#174
b11111111111111111111111000011100 m$
b11111 /%
b11111111111111111111111000011100 X&
b11111 x&
#175
b11111111111111111111111100001100 m$
b1111 /%
b11111111111111111111111100001100 X&
b1111 x&
#176
b10 S
b11111111111111111111111110000100 m$
b111 /%
b11111111111111111111111110000100 X&
b111 x&
#177
b11 S
b11111111111111111111111111000000 m$
b11 /%
b100000 5&
b11111111111111111111111111000000 X&
b11 x&
#178
b11111111111111111111111111100000 m$
b1 /%
b0 5&
b11111111111111111111111111100000 X&
b1 x&
#179
b11111111111111111111111111110000 m$
b0 /%
b100000 5&
b11111111111111111111111111110000 X&
b0 x&
#180
b1010011 w%
#181
b1111111111111111111110000001010 W
b11111111111111111111111111111000 m$
b1111111 w%
b11111111111111111111111111111000 X&
#182
b111111111111111111111000000101 W
b11111111111111111111111111111100 m$
b1111100 w%
b11111111111111111111111111111100 X&
#183
b10011111111111111111111100000010 W
b100 O%
#184
b1001111111111111111111110000001 W
b1000 O%
#185
b100111111111111111111111000000 W
#186
b10011111111111111111111100000 W
b100001 5&
#187
b1001111111111111111111110000 W
b1 5&
#188
b100111111111111111111111000 W
b100001 5&
#189
b10011111111111111111111100 W
b1010000 w%
#190
b1001111111111111111111110 W
b1111101 w%
#191
b100111111111111111111111 W
#192
b10000000010011111111111111111111 W
#193
b11000000001001111111111111111111 W
#194
b11100000000100111111111111111111 W
b100010 5&
#195
b11110000000010011111111111111111 W
b10 5&
#196
b11111000000001001111111111111111 W
b100010 5&
#197
b11111100000000100111111111111111 W
b1010001 w%
#198
b11111110000000010011111111111111 W
b1111110 w%
#199
b11111111000000001001111111111111 W
#200
b11111111100000000100111111111111 W
#201
b11111111110000000010011111111111 W
#202
b11111111111000000001001111111111 W
b100011 5&
#203
b11111111111100000000100111111111 W
b11 5&
#204
b11111111111110000000010011111111 W
b100011 5&
#205
b11111111111111000000001001111111 W
b1010010 w%
#206
b11111111111111100000000100111111 W
b1111111 w%
#207
b11111111111111110000000010011111 W
#208
b11111111111111111000000001001111 W
#209
b11111111111111111100000000100111 W
#210
b11111111111111111110000000010011 W
b100000 5&
#211
b11111111111111111111000000001001 W
b0 5&
#212
b0 S
1U
b11111111111111111111100000000100 W
1w
b11111111111111111111100000000100 m$
0S%
1T%
b100000 5&
b11111111111111111111100000000100 X&
0;'
#213
b10001100000000000000000000100011 x
1:"
b10001100000000000000000000100011 U%
1u%
b1010011 w%
#214
b11 S
0U
0w
0:"
b11111111111111111111111111111100 m$
1S%
0T%
b11 w%
b0 5&
1D&
b0 E&
b0 L&
b11111111111111111111111111111100 X&
1;'
#215
b0 x
0u%
#216
0D&
#217
b1111111111111111111111111111100 m$
b10 O%
b1010011 w%
b1111111111111111111111111111100 X&
#218
b111111111111111111111111111100 m$
b1 O%
b1000000 w%
b10000 E&
b111111111111111111111111111100 X&
#219
b11111111111111111111111111100 m$
b1100000 w%
b11000 E&
b11111111111111111111111111100 X&
#220
b1111111111111111111111111100 m$
b110000 w%
b1100 E&
b1111111111111111111111111100 X&
#221
b111111111111111111111111100 m$
b11000 w%
b110 E&
b111111111111111111111111100 X&
#222
b11111111111111111111111100 m$
b1100 w%
b1 5&
1D&
b11 E&
b11111111111111111111111100 X&
#223
b10000001111111111111111111111100 m$
b1000100 w%
b10001 E&
b10000001111111111111111111111100 X&
#224
b11000000111111111111111111111100 m$
b1100000 w%
0D&
b11000 E&
b11000000111111111111111111111100 X&
#225
b1100000011111111111111111111100 m$
b1010000 w%
b11100 E&
b1100000011111111111111111111100 X&
#226
b110000001111111111111111111100 m$
b1111001 w%
b11110 E&
b110000001111111111111111111100 X&
#227
b11000000111111111111111111100 m$
b1111101 w%
b11111 E&
b11000000111111111111111111100 X&
#228
b10001100000011111111111111111100 m$
b10001100000011111111111111111100 X&
#229
b11000110000001111111111111111100 m$
b11000110000001111111111111111100 X&
#230
b11100011000000111111111111111100 m$
b10 5&
1D&
b11100011000000111111111111111100 X&
#231
b11110001100000011111111111111100 m$
b11110001100000011111111111111100 X&
#232
b11111000110000001111111111111100 m$
0D&
b11111000110000001111111111111100 X&
#233
b11111100011000000111111111111100 m$
b1010001 w%
b11111100011000000111111111111100 X&
#234
b11111110001100000011111111111100 m$
b1111110 w%
b11111110001100000011111111111100 X&
#235
b11111111000110000001111111111100 m$
b11111111000110000001111111111100 X&
#236
b11111111100011000000111111111100 m$
b11111111100011000000111111111100 X&
#237
b11111111110001100000011111111100 m$
b11111111110001100000011111111100 X&
#238
b11111111111000110000001111111100 m$
b11 5&
1D&
b11111111111000110000001111111100 X&
#239
b11111111111100011000000111111100 m$
b11111111111100011000000111111100 X&
#240
b11111111111110001100000011111100 m$
0D&
b11111111111110001100000011111100 X&
#241
b1 S
b11111111111111000110000001111100 m$
b1010010 w%
b11111111111111000110000001111100 X&
#242
b0 S
b11111111111111100011000000111100 m$
b1111111 w%
b11111111111111100011000000111100 X&
#243
b11111111111111110001100000011100 m$
b11111111111111110001100000011100 X&
#244
b11111111111111111000110000001100 m$
b11111111111111111000110000001100 X&
#245
b11111111111111111100011000000100 m$
b11111111111111111100011000000100 X&
#246
b11111111111111111110001100000000 m$
b0 5&
b11111111111111111110001100000000 X&
#247
b10 S
b11111111111111111111000110000000 m$
b11111111111111111111000110000000 X&
#248
b11 S
1V
b11111111111111111111100011000000 m$
1T%
b11111111111111111111100011000000 X&
#249
b10001100000000000000000000100011 x
1@"
1u%
b1010011 w%
#250
0V
b10001100000000000000000000100011 /%
0T%
b1111111 w%
b10001100000000000000000000100011 x&
#251
b1111111111111111111110000000010 W
b0 x
0@"
b1000110000000000000000000010001 /%
0u%
b10000000 !&
b1000110000000000000000000010001 x&
#252
b111111111111111111111000000001 W
b100011000000000000000000001000 /%
b1111100 w%
b11000000 !&
b100011000000000000000000001000 x&
#253
b11111111111111111111100000000 W
b10001100000000000000000000100 /%
b1100000 !&
b10001100000000000000000000100 x&
